%!PS-Adobe-3.0 EPSF-3.0
%%Creator: MATLAB, The Mathworks, Inc. Version 7.9.0.529 (R2009b). Operating System: Linux 2.6.26.6-49.fc8 #1 SMP Fri Oct 17 15:59:36 EDT 2008 i686.
%%Title: /home/saket/data/docs/curr-work/saket/sigmod10/fig/example_vol_regions-rh.eps
%%CreationDate: 10/23/2009  13:02:14
%%DocumentNeededFonts: Helvetica
%%+ Helvetica-Bold
%%DocumentProcessColors: Cyan Magenta Yellow Black
%%LanguageLevel: 2
%%Pages: 1
%%BoundingBox:  -330   -19   943   811
%%EndComments

%%BeginProlog
% MathWorks dictionary
/MathWorks 160 dict begin
% definition operators
/bdef {bind def} bind def
/ldef {load def} bind def
/xdef {exch def} bdef
/xstore {exch store} bdef
% operator abbreviations
/c  /clip ldef
/cc /concat ldef
/cp /closepath ldef
/gr /grestore ldef
/gs /gsave ldef
/mt /moveto ldef
/np /newpath ldef
/cm /currentmatrix ldef
/sm /setmatrix ldef
/rm /rmoveto ldef
/rl /rlineto ldef
/s {show newpath} bdef
/sc {setcmykcolor} bdef
/sr /setrgbcolor ldef
/sg /setgray ldef
/w /setlinewidth ldef
/j /setlinejoin ldef
/cap /setlinecap ldef
/rc {rectclip} bdef
/rf {rectfill} bdef
% page state control
/pgsv () def
/bpage {/pgsv save def} bdef
/epage {pgsv restore} bdef
/bplot /gsave ldef
/eplot {stroke grestore} bdef
% orientation switch
/portraitMode 0 def /landscapeMode 1 def /rotateMode 2 def
% coordinate system mappings
/dpi2point 0 def
% font control
/FontSize 0 def
/FMS {/FontSize xstore findfont [FontSize 0 0 FontSize neg 0 0]
  makefont setfont} bdef
/reencode {exch dup where {pop load} {pop StandardEncoding} ifelse
  exch dup 3 1 roll findfont dup length dict begin
  { 1 index /FID ne {def}{pop pop} ifelse } forall
  /Encoding exch def currentdict end definefont pop} bdef
/isroman {findfont /CharStrings get /Agrave known} bdef
/FMSR {3 1 roll 1 index dup isroman {reencode} {pop pop} ifelse
  exch FMS} bdef
/csm {1 dpi2point div -1 dpi2point div scale neg translate
 dup landscapeMode eq {pop -90 rotate}
  {rotateMode eq {90 rotate} if} ifelse} bdef
% line types: solid, dotted, dashed, dotdash
/SO { [] 0 setdash } bdef
/DO { [.5 dpi2point mul 4 dpi2point mul] 0 setdash } bdef
/DA { [6 dpi2point mul] 0 setdash } bdef
/DD { [.5 dpi2point mul 4 dpi2point mul 6 dpi2point mul 4
  dpi2point mul] 0 setdash } bdef
% macros for lines and objects
/L {lineto stroke} bdef
/MP {3 1 roll moveto 1 sub {rlineto} repeat} bdef
/AP {{rlineto} repeat} bdef
/PDlw -1 def
/W {/PDlw currentlinewidth def setlinewidth} def
/PP {closepath eofill} bdef
/DP {closepath stroke} bdef
/MR {4 -2 roll moveto dup  0 exch rlineto exch 0 rlineto
  neg 0 exch rlineto closepath} bdef
/FR {MR stroke} bdef
/PR {MR fill} bdef
/L1i {{currentfile picstr readhexstring pop} image} bdef
/tMatrix matrix def
/MakeOval {newpath tMatrix currentmatrix pop translate scale
0 0 1 0 360 arc tMatrix setmatrix} bdef
/FO {MakeOval stroke} bdef
/PO {MakeOval fill} bdef
/PD {currentlinewidth 2 div 0 360 arc fill
   PDlw -1 eq not {PDlw w /PDlw -1 def} if} def
/FA {newpath tMatrix currentmatrix pop translate scale
  0 0 1 5 -2 roll arc tMatrix setmatrix stroke} bdef
/PA {newpath tMatrix currentmatrix pop	translate 0 0 moveto scale
  0 0 1 5 -2 roll arc closepath tMatrix setmatrix fill} bdef
/FAn {newpath tMatrix currentmatrix pop translate scale
  0 0 1 5 -2 roll arcn tMatrix setmatrix stroke} bdef
/PAn {newpath tMatrix currentmatrix pop translate 0 0 moveto scale
  0 0 1 5 -2 roll arcn closepath tMatrix setmatrix fill} bdef
/vradius 0 def /hradius 0 def /lry 0 def
/lrx 0 def /uly 0 def /ulx 0 def /rad 0 def
/MRR {/vradius xdef /hradius xdef /lry xdef /lrx xdef /uly xdef
  /ulx xdef newpath tMatrix currentmatrix pop ulx hradius add uly
  vradius add translate hradius vradius scale 0 0 1 180 270 arc 
  tMatrix setmatrix lrx hradius sub uly vradius add translate
  hradius vradius scale 0 0 1 270 360 arc tMatrix setmatrix
  lrx hradius sub lry vradius sub translate hradius vradius scale
  0 0 1 0 90 arc tMatrix setmatrix ulx hradius add lry vradius sub
  translate hradius vradius scale 0 0 1 90 180 arc tMatrix setmatrix
  closepath} bdef
/FRR {MRR stroke } bdef
/PRR {MRR fill } bdef
/MlrRR {/lry xdef /lrx xdef /uly xdef /ulx xdef /rad lry uly sub 2 div def
  newpath tMatrix currentmatrix pop ulx rad add uly rad add translate
  rad rad scale 0 0 1 90 270 arc tMatrix setmatrix lrx rad sub lry rad
  sub translate rad rad scale 0 0 1 270 90 arc tMatrix setmatrix
  closepath} bdef
/FlrRR {MlrRR stroke } bdef
/PlrRR {MlrRR fill } bdef
/MtbRR {/lry xdef /lrx xdef /uly xdef /ulx xdef /rad lrx ulx sub 2 div def
  newpath tMatrix currentmatrix pop ulx rad add uly rad add translate
  rad rad scale 0 0 1 180 360 arc tMatrix setmatrix lrx rad sub lry rad
  sub translate rad rad scale 0 0 1 0 180 arc tMatrix setmatrix
  closepath} bdef
/FtbRR {MtbRR stroke } bdef
/PtbRR {MtbRR fill } bdef
/stri 6 array def /dtri 6 array def
/smat 6 array def /dmat 6 array def
/tmat1 6 array def /tmat2 6 array def /dif 3 array def
/asub {/ind2 exch def /ind1 exch def dup dup
  ind1 get exch ind2 get sub exch } bdef
/tri_to_matrix {
  2 0 asub 3 1 asub 4 0 asub 5 1 asub
  dup 0 get exch 1 get 7 -1 roll astore } bdef
/compute_transform {
  dmat dtri tri_to_matrix tmat1 invertmatrix 
  smat stri tri_to_matrix tmat2 concatmatrix } bdef
/ds {stri astore pop} bdef
/dt {dtri astore pop} bdef
/db {2 copy /cols xdef /rows xdef mul dup 3 mul string
  currentfile 
  3 index 0 eq {/ASCIIHexDecode filter}
  {/ASCII85Decode filter 3 index 2 eq {/RunLengthDecode filter} if }
  ifelse exch readstring pop
  dup 0 3 index getinterval /rbmap xdef
  dup 2 index dup getinterval /gbmap xdef
  1 index dup 2 mul exch getinterval /bbmap xdef pop pop}bdef
/it {gs np dtri aload pop moveto lineto lineto cp c
  cols rows 8 compute_transform 
  rbmap gbmap bbmap true 3 colorimage gr}bdef
/il {newpath moveto lineto stroke}bdef
currentdict end def
%%EndProlog

%%BeginSetup
MathWorks begin

0 cap

end
%%EndSetup

%%Page: 1 1
%%BeginPageSetup
%%PageBoundingBox:  -330   -19   943   811
MathWorks begin
bpage
%%EndPageSetup

%%BeginObject: obj1
bplot

/dpi2point 12 def
portraitMode -3960 9732 csm

    0     0 15282  9964 rc
85 dict begin %Colortable dictionary
/c0 { 0.000000 0.000000 0.000000 sr} bdef
/c1 { 1.000000 1.000000 1.000000 sr} bdef
/c2 { 0.900000 0.000000 0.000000 sr} bdef
/c3 { 0.000000 0.820000 0.000000 sr} bdef
/c4 { 0.000000 0.000000 0.800000 sr} bdef
/c5 { 0.910000 0.820000 0.320000 sr} bdef
/c6 { 1.000000 0.260000 0.820000 sr} bdef
/c7 { 0.000000 0.820000 0.820000 sr} bdef
c0
1 j
1 sg
   0    0 15283 9965 rf
9 w
0 8121 11843 0 0 -8121 1987 8868 4 MP
PP
-11843 0 0 8121 11843 0 0 -8121 1987 8868 5 MP stroke
6 w
DO
SO
9 w
0 sg
1987 8868 mt 13830 8868 L
1987  747 mt 13830  747 L
1987 8868 mt 1987  747 L
13830 8868 mt 13830  747 L
1987 8868 mt 13830 8868 L
1987 8868 mt 1987  747 L
4129 8868 mt 4129 8749 L
4129  747 mt 4129  865 L
%%IncludeResource: font Helvetica
/Helvetica /ISOLatin1Encoding 324 FMSR

3436 9203 mt 
(11:10 AM) s
7049 8868 mt 7049 8749 L
7049  747 mt 7049  865 L
6446 9203 mt 
(2:45 PM) s
9969 8868 mt 9969 8749 L
9969  747 mt 9969  865 L
9366 9203 mt 
(6:15 PM) s
12889 8868 mt 12889 8749 L
12889  747 mt 12889  865 L
12286 9203 mt 
(9:50 PM) s
1987 8114 mt 2105 8114 L
13830 8114 mt 13711 8114 L
1592 8234 mt 
(35) s
1987 6966 mt 2105 6966 L
13830 6966 mt 13711 6966 L
1592 7086 mt 
(40) s
1987 5818 mt 2105 5818 L
13830 5818 mt 13711 5818 L
1592 5938 mt 
(45) s
1987 4671 mt 2105 4671 L
13830 4671 mt 13711 4671 L
1592 4791 mt 
(50) s
1987 3523 mt 2105 3523 L
13830 3523 mt 13711 3523 L
1592 3643 mt 
(55) s
1987 2375 mt 2105 2375 L
13830 2375 mt 13711 2375 L
1592 2495 mt 
(60) s
1987 1228 mt 2105 1228 L
13830 1228 mt 13711 1228 L
1592 1348 mt 
(65) s
1987 8868 mt 13830 8868 L
1987  747 mt 13830  747 L
1987 8868 mt 1987  747 L
13830 8868 mt 13830  747 L
gs 1987 747 11844 8122 rc
27 w
8 8 29 104 29 -143 29 25 29 47 30 43 29 -78 29 -82 
29 -96 29 126 30 -157 29 -37 29 -47 29 -11 29 -37 30 -13 
29 -60 29 12 29 -23 29 -170 30 235 29 -197 29 106 29 117 
29 -194 30 13 29 -224 29 43 29 -80 29 38 30 -80 29 -14 
29 -42 29 36 29 -128 30 11 29 -32 29 38 29 -95 29 18 
30 -13 29 66 29 -141 29 -11 29 -32 30 59 29 -35 29 -125 
29 -63 29 -56 30 -63 29 -82 29 -26 29 -57 29 -31 30 -76 
29 77 29 -161 29 193 29 -31 30 165 29 -114 29 -189 29 -56 
29 -180 30 -1 29 -59 29 -128 29 84 29 -96 30 13 29 -200 
29 40 29 -201 29 -41 30 153 29 -303 29 120 29 28 29 -4 
30 -94 29 131 29 102 29 3 29 -13 30 -216 29 158 29 0 
29 120 29 -132 30 22 29 -39 29 -85 29 0 29 153 30 -39 
29 -97 29 -149 29 -193 29 117 30 -93 29 -59 29 60 29 -231 
29 -54 30 -11 29 -13 29 -86 29 54 29 -155 30 -327 29 -87 
29 -225 29 -195 30 -82 29 -320 29 79 29 -93 29 -137 30 -175 
29 -5 29 24 29 -177 29 54 30 64 29 -83 29 -90 29 212 
29 -97 30 100 29 76 29 -256 29 -70 29 -236 30 29 29 23 
29 55 29 5 29 -129 30 10 29 -65 29 -109 29 195 29 -180 
30 -23 29 -88 29 34 29 227 29 -576 30 278 29 -160 29 89 
29 -375 29 58 30 -102 29 -117 29 48 29 98 29 -39 30 45 
29 352 29 -370 29 -87 29 265 30 132 29 -134 29 -153 29 274 
29 -177 30 208 29 146 29 -282 29 502 29 -533 30 218 29 272 
29 168 29 -271 29 -365 30 80 29 33 29 -61 29 27 29 197 
30 199 29 -280 29 215 29 -137 29 -101 30 533 29 -299 29 247 
29 -341 29 43 30 621 29 -249 29 -352 29 208 29 155 30 -1 
29 -217 29 209 29 -236 29 143 30 -50 29 -233 29 346 29 -312 
29 90 30 471 29 -248 29 -124 29 -32 29 71 30 32 29 -156 
29 -263 29 22 29 -327 30 -267 29 64 29 -190 29 563 29 -385 
30 200 29 368 29 -264 29 683 29 -556 30 -123 29 111 29 770 
29 169 29 -707 30 103 29 266 29 -82 29 -275 29 532 30 -307 
29 132 29 71 29 293 30 -447 29 46 29 -160 29 -75 29 62 
30 -111 29 272 29 -486 29 226 29 59 30 141 29 -134 29 419 
29 -211 29 -58 30 -514 29 -536 29 -1 29 47 29 -208 30 -130 
29 1131 29 -538 29 232 29 -435 30 190 29 326 29 205 29 -668 
29 -14 30 240 29 -476 29 487 29 -1131 29 954 30 -810 29 187 
29 486 29 -94 29 244 30 16 29 616 29 -178 29 -413 29 -30 
30 -20 29 -221 29 647 29 -479 29 -303 30 1074 29 -972 29 299 
29 190 29 277 30 -326 5121 6973 300 MP stroke
29 634 29 -464 29 531 29 -484 30 -94 29 -33 29 5 29 -105 
29 62 30 -269 29 1007 29 -222 29 -664 29 -199 30 687 29 202 
29 -203 29 76 29 483 30 -305 29 115 29 -188 29 -227 29 330 
30 -213 29 148 29 -208 29 377 29 -207 30 199 29 -295 29 -60 
29 564 29 -216 30 373 29 126 29 -531 29 -145 29 237 30 94 
29 561 29 -251 29 -249 29 554 30 -496 29 174 29 144 29 -451 
29 308 30 -147 29 373 29 -290 29 203 29 -44 30 346 29 184 
29 72 29 -224 29 -300 30 1147 29 -533 29 -126 29 62 29 -262 
30 66 29 203 29 -108 29 269 29 45 30 -32 29 -55 29 -131 
29 165 30 -115 29 632 29 -488 29 60 29 -16 30 -67 29 159 
29 116 29 32 29 -174 30 595 29 -697 29 295 29 160 29 746 
30 -449 29 50 29 184 29 -97 29 364 30 -91 29 523 29 -362 
29 199 29 90 30 -1 29 60 29 543 29 -282 29 73 30 -12 
29 -65 29 34 29 396 10 77 1987 2406 109 MP stroke
gr

27 w
%%IncludeResource: font Helvetica-Bold
/Helvetica-Bold /ISOLatin1Encoding 456 FMSR

6930 9859 mt 
(Time \(hrs.\)) s
1293 6603 mt  -90 rotate
(Relative Humidity \(%\)) s
90 rotate
9 w
DA
12 w
0 j
 651  932 11315 3589 FO
1 j
0 j
2662 1538 6497 6881 FO
1 j
SO
27 w
408 343 10487 2344 2 MP stroke
-60 -50 63 112 10892 2625 3 MP
PP
-3 -62 -60 -50 63 112 10892 2625 4 MP stroke
61 -7 -121 -43 10955 2737 3 MP
PP
60 50 61 -7 -121 -43 10955 2737 4 MP stroke
%%IncludeResource: font Helvetica-Bold
/Helvetica-Bold /ISOLatin1Encoding 324 FMSR

7676 2271 mt 
(Region B -- 1.5 %) s
349 391 6542 4894 2 MP stroke
-52 -58 46 120 6897 5223 3 MP
PP
6 -62 -52 -58 46 120 6897 5223 4 MP stroke
61 2 -113 -60 6943 5343 3 MP
PP
52 58 61 2 -113 -60 6943 5343 4 MP stroke
3913 4821 mt 
(Region A -- 7 % ) s
9 w

end %%Color Dict

eplot
%%EndObject

epage
end

showpage

%%Trailer
%%EOF
