%!PS-Adobe-3.0 EPSF-3.0
%%Creator: MATLAB, The Mathworks, Inc. Version 7.7.0.471 (R2008b). Operating System: Linux 2.6.26.6-49.fc8 #1 SMP Fri Oct 17 15:59:36 EDT 2008 i686.
%%Title: /home/saket/data/docs/curr-work/saket/icde10/fig/example_uncertanity_bound.eps
%%CreationDate: 04/07/2009  14:22:54
%%DocumentNeededFonts: Helvetica
%%+ Helvetica-Bold
%%DocumentProcessColors: Cyan Magenta Yellow Black
%%LanguageLevel: 2
%%Pages: 1
%%BoundingBox:  -330   -19   943   811
%%EndComments

%%BeginProlog
% MathWorks dictionary
/MathWorks 160 dict begin
% definition operators
/bdef {bind def} bind def
/ldef {load def} bind def
/xdef {exch def} bdef
/xstore {exch store} bdef
% operator abbreviations
/c  /clip ldef
/cc /concat ldef
/cp /closepath ldef
/gr /grestore ldef
/gs /gsave ldef
/mt /moveto ldef
/np /newpath ldef
/cm /currentmatrix ldef
/sm /setmatrix ldef
/rm /rmoveto ldef
/rl /rlineto ldef
/s {show newpath} bdef
/sc {setcmykcolor} bdef
/sr /setrgbcolor ldef
/sg /setgray ldef
/w /setlinewidth ldef
/j /setlinejoin ldef
/cap /setlinecap ldef
/rc {rectclip} bdef
/rf {rectfill} bdef
% page state control
/pgsv () def
/bpage {/pgsv save def} bdef
/epage {pgsv restore} bdef
/bplot /gsave ldef
/eplot {stroke grestore} bdef
% orientation switch
/portraitMode 0 def /landscapeMode 1 def /rotateMode 2 def
% coordinate system mappings
/dpi2point 0 def
% font control
/FontSize 0 def
/FMS {/FontSize xstore findfont [FontSize 0 0 FontSize neg 0 0]
  makefont setfont} bdef
/reencode {exch dup where {pop load} {pop StandardEncoding} ifelse
  exch dup 3 1 roll findfont dup length dict begin
  { 1 index /FID ne {def}{pop pop} ifelse } forall
  /Encoding exch def currentdict end definefont pop} bdef
/isroman {findfont /CharStrings get /Agrave known} bdef
/FMSR {3 1 roll 1 index dup isroman {reencode} {pop pop} ifelse
  exch FMS} bdef
/csm {1 dpi2point div -1 dpi2point div scale neg translate
 dup landscapeMode eq {pop -90 rotate}
  {rotateMode eq {90 rotate} if} ifelse} bdef
% line types: solid, dotted, dashed, dotdash
/SO { [] 0 setdash } bdef
/DO { [.5 dpi2point mul 4 dpi2point mul] 0 setdash } bdef
/DA { [6 dpi2point mul] 0 setdash } bdef
/DD { [.5 dpi2point mul 4 dpi2point mul 6 dpi2point mul 4
  dpi2point mul] 0 setdash } bdef
% macros for lines and objects
/L {lineto stroke} bdef
/MP {3 1 roll moveto 1 sub {rlineto} repeat} bdef
/AP {{rlineto} repeat} bdef
/PDlw -1 def
/W {/PDlw currentlinewidth def setlinewidth} def
/PP {closepath eofill} bdef
/DP {closepath stroke} bdef
/MR {4 -2 roll moveto dup  0 exch rlineto exch 0 rlineto
  neg 0 exch rlineto closepath} bdef
/FR {MR stroke} bdef
/PR {MR fill} bdef
/L1i {{currentfile picstr readhexstring pop} image} bdef
/tMatrix matrix def
/MakeOval {newpath tMatrix currentmatrix pop translate scale
0 0 1 0 360 arc tMatrix setmatrix} bdef
/FO {MakeOval stroke} bdef
/PO {MakeOval fill} bdef
/PD {currentlinewidth 2 div 0 360 arc fill
   PDlw -1 eq not {PDlw w /PDlw -1 def} if} def
/FA {newpath tMatrix currentmatrix pop translate scale
  0 0 1 5 -2 roll arc tMatrix setmatrix stroke} bdef
/PA {newpath tMatrix currentmatrix pop	translate 0 0 moveto scale
  0 0 1 5 -2 roll arc closepath tMatrix setmatrix fill} bdef
/FAn {newpath tMatrix currentmatrix pop translate scale
  0 0 1 5 -2 roll arcn tMatrix setmatrix stroke} bdef
/PAn {newpath tMatrix currentmatrix pop translate 0 0 moveto scale
  0 0 1 5 -2 roll arcn closepath tMatrix setmatrix fill} bdef
/vradius 0 def /hradius 0 def /lry 0 def
/lrx 0 def /uly 0 def /ulx 0 def /rad 0 def
/MRR {/vradius xdef /hradius xdef /lry xdef /lrx xdef /uly xdef
  /ulx xdef newpath tMatrix currentmatrix pop ulx hradius add uly
  vradius add translate hradius vradius scale 0 0 1 180 270 arc 
  tMatrix setmatrix lrx hradius sub uly vradius add translate
  hradius vradius scale 0 0 1 270 360 arc tMatrix setmatrix
  lrx hradius sub lry vradius sub translate hradius vradius scale
  0 0 1 0 90 arc tMatrix setmatrix ulx hradius add lry vradius sub
  translate hradius vradius scale 0 0 1 90 180 arc tMatrix setmatrix
  closepath} bdef
/FRR {MRR stroke } bdef
/PRR {MRR fill } bdef
/MlrRR {/lry xdef /lrx xdef /uly xdef /ulx xdef /rad lry uly sub 2 div def
  newpath tMatrix currentmatrix pop ulx rad add uly rad add translate
  rad rad scale 0 0 1 90 270 arc tMatrix setmatrix lrx rad sub lry rad
  sub translate rad rad scale 0 0 1 270 90 arc tMatrix setmatrix
  closepath} bdef
/FlrRR {MlrRR stroke } bdef
/PlrRR {MlrRR fill } bdef
/MtbRR {/lry xdef /lrx xdef /uly xdef /ulx xdef /rad lrx ulx sub 2 div def
  newpath tMatrix currentmatrix pop ulx rad add uly rad add translate
  rad rad scale 0 0 1 180 360 arc tMatrix setmatrix lrx rad sub lry rad
  sub translate rad rad scale 0 0 1 0 180 arc tMatrix setmatrix
  closepath} bdef
/FtbRR {MtbRR stroke } bdef
/PtbRR {MtbRR fill } bdef
/stri 6 array def /dtri 6 array def
/smat 6 array def /dmat 6 array def
/tmat1 6 array def /tmat2 6 array def /dif 3 array def
/asub {/ind2 exch def /ind1 exch def dup dup
  ind1 get exch ind2 get sub exch } bdef
/tri_to_matrix {
  2 0 asub 3 1 asub 4 0 asub 5 1 asub
  dup 0 get exch 1 get 7 -1 roll astore } bdef
/compute_transform {
  dmat dtri tri_to_matrix tmat1 invertmatrix 
  smat stri tri_to_matrix tmat2 concatmatrix } bdef
/ds {stri astore pop} bdef
/dt {dtri astore pop} bdef
/db {2 copy /cols xdef /rows xdef mul dup 3 mul string
  currentfile 
  3 index 0 eq {/ASCIIHexDecode filter}
  {/ASCII85Decode filter 3 index 2 eq {/RunLengthDecode filter} if }
  ifelse exch readstring pop
  dup 0 3 index getinterval /rbmap xdef
  dup 2 index dup getinterval /gbmap xdef
  1 index dup 2 mul exch getinterval /bbmap xdef pop pop}bdef
/it {gs np dtri aload pop moveto lineto lineto cp c
  cols rows 8 compute_transform 
  rbmap gbmap bbmap true 3 colorimage gr}bdef
/il {newpath moveto lineto stroke}bdef
currentdict end def
%%EndProlog

%%BeginSetup
MathWorks begin

0 cap

end
%%EndSetup

%%Page: 1 1
%%BeginPageSetup
%%PageBoundingBox:  -330   -19   943   811
MathWorks begin
bpage
%%EndPageSetup

%%BeginObject: obj1
bplot

/dpi2point 12 def
portraitMode -3960 9732 csm

    0     0 15282  9964 rc
85 dict begin %Colortable dictionary
/c0 { 0.000000 0.000000 0.000000 sr} bdef
/c1 { 1.000000 1.000000 1.000000 sr} bdef
/c2 { 0.900000 0.000000 0.000000 sr} bdef
/c3 { 0.000000 0.820000 0.000000 sr} bdef
/c4 { 0.000000 0.000000 0.800000 sr} bdef
/c5 { 0.910000 0.820000 0.320000 sr} bdef
/c6 { 1.000000 0.260000 0.820000 sr} bdef
/c7 { 0.000000 0.820000 0.820000 sr} bdef
c0
1 j
1 sg
   0    0 15283 9965 rf
6 w
0 8121 11843 0 0 -8121 1987 8868 4 MP
PP
-11843 0 0 8121 11843 0 0 -8121 1987 8868 5 MP stroke
4 w
DO
0 sg
3369 8868 mt 3369  747 L
3369  747 mt 3369  747 L
4800 8868 mt 4800  747 L
4800  747 mt 4800  747 L
6232 8868 mt 6232  747 L
6232  747 mt 6232  747 L
7664 8868 mt 7664  747 L
7664  747 mt 7664  747 L
9096 8868 mt 9096  747 L
9096  747 mt 9096  747 L
10527 8868 mt 10527  747 L
10527  747 mt 10527  747 L
11959 8868 mt 11959  747 L
11959  747 mt 11959  747 L
13391 8868 mt 13391  747 L
13391  747 mt 13391  747 L
1987 8420 mt 13830 8420 L
13830 8420 mt 13830 8420 L
1987 7627 mt 13830 7627 L
13830 7627 mt 13830 7627 L
1987 6834 mt 13830 6834 L
13830 6834 mt 13830 6834 L
1987 6041 mt 13830 6041 L
13830 6041 mt 13830 6041 L
1987 5249 mt 13830 5249 L
13830 5249 mt 13830 5249 L
1987 4456 mt 13830 4456 L
13830 4456 mt 13830 4456 L
1987 3663 mt 13830 3663 L
13830 3663 mt 13830 3663 L
1987 2870 mt 13830 2870 L
13830 2870 mt 13830 2870 L
1987 2078 mt 13830 2078 L
13830 2078 mt 13830 2078 L
1987 1285 mt 13830 1285 L
13830 1285 mt 13830 1285 L
SO
6 w
1987 8868 mt 13830 8868 L
1987  747 mt 13830  747 L
1987 8868 mt 1987  747 L
13830 8868 mt 13830  747 L
1987 8868 mt 13830 8868 L
1987 8868 mt 1987  747 L
3082 8868 mt 3082 8808 L
3082  747 mt 3082  806 L
2796 8868 mt 2796 8808 L
2796  747 mt 2796  806 L
2510 8868 mt 2510 8808 L
2510  747 mt 2510  806 L
2223 8868 mt 2223 8808 L
2223  747 mt 2223  806 L
3369 8868 mt 3369 8749 L
3369  747 mt 3369  865 L
%%IncludeResource: font Helvetica-Bold
/Helvetica-Bold /ISOLatin1Encoding 288 FMSR

3289 9179 mt 
(5) s
3655 8868 mt 3655 8808 L
3655  747 mt 3655  806 L
3941 8868 mt 3941 8808 L
3941  747 mt 3941  806 L
4228 8868 mt 4228 8808 L
4228  747 mt 4228  806 L
4514 8868 mt 4514 8808 L
4514  747 mt 4514  806 L
4800 8868 mt 4800 8808 L
4800  747 mt 4800  806 L
4800 8868 mt 4800 8808 L
4800  747 mt 4800  806 L
4800 8868 mt 4800 8808 L
4800  747 mt 4800  806 L
4800 8868 mt 4800 8808 L
4800  747 mt 4800  806 L
4800 8868 mt 4800 8808 L
4800  747 mt 4800  806 L
4800 8868 mt 4800 8749 L
4800  747 mt 4800  865 L
4640 9179 mt 
(10) s
5087 8868 mt 5087 8808 L
5087  747 mt 5087  806 L
5373 8868 mt 5373 8808 L
5373  747 mt 5373  806 L
5659 8868 mt 5659 8808 L
5659  747 mt 5659  806 L
5946 8868 mt 5946 8808 L
5946  747 mt 5946  806 L
6232 8868 mt 6232 8808 L
6232  747 mt 6232  806 L
6232 8868 mt 6232 8808 L
6232  747 mt 6232  806 L
6232 8868 mt 6232 8808 L
6232  747 mt 6232  806 L
6232 8868 mt 6232 8808 L
6232  747 mt 6232  806 L
6232 8868 mt 6232 8808 L
6232  747 mt 6232  806 L
6232 8868 mt 6232 8749 L
6232  747 mt 6232  865 L
6072 9179 mt 
(15) s
6519 8868 mt 6519 8808 L
6519  747 mt 6519  806 L
6805 8868 mt 6805 8808 L
6805  747 mt 6805  806 L
7091 8868 mt 7091 8808 L
7091  747 mt 7091  806 L
7378 8868 mt 7378 8808 L
7378  747 mt 7378  806 L
7664 8868 mt 7664 8808 L
7664  747 mt 7664  806 L
7664 8868 mt 7664 8808 L
7664  747 mt 7664  806 L
7664 8868 mt 7664 8808 L
7664  747 mt 7664  806 L
7664 8868 mt 7664 8808 L
7664  747 mt 7664  806 L
7664 8868 mt 7664 8808 L
7664  747 mt 7664  806 L
7664 8868 mt 7664 8749 L
7664  747 mt 7664  865 L
7504 9179 mt 
(20) s
7950 8868 mt 7950 8808 L
7950  747 mt 7950  806 L
8237 8868 mt 8237 8808 L
8237  747 mt 8237  806 L
8523 8868 mt 8523 8808 L
8523  747 mt 8523  806 L
8809 8868 mt 8809 8808 L
8809  747 mt 8809  806 L
9096 8868 mt 9096 8808 L
9096  747 mt 9096  806 L
9096 8868 mt 9096 8808 L
9096  747 mt 9096  806 L
9096 8868 mt 9096 8808 L
9096  747 mt 9096  806 L
9096 8868 mt 9096 8808 L
9096  747 mt 9096  806 L
9096 8868 mt 9096 8808 L
9096  747 mt 9096  806 L
9096 8868 mt 9096 8749 L
9096  747 mt 9096  865 L
8936 9179 mt 
(25) s
9382 8868 mt 9382 8808 L
9382  747 mt 9382  806 L
9668 8868 mt 9668 8808 L
9668  747 mt 9668  806 L
9955 8868 mt 9955 8808 L
9955  747 mt 9955  806 L
10241 8868 mt 10241 8808 L
10241  747 mt 10241  806 L
10527 8868 mt 10527 8808 L
10527  747 mt 10527  806 L
10527 8868 mt 10527 8808 L
10527  747 mt 10527  806 L
10527 8868 mt 10527 8808 L
10527  747 mt 10527  806 L
10527 8868 mt 10527 8808 L
10527  747 mt 10527  806 L
10527 8868 mt 10527 8808 L
10527  747 mt 10527  806 L
10527 8868 mt 10527 8749 L
10527  747 mt 10527  865 L
10367 9179 mt 
(30) s
10814 8868 mt 10814 8808 L
10814  747 mt 10814  806 L
11100 8868 mt 11100 8808 L
11100  747 mt 11100  806 L
11386 8868 mt 11386 8808 L
11386  747 mt 11386  806 L
11673 8868 mt 11673 8808 L
11673  747 mt 11673  806 L
11959 8868 mt 11959 8808 L
11959  747 mt 11959  806 L
11959 8868 mt 11959 8808 L
11959  747 mt 11959  806 L
11959 8868 mt 11959 8808 L
11959  747 mt 11959  806 L
11959 8868 mt 11959 8808 L
11959  747 mt 11959  806 L
11959 8868 mt 11959 8808 L
11959  747 mt 11959  806 L
11959 8868 mt 11959 8749 L
11959  747 mt 11959  865 L
11799 9179 mt 
(35) s
12245 8868 mt 12245 8808 L
12245  747 mt 12245  806 L
12532 8868 mt 12532 8808 L
12532  747 mt 12532  806 L
12818 8868 mt 12818 8808 L
12818  747 mt 12818  806 L
13104 8868 mt 13104 8808 L
13104  747 mt 13104  806 L
13391 8868 mt 13391 8808 L
13391  747 mt 13391  806 L
13391 8868 mt 13391 8808 L
13391  747 mt 13391  806 L
13391 8868 mt 13391 8808 L
13391  747 mt 13391  806 L
13391 8868 mt 13391 8808 L
13391  747 mt 13391  806 L
13391 8868 mt 13391 8808 L
13391  747 mt 13391  806 L
13391 8868 mt 13391 8749 L
13391  747 mt 13391  865 L
13231 9179 mt 
(40) s
13677 8868 mt 13677 8808 L
13677  747 mt 13677  806 L
1987 8420 mt 2105 8420 L
13830 8420 mt 13711 8420 L
1624 8530 mt 
(-1) s
1987 7627 mt 2105 7627 L
13830 7627 mt 13711 7627 L
1792 7737 mt 
(0) s
1987 6834 mt 2105 6834 L
13830 6834 mt 13711 6834 L
1792 6944 mt 
(1) s
1987 6041 mt 2105 6041 L
13830 6041 mt 13711 6041 L
1792 6151 mt 
(2) s
1987 5249 mt 2105 5249 L
13830 5249 mt 13711 5249 L
1792 5359 mt 
(3) s
1987 4456 mt 2105 4456 L
13830 4456 mt 13711 4456 L
1792 4566 mt 
(4) s
1987 3663 mt 2105 3663 L
13830 3663 mt 13711 3663 L
1792 3773 mt 
(5) s
1987 2870 mt 2105 2870 L
13830 2870 mt 13711 2870 L
1792 2980 mt 
(6) s
1987 2078 mt 2105 2078 L
13830 2078 mt 13711 2078 L
1792 2188 mt 
(7) s
1987 1285 mt 2105 1285 L
13830 1285 mt 13711 1285 L
1792 1395 mt 
(8) s
1987 8868 mt 13830 8868 L
1987  747 mt 13830  747 L
1987 8868 mt 1987  747 L
13830 8868 mt 13830  747 L
gs 1987 747 11844 8122 rc
24 w
11 38 143 746 143 910 143 -121 143 -377 144 -310 143 63 143 -16 
143 -307 143 -60 143 -283 144 585 143 -119 143 747 143 979 143 -218 
143 -615 144 -1517 143 117 143 -856 143 -640 143 -334 144 -261 143 81 
143 31 143 -140 143 -10 143 -56 144 64 143 578 143 155 143 134 
143 -24 143 407 144 -300 143 1130 143 -180 143 254 143 -284 143 -362 
144 45 143 324 143 -149 143 -120 143 -436 143 -149 144 50 143 199 
143 449 143 434 143 746 143 758 144 903 143 -317 143 -362 143 -262 
143 -747 144 -347 143 46 143 -95 143 -30 143 -189 143 -77 144 -86 
143 -75 143 -874 143 -258 143 392 143 -1156 144 -615 143 -41 143 -640 
143 201 143 -32 143 -97 144 -264 143 -145 143 -135 143 170 143 326 
143 321 144 185 143 94 2080 6929 84 MP stroke
gr

24 w
gs 1982 1722 11948 6402 rc
2055 6904 mt 2105 6954 L
2105 6904 mt 2055 6954 L
2198 6998 mt 2248 7048 L
2248 6998 mt 2198 7048 L
2342 7183 mt 2392 7233 L
2392 7183 mt 2342 7233 L
2485 7504 mt 2535 7554 L
2535 7504 mt 2485 7554 L
2628 7830 mt 2678 7880 L
2678 7830 mt 2628 7880 L
2771 8000 mt 2821 8050 L
2821 8000 mt 2771 8050 L
2914 7865 mt 2964 7915 L
2964 7865 mt 2914 7915 L
3057 7720 mt 3107 7770 L
3107 7720 mt 3057 7770 L
3201 7456 mt 3251 7506 L
3251 7456 mt 3201 7506 L
3344 7359 mt 3394 7409 L
3394 7359 mt 3344 7409 L
3487 7327 mt 3537 7377 L
3537 7327 mt 3487 7377 L
3630 7528 mt 3680 7578 L
3680 7528 mt 3630 7578 L
3773 6888 mt 3823 6938 L
3823 6888 mt 3773 6938 L
3916 6847 mt 3966 6897 L
3966 6847 mt 3916 6897 L
4060 6232 mt 4110 6282 L
4110 6232 mt 4060 6282 L
4203 5076 mt 4253 5126 L
4253 5076 mt 4203 5126 L
4346 5468 mt 4396 5518 L
4396 5468 mt 4346 5518 L
4489 5210 mt 4539 5260 L
4539 5210 mt 4489 5260 L
4632 4336 mt 4682 4386 L
4682 4336 mt 4632 4386 L
4775 4261 mt 4825 4311 L
4825 4261 mt 4775 4311 L
4919 4175 mt 4969 4225 L
4969 4175 mt 4919 4225 L
5062 4098 mt 5112 4148 L
5112 4098 mt 5062 4148 L
5205 3909 mt 5255 3959 L
5255 3909 mt 5205 3959 L
5348 3879 mt 5398 3929 L
5398 3879 mt 5348 3929 L
5491 3784 mt 5541 3834 L
5541 3784 mt 5491 3834 L
5634 3830 mt 5684 3880 L
5684 3830 mt 5634 3880 L
5778 3483 mt 5828 3533 L
5828 3483 mt 5778 3533 L
5921 2736 mt 5971 2786 L
5971 2736 mt 5921 2786 L
6064 2474 mt 6114 2524 L
6114 2474 mt 6064 2524 L
6207 2112 mt 6257 2162 L
6257 2112 mt 6207 2162 L
6350 1795 mt 6400 1845 L
6400 1795 mt 6350 1845 L
6494 2698 mt 6544 2748 L
6544 2698 mt 6494 2748 L
6637 3456 mt 6687 3506 L
6687 3456 mt 6637 3506 L
6780 4202 mt 6830 4252 L
6830 4202 mt 6780 4252 L
6923 4636 mt 6973 4686 L
6973 4636 mt 6923 4686 L
7066 5085 mt 7116 5135 L
7116 5085 mt 7066 5135 L
7209 5284 mt 7259 5334 L
7259 5284 mt 7209 5334 L
7353 5334 mt 7403 5384 L
7403 5334 mt 7353 5384 L
7496 5185 mt 7546 5235 L
7546 5185 mt 7496 5235 L
7639 4749 mt 7689 4799 L
7689 4749 mt 7639 4799 L
7782 4629 mt 7832 4679 L
7832 4629 mt 7782 4679 L
7925 4480 mt 7975 4530 L
7975 4480 mt 7925 4530 L
8068 4804 mt 8118 4854 L
8118 4804 mt 8068 4854 L
8212 4849 mt 8262 4899 L
8262 4849 mt 8212 4899 L
8355 4487 mt 8405 4537 L
8405 4487 mt 8355 4537 L
8498 4203 mt 8548 4253 L
8548 4203 mt 8498 4253 L
8641 4457 mt 8691 4507 L
8691 4457 mt 8641 4507 L
8784 4277 mt 8834 4327 L
8834 4277 mt 8784 4327 L
8927 5407 mt 8977 5457 L
8977 5407 mt 8927 5457 L
9071 5107 mt 9121 5157 L
9121 5107 mt 9071 5157 L
9214 5514 mt 9264 5564 L
9264 5514 mt 9214 5564 L
9357 5490 mt 9407 5540 L
9407 5490 mt 9357 5540 L
9500 5624 mt 9550 5674 L
9550 5624 mt 9500 5674 L
9643 5779 mt 9693 5829 L
9693 5779 mt 9643 5829 L
9786 6357 mt 9836 6407 L
9836 6357 mt 9786 6407 L
9930 6421 mt 9980 6471 L
9980 6421 mt 9930 6471 L
10073 6365 mt 10123 6415 L
10123 6365 mt 10073 6415 L
10216 6355 mt 10266 6405 L
10266 6355 mt 10216 6405 L
10359 6215 mt 10409 6265 L
10409 6215 mt 10359 6265 L
10502 6246 mt 10552 6296 L
10552 6246 mt 10502 6296 L
10645 6327 mt 10695 6377 L
10695 6327 mt 10645 6377 L
10789 6066 mt 10839 6116 L
10839 6066 mt 10789 6116 L
10932 5732 mt 10982 5782 L
10982 5732 mt 10932 5782 L
11075 5092 mt 11125 5142 L
11125 5092 mt 11075 5142 L
11218 4236 mt 11268 4286 L
11268 4236 mt 11218 4286 L
11361 4353 mt 11411 4403 L
11411 4353 mt 11361 4403 L
11505 2836 mt 11555 2886 L
11555 2836 mt 11505 2886 L
11648 2221 mt 11698 2271 L
11698 2221 mt 11648 2271 L
11791 2003 mt 11841 2053 L
11841 2003 mt 11791 2053 L
11934 2982 mt 11984 3032 L
11984 2982 mt 11934 3032 L
12077 3729 mt 12127 3779 L
12127 3729 mt 12077 3779 L
12220 3610 mt 12270 3660 L
12270 3610 mt 12220 3660 L
12364 4195 mt 12414 4245 L
12414 4195 mt 12364 4245 L
12507 3912 mt 12557 3962 L
12557 3912 mt 12507 3962 L
12650 3852 mt 12700 3902 L
12700 3852 mt 12650 3902 L
12793 3545 mt 12843 3595 L
12843 3545 mt 12793 3595 L
12936 3529 mt 12986 3579 L
12986 3529 mt 12936 3579 L
13079 3592 mt 13129 3642 L
13129 3592 mt 13079 3642 L
13223 3282 mt 13273 3332 L
13273 3282 mt 13223 3332 L
13366 2905 mt 13416 2955 L
13416 2905 mt 13366 2955 L
13509 2784 mt 13559 2834 L
13559 2784 mt 13509 2834 L
13652 3694 mt 13702 3744 L
13702 3694 mt 13652 3744 L
13795 4440 mt 13845 4490 L
13845 4440 mt 13795 4490 L
gr

gs 1987 747 11844 8122 rc
DD
11 -11 143 931 143 931 143 -423 143 -702 144 -272 143 166 143 109 
143 -259 143 7 143 -259 144 210 143 -125 143 798 143 904 143 -214 
143 -606 144 -1450 143 220 143 -700 143 -948 143 -212 144 -351 143 264 
143 -220 143 -143 143 10 143 -61 144 113 143 574 143 212 143 26 
143 -5 143 485 144 -354 143 1277 143 -341 143 256 143 -148 143 -108 
144 108 143 754 143 -835 143 -73 143 -542 143 -258 144 81 143 237 
143 432 143 682 143 377 143 779 144 959 143 -312 143 -125 143 257 
143 -1453 144 -388 143 51 143 -96 143 -45 143 42 143 65 144 252 
143 1072 143 -1556 143 -1109 143 11 143 -1109 144 -632 143 63 143 -561 
143 -10 143 -63 143 -93 144 -260 143 -146 143 -127 143 210 143 388 
143 260 144 266 143 6 2080 6293 84 MP stroke
gr

DD
gs 1934 1005 12044 6565 rc
SO
40 W
2080 6293 PD
40 W
2223 6299 PD
40 W
2367 6565 PD
40 W
2510 6825 PD
40 W
2653 7213 PD
40 W
2796 7423 PD
40 W
2939 7296 PD
40 W
3082 7150 PD
40 W
3226 6890 PD
40 W
3369 6797 PD
40 W
3512 6734 PD
40 W
3655 6724 PD
40 W
3798 6163 PD
40 W
3941 6226 PD
40 W
4085 5594 PD
40 W
4228 4485 PD
40 W
4371 4496 PD
40 W
4514 3387 PD
40 W
4657 1831 PD
40 W
4800 2903 PD
40 W
4944 3155 PD
40 W
5087 3220 PD
40 W
5230 3262 PD
40 W
5373 3217 PD
40 W
5516 3121 PD
40 W
5659 3172 PD
40 W
5803 2784 PD
40 W
5946 1331 PD
40 W
6089 1588 PD
40 W
6232 1463 PD
40 W
6375 1151 PD
40 W
6519 2110 PD
40 W
6662 2889 PD
40 W
6805 3266 PD
40 W
6948 3948 PD
40 W
7091 4380 PD
40 W
7234 4617 PD
40 W
7378 4698 PD
40 W
7521 4440 PD
40 W
7664 3898 PD
40 W
7807 3825 PD
40 W
7950 2990 PD
40 W
8093 3744 PD
40 W
8237 3852 PD
40 W
8380 3744 PD
40 W
8523 3596 PD
40 W
8666 3852 PD
40 W
8809 3511 PD
40 W
8952 4788 PD
40 W
9096 4434 PD
40 W
9239 4919 PD
40 W
9382 4914 PD
40 W
9525 4940 PD
40 W
9668 5152 PD
40 W
9811 5726 PD
40 W
9955 5839 PD
40 W
10098 5778 PD
40 W
10241 5788 PD
40 W
10384 5645 PD
40 W
10527 5425 PD
40 W
10670 5689 PD
40 W
10814 5338 PD
40 W
10957 5126 PD
40 W
11100 4178 PD
40 W
11243 3478 PD
40 W
11386 3698 PD
40 W
11530 2248 PD
40 W
11673 1642 PD
40 W
11816 1428 PD
40 W
11959 2332 PD
40 W
12102 3130 PD
40 W
12245 3005 PD
40 W
12389 3215 PD
40 W
12532 2956 PD
40 W
12675 2963 PD
40 W
12818 2704 PD
40 W
12961 2813 PD
40 W
13104 2979 PD
40 W
13248 2707 PD
40 W
13391 2005 PD
40 W
13534 1582 PD
40 W
13677 2513 PD
40 W
13820 3444 PD
DD
gr

gs 1987 747 11844 8122 rc
11 87 143 561 143 888 143 183 143 -53 144 -349 143 -40 143 -140 
143 -354 143 -128 143 -306 144 958 143 -112 143 696 143 1054 143 -223 
143 -623 144 -1584 143 14 143 -1011 143 -333 143 -456 144 -171 143 -101 
143 282 143 -139 143 -29 143 -50 144 15 143 582 143 97 143 242 
143 -43 143 329 144 -247 143 984 143 -18 143 251 143 -420 143 -616 
144 -18 143 -106 143 537 143 -167 143 -330 143 -39 144 17 143 162 
143 467 143 186 143 1113 143 738 144 846 143 -322 143 -598 143 -780 
143 -42 144 -306 143 41 143 -95 143 -14 143 -421 143 -219 144 -423 
143 -1221 143 -193 143 593 143 774 143 -1204 144 -598 143 -145 143 -719 
143 412 143 -2 143 -101 144 -267 143 -145 143 -142 143 129 143 266 
143 381 144 104 143 182 2080 7565 84 MP stroke
gr

7037 9446 mt 
(Time \(hours\)) s
1504 6208 mt  -90 rotate
(Temperature \(deg C\)) s
90 rotate
%%IncludeResource: font Helvetica
/Helvetica /ISOLatin1Encoding 120 FMSR

1926 8973 mt 
( ) s
13770  851 mt 
( ) s
SO
6 w
1 sg
0 745 4397 0 0 -745 8330 8385 4 MP
PP
-4397 0 0 745 4397 0 0 -745 8330 8385 5 MP stroke
4 w
DO
SO
6 w
8330 8385 mt 12727 8385 L
8330 7640 mt 12727 7640 L
8330 8385 mt 8330 7640 L
12727 8385 mt 12727 7640 L
8330 8385 mt 12727 8385 L
8330 8385 mt 8330 7640 L
8330 8385 mt 12727 8385 L
8330 7640 mt 12727 7640 L
8330 8385 mt 8330 7640 L
12727 8385 mt 12727 7640 L
0 sg
%%IncludeResource: font Helvetica-Bold
/Helvetica-Bold /ISOLatin1Encoding 288 FMSR

8879 7943 mt 
(Inferred Value) s
gs 8330 7640 4398 746 rc
24 w
422 0 8414 7836 2 MP stroke
gs 8527 7738 197 197 rc
8600 7811 mt 8650 7861 L
8650 7811 mt 8600 7861 L
gr

gr

24 w
8879 8295 mt 
(Inferred Uncertanity Bounds) s
gs 8330 7640 4398 746 rc
DD
422 0 8414 8188 2 MP stroke
SO
gs 8479 8042 293 293 rc
40 W
8625 8188 PD
gr

6 w
gr

6 w

end %%Color Dict

eplot
%%EndObject

epage
end

showpage

%%Trailer
%%EOF
