%!PS-Adobe-3.0 EPSF-3.0
%%Creator: MATLAB, The Mathworks, Inc. Version 7.9.0.529 (R2009b). Operating System: Linux 2.6.26.6-49.fc8 #1 SMP Fri Oct 17 15:59:36 EDT 2008 i686.
%%Title: /home/saket/data/docs/curr-work/saket/sigmod10/fig/outlier_param_ex1.eps
%%CreationDate: 10/19/2009  18:44:32
%%DocumentNeededFonts: Helvetica
%%+ Helvetica-Bold
%%DocumentProcessColors: Cyan Magenta Yellow Black
%%LanguageLevel: 2
%%Pages: 1
%%BoundingBox:  -333   -21   946   812
%%EndComments

%%BeginProlog
% MathWorks dictionary
/MathWorks 160 dict begin
% definition operators
/bdef {bind def} bind def
/ldef {load def} bind def
/xdef {exch def} bdef
/xstore {exch store} bdef
% operator abbreviations
/c  /clip ldef
/cc /concat ldef
/cp /closepath ldef
/gr /grestore ldef
/gs /gsave ldef
/mt /moveto ldef
/np /newpath ldef
/cm /currentmatrix ldef
/sm /setmatrix ldef
/rm /rmoveto ldef
/rl /rlineto ldef
/s {show newpath} bdef
/sc {setcmykcolor} bdef
/sr /setrgbcolor ldef
/sg /setgray ldef
/w /setlinewidth ldef
/j /setlinejoin ldef
/cap /setlinecap ldef
/rc {rectclip} bdef
/rf {rectfill} bdef
% page state control
/pgsv () def
/bpage {/pgsv save def} bdef
/epage {pgsv restore} bdef
/bplot /gsave ldef
/eplot {stroke grestore} bdef
% orientation switch
/portraitMode 0 def /landscapeMode 1 def /rotateMode 2 def
% coordinate system mappings
/dpi2point 0 def
% font control
/FontSize 0 def
/FMS {/FontSize xstore findfont [FontSize 0 0 FontSize neg 0 0]
  makefont setfont} bdef
/reencode {exch dup where {pop load} {pop StandardEncoding} ifelse
  exch dup 3 1 roll findfont dup length dict begin
  { 1 index /FID ne {def}{pop pop} ifelse } forall
  /Encoding exch def currentdict end definefont pop} bdef
/isroman {findfont /CharStrings get /Agrave known} bdef
/FMSR {3 1 roll 1 index dup isroman {reencode} {pop pop} ifelse
  exch FMS} bdef
/csm {1 dpi2point div -1 dpi2point div scale neg translate
 dup landscapeMode eq {pop -90 rotate}
  {rotateMode eq {90 rotate} if} ifelse} bdef
% line types: solid, dotted, dashed, dotdash
/SO { [] 0 setdash } bdef
/DO { [.5 dpi2point mul 4 dpi2point mul] 0 setdash } bdef
/DA { [6 dpi2point mul] 0 setdash } bdef
/DD { [.5 dpi2point mul 4 dpi2point mul 6 dpi2point mul 4
  dpi2point mul] 0 setdash } bdef
% macros for lines and objects
/L {lineto stroke} bdef
/MP {3 1 roll moveto 1 sub {rlineto} repeat} bdef
/AP {{rlineto} repeat} bdef
/PDlw -1 def
/W {/PDlw currentlinewidth def setlinewidth} def
/PP {closepath eofill} bdef
/DP {closepath stroke} bdef
/MR {4 -2 roll moveto dup  0 exch rlineto exch 0 rlineto
  neg 0 exch rlineto closepath} bdef
/FR {MR stroke} bdef
/PR {MR fill} bdef
/L1i {{currentfile picstr readhexstring pop} image} bdef
/tMatrix matrix def
/MakeOval {newpath tMatrix currentmatrix pop translate scale
0 0 1 0 360 arc tMatrix setmatrix} bdef
/FO {MakeOval stroke} bdef
/PO {MakeOval fill} bdef
/PD {currentlinewidth 2 div 0 360 arc fill
   PDlw -1 eq not {PDlw w /PDlw -1 def} if} def
/FA {newpath tMatrix currentmatrix pop translate scale
  0 0 1 5 -2 roll arc tMatrix setmatrix stroke} bdef
/PA {newpath tMatrix currentmatrix pop	translate 0 0 moveto scale
  0 0 1 5 -2 roll arc closepath tMatrix setmatrix fill} bdef
/FAn {newpath tMatrix currentmatrix pop translate scale
  0 0 1 5 -2 roll arcn tMatrix setmatrix stroke} bdef
/PAn {newpath tMatrix currentmatrix pop translate 0 0 moveto scale
  0 0 1 5 -2 roll arcn closepath tMatrix setmatrix fill} bdef
/vradius 0 def /hradius 0 def /lry 0 def
/lrx 0 def /uly 0 def /ulx 0 def /rad 0 def
/MRR {/vradius xdef /hradius xdef /lry xdef /lrx xdef /uly xdef
  /ulx xdef newpath tMatrix currentmatrix pop ulx hradius add uly
  vradius add translate hradius vradius scale 0 0 1 180 270 arc 
  tMatrix setmatrix lrx hradius sub uly vradius add translate
  hradius vradius scale 0 0 1 270 360 arc tMatrix setmatrix
  lrx hradius sub lry vradius sub translate hradius vradius scale
  0 0 1 0 90 arc tMatrix setmatrix ulx hradius add lry vradius sub
  translate hradius vradius scale 0 0 1 90 180 arc tMatrix setmatrix
  closepath} bdef
/FRR {MRR stroke } bdef
/PRR {MRR fill } bdef
/MlrRR {/lry xdef /lrx xdef /uly xdef /ulx xdef /rad lry uly sub 2 div def
  newpath tMatrix currentmatrix pop ulx rad add uly rad add translate
  rad rad scale 0 0 1 90 270 arc tMatrix setmatrix lrx rad sub lry rad
  sub translate rad rad scale 0 0 1 270 90 arc tMatrix setmatrix
  closepath} bdef
/FlrRR {MlrRR stroke } bdef
/PlrRR {MlrRR fill } bdef
/MtbRR {/lry xdef /lrx xdef /uly xdef /ulx xdef /rad lrx ulx sub 2 div def
  newpath tMatrix currentmatrix pop ulx rad add uly rad add translate
  rad rad scale 0 0 1 180 360 arc tMatrix setmatrix lrx rad sub lry rad
  sub translate rad rad scale 0 0 1 0 180 arc tMatrix setmatrix
  closepath} bdef
/FtbRR {MtbRR stroke } bdef
/PtbRR {MtbRR fill } bdef
/stri 6 array def /dtri 6 array def
/smat 6 array def /dmat 6 array def
/tmat1 6 array def /tmat2 6 array def /dif 3 array def
/asub {/ind2 exch def /ind1 exch def dup dup
  ind1 get exch ind2 get sub exch } bdef
/tri_to_matrix {
  2 0 asub 3 1 asub 4 0 asub 5 1 asub
  dup 0 get exch 1 get 7 -1 roll astore } bdef
/compute_transform {
  dmat dtri tri_to_matrix tmat1 invertmatrix 
  smat stri tri_to_matrix tmat2 concatmatrix } bdef
/ds {stri astore pop} bdef
/dt {dtri astore pop} bdef
/db {2 copy /cols xdef /rows xdef mul dup 3 mul string
  currentfile 
  3 index 0 eq {/ASCIIHexDecode filter}
  {/ASCII85Decode filter 3 index 2 eq {/RunLengthDecode filter} if }
  ifelse exch readstring pop
  dup 0 3 index getinterval /rbmap xdef
  dup 2 index dup getinterval /gbmap xdef
  1 index dup 2 mul exch getinterval /bbmap xdef pop pop}bdef
/it {gs np dtri aload pop moveto lineto lineto cp c
  cols rows 8 compute_transform 
  rbmap gbmap bbmap true 3 colorimage gr}bdef
/il {newpath moveto lineto stroke}bdef
currentdict end def
%%EndProlog

%%BeginSetup
MathWorks begin

0 cap

end
%%EndSetup

%%Page: 1 1
%%BeginPageSetup
%%PageBoundingBox:  -333   -21   946   812
MathWorks begin
bpage
%%EndPageSetup

%%BeginObject: obj1
bplot

/dpi2point 12 def
portraitMode -3996 9744 csm

    0     0 15359 10002 rc
85 dict begin %Colortable dictionary
/c0 { 0.000000 0.000000 0.000000 sr} bdef
/c1 { 1.000000 1.000000 1.000000 sr} bdef
/c2 { 0.900000 0.000000 0.000000 sr} bdef
/c3 { 0.000000 0.820000 0.000000 sr} bdef
/c4 { 0.000000 0.000000 0.800000 sr} bdef
/c5 { 0.910000 0.820000 0.320000 sr} bdef
/c6 { 1.000000 0.260000 0.820000 sr} bdef
/c7 { 0.000000 0.820000 0.820000 sr} bdef
c0
1 j
1 sg
   0    0 15360 10003 rf
6 w
0 8152 11904 0 0 -8152 1996 8902 4 MP
PP
-11904 0 0 8152 11904 0 0 -8152 1996 8902 5 MP stroke
4 w
DO
SO
6 w
0 sg
1996 8902 mt 13900 8902 L
1996  750 mt 13900  750 L
1996 8902 mt 1996  750 L
13900 8902 mt 13900  750 L
1996 8902 mt 13900 8902 L
1996 8902 mt 1996  750 L
4345 8902 mt 4345 8782 L
4345  750 mt 4345  869 L
%%IncludeResource: font Helvetica
/Helvetica /ISOLatin1Encoding 120 FMSR

4245 9047 mt 
(100) s
6710 8902 mt 6710 8782 L
6710  750 mt 6710  869 L
6610 9047 mt 
(200) s
9075 8902 mt 9075 8782 L
9075  750 mt 9075  869 L
8975 9047 mt 
(300) s
11441 8902 mt 11441 8782 L
11441  750 mt 11441  869 L
11341 9047 mt 
(400) s
13806 8902 mt 13806 8782 L
13806  750 mt 13806  869 L
13706 9047 mt 
(500) s
1996 8902 mt 2116 8902 L
13900 8902 mt 13780 8902 L
1896 8946 mt 
(0) s
1996 6864 mt 2116 6864 L
13900 6864 mt 13780 6864 L
1896 6908 mt 
(5) s
1996 4826 mt 2116 4826 L
13900 4826 mt 13780 4826 L
1829 4870 mt 
(10) s
1996 2788 mt 2116 2788 L
13900 2788 mt 13780 2788 L
1829 2832 mt 
(15) s
1996  750 mt 2116  750 L
13900  750 mt 13780  750 L
1829  794 mt 
(20) s
1996 8902 mt 13900 8902 L
1996  750 mt 13900  750 L
1996 8902 mt 1996  750 L
13900 8902 mt 13900  750 L
gs 1996 750 11905 8153 rc
24 -12 24 4 23 -8 24 -25 24 0 23 -4 24 -12 24 0 
23 8 24 -8 24 4 23 -12 24 0 23 8 24 -16 24 4 
23 8 24 4 24 -12 23 20 24 -12 24 -12 23 12 24 -4 
24 -4 23 20 24 -8 24 -21 23 5 24 -9 24 -24 23 -25 
24 -12 24 12 23 17 24 -12 23 12 24 8 24 4 23 -29 
24 -57 24 0 23 -12 24 8 24 13 23 8 24 8 24 -8 
23 4 24 4 24 4 23 12 24 33 24 8 23 37 24 -9 
24 -4 23 -40 24 49 24 -33 23 -29 24 37 23 -8 24 12 
24 21 23 -5 24 29 24 4 23 -28 24 -9 24 17 23 -4 
24 -17 24 -4 23 8 24 -8 24 17 23 -5 24 -36 24 0 
23 -49 24 24 24 -24 23 12 24 4 24 21 23 32 24 -8 
23 20 24 17 24 8 23 16 24 8 24 25 23 -8 24 -66 
24 -16 23 4 24 29 24 4 23 -12 24 8 24 8 23 0 
24 0 24 16 23 0 24 4 24 -12 23 0 24 -4 23 0 
24 12 24 4 23 -12 24 -4 24 -29 23 21 24 -12 24 -17 
23 8 24 0 24 4 23 5 24 16 24 8 23 16 24 -8 
24 16 23 5 24 16 24 20 23 8 24 17 24 4 23 12 
24 8 23 8 24 33 24 32 23 -8 24 25 24 20 23 -12 
24 -29 24 62 23 4 24 20 24 4 23 8 24 0 24 4 
23 -4 24 17 24 -29 23 -49 24 0 24 16 23 -20 24 -29 
24 -4 23 -4 24 -20 23 -8 24 -25 24 8 23 -12 24 -20 
24 12 23 -16 24 32 24 25 23 37 24 -21 24 8 23 -8 
24 8 24 8 23 41 24 -28 24 12 23 8 24 -33 24 -32 
23 41 24 24 24 25 23 32 24 53 23 94 24 110 24 -102 
23 24 24 -138 24 20 23 -36 24 4 24 -17 23 4 24 33 
24 0 23 8 24 41 24 16 23 -36 24 -4 24 -9 23 25 
24 24 24 -24 23 -8 24 -4 23 12 24 -12 24 28 23 -8 
24 -49 24 -4 23 -12 24 0 24 -8 23 16 24 -122 24 24 
23 -90 24 -36 24 -4 23 0 24 49 24 48 23 17 24 16 
24 25 23 -86 24 12 24 57 23 -49 24 -81 23 -21 24 -8 
24 -12 23 -12 24 4 24 -12 23 -33 24 12 24 33 23 0 
24 -25 24 17 23 -4 24 4 24 61 23 4 24 -53 24 -12 
23 0 24 16 24 -16 23 -12 24 4 24 8 23 20 24 -4 
23 8 24 29 24 -13 23 0 24 5 24 -17 23 -4 24 -4 
24 16 23 29 24 16 24 -24 23 28 24 -32 24 20 23 8 
24 17 24 24 23 20 24 53 24 -24 23 33 24 -9 23 -49 
24 -8 24 -32 23 8 24 -45 24 -20 23 -29 24 -20 24 8 
23 0 24 16 24 8 6757 6497 300 MP stroke
23 8 24 9 24 16 23 8 24 0 24 -16 23 8 24 4 
24 4 23 -4 24 -16 24 12 23 -8 24 28 23 4 24 0 
24 -32 23 12 24 -4 24 8 23 12 24 -16 24 0 23 -4 
24 -25 24 13 23 -4 24 4 24 -4 23 0 24 4 24 -8 
23 0 24 -13 24 0 23 0 24 25 24 -25 23 0 24 -4 
23 29 24 8 24 16 23 -32 24 16 24 -16 23 -41 24 -8 
24 4 23 12 24 -41 24 21 23 16 24 -20 24 -4 23 4 
24 16 24 0 23 -12 24 4 24 -8 23 0 24 0 23 -17 
24 -8 24 21 23 -13 24 -16 24 -8 23 24 24 8 24 0 
23 0 24 17 24 16 23 4 24 12 24 0 23 25 24 0 
24 -8 23 -33 24 -4 24 -12 23 8 24 12 24 -32 23 -5 
24 0 23 -40 24 8 24 -4 23 20 24 -12 24 -12 23 0 
24 0 24 8 23 -16 24 -9 24 -8 23 8 24 -24 24 -20 
23 8 24 4 24 4 23 4 24 24 24 9 23 -9 24 4 
24 5 23 0 24 12 23 -12 24 8 24 -25 23 8 24 9 
24 16 23 0 24 0 24 0 23 16 24 8 24 17 23 4 
24 -61 24 0 23 8 24 -25 24 21 23 24 24 20 24 -24 
23 0 24 -16 24 40 23 57 24 58 23 36 24 -12 24 -49 
23 -4 24 20 24 25 23 8 24 -24 24 12 23 -12 24 -25 
24 12 23 -81 24 -8 24 -8 23 0 24 20 24 16 23 21 
24 -9 24 4 23 -32 24 -20 23 -5 24 17 24 -49 23 -16 
24 48 24 -69 23 -12 24 24 24 -12 23 41 24 4 24 -53 
23 12 24 12 24 33 23 12 24 -16 24 8 23 -24 24 -33 
24 8 23 25 24 -37 24 29 23 24 24 -8 23 24 24 -49 
24 25 23 -25 24 0 24 -61 23 21 24 -29 24 29 23 -53 
24 20 2003 6676 202 MP stroke
gr

%%IncludeResource: font Helvetica-Bold
/Helvetica-Bold /ISOLatin1Encoding 144 FMSR

7702 9627 mt 
(Time \(mins.\)) s
1432 5389 mt  -90 rotate
(Temperature \(deg. C\)) s
90 rotate

end %%Color Dict

eplot
%%EndObject

epage
end

showpage

%%Trailer
%%EOF
