%!PS-Adobe-3.0 EPSF-3.0
%%Creator: MATLAB, The Mathworks, Inc. Version 7.9.0.529 (R2009b). Operating System: Linux 2.6.26.6-49.fc8 #1 SMP Fri Oct 17 15:59:36 EDT 2008 i686.
%%Title: /tmp/garch_with_outliers.eps
%%CreationDate: 11/06/2009  00:36:50
%%DocumentNeededFonts: Helvetica
%%+ Helvetica-Bold
%%DocumentProcessColors: Cyan Magenta Yellow Black
%%LanguageLevel: 2
%%Pages: 1
%%BoundingBox:  -330   -19   943   811
%%EndComments

%%BeginProlog
% MathWorks dictionary
/MathWorks 160 dict begin
% definition operators
/bdef {bind def} bind def
/ldef {load def} bind def
/xdef {exch def} bdef
/xstore {exch store} bdef
% operator abbreviations
/c  /clip ldef
/cc /concat ldef
/cp /closepath ldef
/gr /grestore ldef
/gs /gsave ldef
/mt /moveto ldef
/np /newpath ldef
/cm /currentmatrix ldef
/sm /setmatrix ldef
/rm /rmoveto ldef
/rl /rlineto ldef
/s {show newpath} bdef
/sc {setcmykcolor} bdef
/sr /setrgbcolor ldef
/sg /setgray ldef
/w /setlinewidth ldef
/j /setlinejoin ldef
/cap /setlinecap ldef
/rc {rectclip} bdef
/rf {rectfill} bdef
% page state control
/pgsv () def
/bpage {/pgsv save def} bdef
/epage {pgsv restore} bdef
/bplot /gsave ldef
/eplot {stroke grestore} bdef
% orientation switch
/portraitMode 0 def /landscapeMode 1 def /rotateMode 2 def
% coordinate system mappings
/dpi2point 0 def
% font control
/FontSize 0 def
/FMS {/FontSize xstore findfont [FontSize 0 0 FontSize neg 0 0]
  makefont setfont} bdef
/reencode {exch dup where {pop load} {pop StandardEncoding} ifelse
  exch dup 3 1 roll findfont dup length dict begin
  { 1 index /FID ne {def}{pop pop} ifelse } forall
  /Encoding exch def currentdict end definefont pop} bdef
/isroman {findfont /CharStrings get /Agrave known} bdef
/FMSR {3 1 roll 1 index dup isroman {reencode} {pop pop} ifelse
  exch FMS} bdef
/csm {1 dpi2point div -1 dpi2point div scale neg translate
 dup landscapeMode eq {pop -90 rotate}
  {rotateMode eq {90 rotate} if} ifelse} bdef
% line types: solid, dotted, dashed, dotdash
/SO { [] 0 setdash } bdef
/DO { [.5 dpi2point mul 4 dpi2point mul] 0 setdash } bdef
/DA { [6 dpi2point mul] 0 setdash } bdef
/DD { [.5 dpi2point mul 4 dpi2point mul 6 dpi2point mul 4
  dpi2point mul] 0 setdash } bdef
% macros for lines and objects
/L {lineto stroke} bdef
/MP {3 1 roll moveto 1 sub {rlineto} repeat} bdef
/AP {{rlineto} repeat} bdef
/PDlw -1 def
/W {/PDlw currentlinewidth def setlinewidth} def
/PP {closepath eofill} bdef
/DP {closepath stroke} bdef
/MR {4 -2 roll moveto dup  0 exch rlineto exch 0 rlineto
  neg 0 exch rlineto closepath} bdef
/FR {MR stroke} bdef
/PR {MR fill} bdef
/L1i {{currentfile picstr readhexstring pop} image} bdef
/tMatrix matrix def
/MakeOval {newpath tMatrix currentmatrix pop translate scale
0 0 1 0 360 arc tMatrix setmatrix} bdef
/FO {MakeOval stroke} bdef
/PO {MakeOval fill} bdef
/PD {currentlinewidth 2 div 0 360 arc fill
   PDlw -1 eq not {PDlw w /PDlw -1 def} if} def
/FA {newpath tMatrix currentmatrix pop translate scale
  0 0 1 5 -2 roll arc tMatrix setmatrix stroke} bdef
/PA {newpath tMatrix currentmatrix pop	translate 0 0 moveto scale
  0 0 1 5 -2 roll arc closepath tMatrix setmatrix fill} bdef
/FAn {newpath tMatrix currentmatrix pop translate scale
  0 0 1 5 -2 roll arcn tMatrix setmatrix stroke} bdef
/PAn {newpath tMatrix currentmatrix pop translate 0 0 moveto scale
  0 0 1 5 -2 roll arcn closepath tMatrix setmatrix fill} bdef
/vradius 0 def /hradius 0 def /lry 0 def
/lrx 0 def /uly 0 def /ulx 0 def /rad 0 def
/MRR {/vradius xdef /hradius xdef /lry xdef /lrx xdef /uly xdef
  /ulx xdef newpath tMatrix currentmatrix pop ulx hradius add uly
  vradius add translate hradius vradius scale 0 0 1 180 270 arc 
  tMatrix setmatrix lrx hradius sub uly vradius add translate
  hradius vradius scale 0 0 1 270 360 arc tMatrix setmatrix
  lrx hradius sub lry vradius sub translate hradius vradius scale
  0 0 1 0 90 arc tMatrix setmatrix ulx hradius add lry vradius sub
  translate hradius vradius scale 0 0 1 90 180 arc tMatrix setmatrix
  closepath} bdef
/FRR {MRR stroke } bdef
/PRR {MRR fill } bdef
/MlrRR {/lry xdef /lrx xdef /uly xdef /ulx xdef /rad lry uly sub 2 div def
  newpath tMatrix currentmatrix pop ulx rad add uly rad add translate
  rad rad scale 0 0 1 90 270 arc tMatrix setmatrix lrx rad sub lry rad
  sub translate rad rad scale 0 0 1 270 90 arc tMatrix setmatrix
  closepath} bdef
/FlrRR {MlrRR stroke } bdef
/PlrRR {MlrRR fill } bdef
/MtbRR {/lry xdef /lrx xdef /uly xdef /ulx xdef /rad lrx ulx sub 2 div def
  newpath tMatrix currentmatrix pop ulx rad add uly rad add translate
  rad rad scale 0 0 1 180 360 arc tMatrix setmatrix lrx rad sub lry rad
  sub translate rad rad scale 0 0 1 0 180 arc tMatrix setmatrix
  closepath} bdef
/FtbRR {MtbRR stroke } bdef
/PtbRR {MtbRR fill } bdef
/stri 6 array def /dtri 6 array def
/smat 6 array def /dmat 6 array def
/tmat1 6 array def /tmat2 6 array def /dif 3 array def
/asub {/ind2 exch def /ind1 exch def dup dup
  ind1 get exch ind2 get sub exch } bdef
/tri_to_matrix {
  2 0 asub 3 1 asub 4 0 asub 5 1 asub
  dup 0 get exch 1 get 7 -1 roll astore } bdef
/compute_transform {
  dmat dtri tri_to_matrix tmat1 invertmatrix 
  smat stri tri_to_matrix tmat2 concatmatrix } bdef
/ds {stri astore pop} bdef
/dt {dtri astore pop} bdef
/db {2 copy /cols xdef /rows xdef mul dup 3 mul string
  currentfile 
  3 index 0 eq {/ASCIIHexDecode filter}
  {/ASCII85Decode filter 3 index 2 eq {/RunLengthDecode filter} if }
  ifelse exch readstring pop
  dup 0 3 index getinterval /rbmap xdef
  dup 2 index dup getinterval /gbmap xdef
  1 index dup 2 mul exch getinterval /bbmap xdef pop pop}bdef
/it {gs np dtri aload pop moveto lineto lineto cp c
  cols rows 8 compute_transform 
  rbmap gbmap bbmap true 3 colorimage gr}bdef
/il {newpath moveto lineto stroke}bdef
currentdict end def
%%EndProlog

%%BeginSetup
MathWorks begin

0 cap

end
%%EndSetup

%%Page: 1 1
%%BeginPageSetup
%%PageBoundingBox:  -330   -19   943   811
MathWorks begin
bpage
%%EndPageSetup

%%BeginObject: obj1
bplot

/dpi2point 12 def
portraitMode -3960 9732 csm

    0     0 15282  9964 rc
88 dict begin %Colortable dictionary
/c0 { 0.000000 0.000000 0.000000 sr} bdef
/c1 { 1.000000 1.000000 1.000000 sr} bdef
/c2 { 0.900000 0.000000 0.000000 sr} bdef
/c3 { 0.000000 0.820000 0.000000 sr} bdef
/c4 { 0.000000 0.000000 0.800000 sr} bdef
/c5 { 0.910000 0.820000 0.320000 sr} bdef
/c6 { 1.000000 0.260000 0.820000 sr} bdef
/c7 { 0.000000 0.820000 0.820000 sr} bdef
c0
1 j
1 sg
   0    0 15283 9965 rf
9 w
0 8121 11844 0 0 -8121 1986 8868 4 MP
PP
-11844 0 0 8121 11844 0 0 -8121 1986 8868 5 MP stroke
6 w
DO
SO
9 w
0 sg
1986 8868 mt 13830 8868 L
1986 8868 mt 1986  747 L
2740 8868 mt 2740 8749 L
%%IncludeResource: font Helvetica
/Helvetica /ISOLatin1Encoding 324 FMSR

2560 9203 mt 
(40) s
4486 8868 mt 4486 8749 L
4306 9203 mt 
(60) s
6232 8868 mt 6232 8749 L
6052 9203 mt 
(80) s
7978 8868 mt 7978 8749 L
7708 9203 mt 
(100) s
9723 8868 mt 9723 8749 L
9453 9203 mt 
(120) s
11469 8868 mt 11469 8749 L
11199 9203 mt 
(140) s
13215 8868 mt 13215 8749 L
12945 9203 mt 
(160) s
1986 8382 mt 2105 8382 L
1223 8502 mt 
(-100) s
1986 5911 mt 2105 5911 L
1403 6031 mt 
(-50) s
1986 3439 mt 2105 3439 L
1772 3559 mt 
(0) s
1986  968 mt 2105  968 L
1592 1088 mt 
(50) s
gs 1986 747 11845 8122 rc
24 w
84 5464 87 10 87 10 87 -5 88 -5 87 0 87 0 88 0 
87 -5 87 -5 87 -5 88 0 87 10 87 -5 88 0 87 0 
87 -15 87 -5 88 0 87 5 87 20 88 -10 87 10 87 5 
87 -10 88 -24 87 -55 87 -20 88 -59 87 -44 87 -40 87 -5 
88 -20 87 -24 87 -45 88 -20 87 -5 87 0 88 5 87 -5 
87 5 87 10 88 25 87 20 87 -5 88 -20 87 -5 87 10 
87 5 88 15 87 10 87 9 88 0 87 0 87 -4 87 4 
88 5 87 10 87 15 88 20 87 20 87 24 87 15 88 15 
87 15 87 34 88 15 87 -54 87 -30 87 20 88 30 87 -45 
87 -29 88 -20 87 -10 87 -35 87 -24 88 -20 87 -10 87 5 
88 0 87 0 87 -5 87 0 88 5 87 -5 87 -5 88 -5 
87 -15 87 -15 88 5 87 -5 87 5 87 5 88 10 87 0 
56 7 1986 3739 98 MP stroke
5 0 87 5 88 15 87 5 87 0 87 15 88 10 87 25 
87 29 88 10 87 -15 87 -15 87 -14 88 19 87 15 87 5 
88 0 87 0 87 10 87 -10 88 -10 87 -20 87 0 88 20 
87 30 87 34 87 10 88 20 87 55 87 9 88 5 87 10 
87 5 88 15 87 10 87 -10 87 1754 88 -1769 87 1448 84 -6917 
10425 8869 41 MP stroke
DD
88 13 87 -11 87 8 88 15 87 -33 87 -9 87 3 88 34 
87 18 87 -47 88 23 87 8 87 17 87 61 88 -119 87 -1 
87 -91 88 9 87 -133 87 -6 87 -4 88 28 87 -100 87 -43 
88 -9 87 2 87 12 88 -7 87 4 87 9 87 33 88 20 
87 14 87 -43 88 -16 87 12 87 11 87 17 88 20 87 -7 
87 3 88 0 87 -7 87 2 87 10 88 15 87 24 87 21 
88 37 87 9 87 15 87 13 88 63 87 41 87 48 88 -84 
87 -101 87 91 87 9 88 -64 87 -43 87 -24 88 4 87 -45 
87 -28 87 -34 88 -21 87 -7 87 22 88 2 87 -8 87 4 
87 -11 88 21 87 -4 87 2 88 4 87 -49 87 20 88 -19 
87 23 87 3 87 12 88 -6 87 18 56 17 1986 3668 87 MP stroke
4 -2643 88 9 87 21 87 -12 87 -13 88 0 87 2 87 8 
88 -4 87 2 9636 3377 11 MP stroke
5 0 87 22 88 8 87 -9 87 19 87 2 88 44 87 371 
87 350 88 579 87 -566 34 2074 12919 747 13 MP stroke
88 25 87 -4 87 -8 88 5 87 -9 87 -8 87 -9 88 -45 
87 61 87 0 88 4 87 23 87 -14 87 -60 88 -45 87 39 
87 -64 88 -111 87 4 87 19 87 -29 88 -30 87 -46 87 -21 
88 -10 87 -8 87 -1 88 -7 87 3 87 -1 87 26 88 37 
87 -9 87 -10 88 -7 87 16 87 -9 87 21 88 2 87 36 
87 -3 88 4 87 -12 87 9 87 -6 88 0 87 3 87 20 
88 0 87 50 87 14 87 17 88 -45 87 39 87 35 88 -53 
87 6 87 -59 87 149 88 -58 87 -34 87 -28 88 19 87 -47 
87 -32 87 -21 88 -13 87 19 87 -21 88 -1 87 -4 87 -7 
87 34 88 -31 87 -6 87 1 88 -35 87 -9 87 6 88 -4 
87 -9 87 0 87 22 88 -7 87 -2 56 13 1986 3787 87 MP stroke
7 5430 88 7 87 10 87 8 87 1 88 2 87 -4 87 -2 
88 -4 87 -10 9636 3431 11 MP stroke
18 1956 87 -708 71 -1248 11922 8869 4 MP stroke
5 0 87 22 88 8 87 -10 87 19 87 0 88 29 87 -93 
87 -457 88 -534 87 733 79 -4862 12874 8869 13 MP stroke
gr

24 w
DD
%%IncludeResource: font Helvetica-Bold
/Helvetica-Bold /ISOLatin1Encoding 456 FMSR

6682 9936 mt 
(Time \(mins.\)) s
1082 6839 mt  -90 rotate
(Temperature \(deg. C\)) s
90 rotate
SO
9 w
6 w
0 j
 116  145 10675 1691 FO
1 j
0 j
 111  126 10518 2000 FO
1 j
0 j
 150  182 10423 8674 FO
1 j
9 w
-638 0 11203 1134 2 MP stroke
78 0 -120 -45 10607 1179 3 MP
PP
42 45 78 0 -120 -45 10607 1179 4 MP stroke
-42 45 120 -45 10487 1134 3 MP
PP
-78 0 -42 45 120 -45 10487 1134 4 MP stroke
534 -2 12282 1155 2 MP stroke
-78 1 121 44 12773 1108 3 MP
PP
-43 -45 -78 1 121 44 12773 1108 4 MP stroke
42 -45 -120 46 12894 1152 3 MP
PP
78 -1 42 -45 -120 46 12894 1152 4 MP stroke
%%IncludeResource: font Helvetica
/Helvetica /ISOLatin1Encoding 324 FMSR

11598 1329 mt 
(\(A\) ) s
167 -455 4135 4166 2 MP stroke
-27 73 84 -97 4245 3735 3 MP
PP
-57 24 -27 73 84 -97 4245 3735 4 MP stroke
-28 -55 1 128 4329 3638 3 MP
PP
27 -73 -28 -55 1 128 4329 3638 4 MP stroke
2793 4467 mt 
(Estimated bounds ) s
2955 4840 mt 
(using clean data) s
2999 7010 mt 
(\(A\) -- Bounds estimated when ) s
2999 7383 mt 
(estimation window contains) s
2999 7756 mt 
(erroneous value) s
511 211 9627 8279 2 MP stroke
-72 -29 94 87 10116 8432 3 MP
PP
-22 -58 -72 -29 94 87 10116 8432 4 MP stroke
56 -25 -128 -4 10210 8519 3 MP
PP
72 29 56 -25 -128 -4 10210 8519 4 MP stroke
7862 8207 mt 
(   Erroneous) s
8341 8580 mt 
(Value) s
-487 -312 11211 2419 2 MP stroke
65 42 -77 -103 10736 2168 3 MP
PP
12 61 65 42 -77 -103 10736 2168 4 MP stroke
-60 15 125 27 10659 2065 3 MP
PP
-65 -42 -60 15 125 27 10659 2065 4 MP stroke
-393 -505 11259 2313 2 MP stroke
48 61 -38 -122 10856 1869 3 MP
PP
-10 61 48 61 -38 -122 10856 1869 4 MP stroke
-61 -6 109 67 10818 1747 3 MP
PP
-48 -61 -61 -6 109 67 10818 1747 4 MP stroke
11260 2614 mt 
(Erroneous) s
11523 2987 mt 
(Values) s
433 -408 9877 1651 2 MP stroke
-57 53 119 -49 10248 1239 3 MP
PP
-62 -4 -57 53 119 -49 10248 1239 4 MP stroke
0 -62 -57 115 10367 1190 3 MP
PP
57 -53 0 -62 -57 115 10367 1190 4 MP stroke
5381 1952 mt 
(Estimated bound is very high ) s
5946 2325 mt 
(\(approx. 1800 deg. c\) ) s
5138 2698 mt 
(showing failure of GARCH model) s

end %%Color Dict

eplot
%%EndObject

epage
end

showpage

%%Trailer
%%EOF
