%!PS-Adobe-3.0 EPSF-3.0
%%Creator: MATLAB, The Mathworks, Inc. Version 7.9.0.529 (R2009b). Operating System: Linux 2.6.26.6-49.fc8 #1 SMP Fri Oct 17 15:59:36 EDT 2008 i686.
%%Title: /home/saket/data/docs/curr-work/saket/sigmod10/fig/vol_accuracy_comp.eps
%%CreationDate: 10/25/2009  15:00:06
%%DocumentNeededFonts: Helvetica
%%+ Helvetica-Bold
%%DocumentProcessColors: Cyan Magenta Yellow Black
%%LanguageLevel: 2
%%Pages: 1
%%BoundingBox:  -330   -19   943   811
%%EndComments

%%BeginProlog
% MathWorks dictionary
/MathWorks 160 dict begin
% definition operators
/bdef {bind def} bind def
/ldef {load def} bind def
/xdef {exch def} bdef
/xstore {exch store} bdef
% operator abbreviations
/c  /clip ldef
/cc /concat ldef
/cp /closepath ldef
/gr /grestore ldef
/gs /gsave ldef
/mt /moveto ldef
/np /newpath ldef
/cm /currentmatrix ldef
/sm /setmatrix ldef
/rm /rmoveto ldef
/rl /rlineto ldef
/s {show newpath} bdef
/sc {setcmykcolor} bdef
/sr /setrgbcolor ldef
/sg /setgray ldef
/w /setlinewidth ldef
/j /setlinejoin ldef
/cap /setlinecap ldef
/rc {rectclip} bdef
/rf {rectfill} bdef
% page state control
/pgsv () def
/bpage {/pgsv save def} bdef
/epage {pgsv restore} bdef
/bplot /gsave ldef
/eplot {stroke grestore} bdef
% orientation switch
/portraitMode 0 def /landscapeMode 1 def /rotateMode 2 def
% coordinate system mappings
/dpi2point 0 def
% font control
/FontSize 0 def
/FMS {/FontSize xstore findfont [FontSize 0 0 FontSize neg 0 0]
  makefont setfont} bdef
/reencode {exch dup where {pop load} {pop StandardEncoding} ifelse
  exch dup 3 1 roll findfont dup length dict begin
  { 1 index /FID ne {def}{pop pop} ifelse } forall
  /Encoding exch def currentdict end definefont pop} bdef
/isroman {findfont /CharStrings get /Agrave known} bdef
/FMSR {3 1 roll 1 index dup isroman {reencode} {pop pop} ifelse
  exch FMS} bdef
/csm {1 dpi2point div -1 dpi2point div scale neg translate
 dup landscapeMode eq {pop -90 rotate}
  {rotateMode eq {90 rotate} if} ifelse} bdef
% line types: solid, dotted, dashed, dotdash
/SO { [] 0 setdash } bdef
/DO { [.5 dpi2point mul 4 dpi2point mul] 0 setdash } bdef
/DA { [6 dpi2point mul] 0 setdash } bdef
/DD { [.5 dpi2point mul 4 dpi2point mul 6 dpi2point mul 4
  dpi2point mul] 0 setdash } bdef
% macros for lines and objects
/L {lineto stroke} bdef
/MP {3 1 roll moveto 1 sub {rlineto} repeat} bdef
/AP {{rlineto} repeat} bdef
/PDlw -1 def
/W {/PDlw currentlinewidth def setlinewidth} def
/PP {closepath eofill} bdef
/DP {closepath stroke} bdef
/MR {4 -2 roll moveto dup  0 exch rlineto exch 0 rlineto
  neg 0 exch rlineto closepath} bdef
/FR {MR stroke} bdef
/PR {MR fill} bdef
/L1i {{currentfile picstr readhexstring pop} image} bdef
/tMatrix matrix def
/MakeOval {newpath tMatrix currentmatrix pop translate scale
0 0 1 0 360 arc tMatrix setmatrix} bdef
/FO {MakeOval stroke} bdef
/PO {MakeOval fill} bdef
/PD {currentlinewidth 2 div 0 360 arc fill
   PDlw -1 eq not {PDlw w /PDlw -1 def} if} def
/FA {newpath tMatrix currentmatrix pop translate scale
  0 0 1 5 -2 roll arc tMatrix setmatrix stroke} bdef
/PA {newpath tMatrix currentmatrix pop	translate 0 0 moveto scale
  0 0 1 5 -2 roll arc closepath tMatrix setmatrix fill} bdef
/FAn {newpath tMatrix currentmatrix pop translate scale
  0 0 1 5 -2 roll arcn tMatrix setmatrix stroke} bdef
/PAn {newpath tMatrix currentmatrix pop translate 0 0 moveto scale
  0 0 1 5 -2 roll arcn closepath tMatrix setmatrix fill} bdef
/vradius 0 def /hradius 0 def /lry 0 def
/lrx 0 def /uly 0 def /ulx 0 def /rad 0 def
/MRR {/vradius xdef /hradius xdef /lry xdef /lrx xdef /uly xdef
  /ulx xdef newpath tMatrix currentmatrix pop ulx hradius add uly
  vradius add translate hradius vradius scale 0 0 1 180 270 arc 
  tMatrix setmatrix lrx hradius sub uly vradius add translate
  hradius vradius scale 0 0 1 270 360 arc tMatrix setmatrix
  lrx hradius sub lry vradius sub translate hradius vradius scale
  0 0 1 0 90 arc tMatrix setmatrix ulx hradius add lry vradius sub
  translate hradius vradius scale 0 0 1 90 180 arc tMatrix setmatrix
  closepath} bdef
/FRR {MRR stroke } bdef
/PRR {MRR fill } bdef
/MlrRR {/lry xdef /lrx xdef /uly xdef /ulx xdef /rad lry uly sub 2 div def
  newpath tMatrix currentmatrix pop ulx rad add uly rad add translate
  rad rad scale 0 0 1 90 270 arc tMatrix setmatrix lrx rad sub lry rad
  sub translate rad rad scale 0 0 1 270 90 arc tMatrix setmatrix
  closepath} bdef
/FlrRR {MlrRR stroke } bdef
/PlrRR {MlrRR fill } bdef
/MtbRR {/lry xdef /lrx xdef /uly xdef /ulx xdef /rad lrx ulx sub 2 div def
  newpath tMatrix currentmatrix pop ulx rad add uly rad add translate
  rad rad scale 0 0 1 180 360 arc tMatrix setmatrix lrx rad sub lry rad
  sub translate rad rad scale 0 0 1 0 180 arc tMatrix setmatrix
  closepath} bdef
/FtbRR {MtbRR stroke } bdef
/PtbRR {MtbRR fill } bdef
/stri 6 array def /dtri 6 array def
/smat 6 array def /dmat 6 array def
/tmat1 6 array def /tmat2 6 array def /dif 3 array def
/asub {/ind2 exch def /ind1 exch def dup dup
  ind1 get exch ind2 get sub exch } bdef
/tri_to_matrix {
  2 0 asub 3 1 asub 4 0 asub 5 1 asub
  dup 0 get exch 1 get 7 -1 roll astore } bdef
/compute_transform {
  dmat dtri tri_to_matrix tmat1 invertmatrix 
  smat stri tri_to_matrix tmat2 concatmatrix } bdef
/ds {stri astore pop} bdef
/dt {dtri astore pop} bdef
/db {2 copy /cols xdef /rows xdef mul dup 3 mul string
  currentfile 
  3 index 0 eq {/ASCIIHexDecode filter}
  {/ASCII85Decode filter 3 index 2 eq {/RunLengthDecode filter} if }
  ifelse exch readstring pop
  dup 0 3 index getinterval /rbmap xdef
  dup 2 index dup getinterval /gbmap xdef
  1 index dup 2 mul exch getinterval /bbmap xdef pop pop}bdef
/it {gs np dtri aload pop moveto lineto lineto cp c
  cols rows 8 compute_transform 
  rbmap gbmap bbmap true 3 colorimage gr}bdef
/il {newpath moveto lineto stroke}bdef
currentdict end def
%%EndProlog

%%BeginSetup
MathWorks begin

0 cap

end
%%EndSetup

%%Page: 1 1
%%BeginPageSetup
%%PageBoundingBox:  -330   -19   943   811
MathWorks begin
bpage
%%EndPageSetup

%%BeginObject: obj1
bplot

/dpi2point 12 def
portraitMode -3960 9732 csm

    0     0 15282  9964 rc
85 dict begin %Colortable dictionary
/c0 { 0.000000 0.000000 0.000000 sr} bdef
/c1 { 1.000000 1.000000 1.000000 sr} bdef
/c2 { 0.900000 0.000000 0.000000 sr} bdef
/c3 { 0.000000 0.820000 0.000000 sr} bdef
/c4 { 0.000000 0.000000 0.800000 sr} bdef
/c5 { 0.910000 0.820000 0.320000 sr} bdef
/c6 { 1.000000 0.260000 0.820000 sr} bdef
/c7 { 0.000000 0.820000 0.820000 sr} bdef
c0
1 j
1 sg
   0    0 15283 9965 rf
24 w
0 8121 11843 0 0 -8121 1987 8868 4 MP
PP
-11843 0 0 8121 11843 0 0 -8121 1987 8868 5 MP stroke
16 w
DO
0 sg
1987 8868 mt 1987  747 L
1987  747 mt 1987  747 L
4355 8868 mt 4355  747 L
4355  747 mt 4355  747 L
6724 8868 mt 6724  747 L
6724  747 mt 6724  747 L
9092 8868 mt 9092  747 L
9092  747 mt 9092  747 L
11461 8868 mt 11461  747 L
11461  747 mt 11461  747 L
13830 8868 mt 13830  747 L
13830  747 mt 13830  747 L
1987 7243 mt 13830 7243 L
13830 7243 mt 13830 7243 L
1987 5619 mt 13830 5619 L
13830 5619 mt 13830 5619 L
1987 3995 mt 13830 3995 L
13830 3995 mt 13830 3995 L
1987 2371 mt 13830 2371 L
13830 2371 mt 13830 2371 L
1987  747 mt 13830  747 L
13830  747 mt 13830  747 L
SO
24 w
1987 8868 mt 13830 8868 L
1987 8868 mt 1987  747 L
1987 8868 mt 1987 8749 L
%%IncludeResource: font Helvetica
/Helvetica /ISOLatin1Encoding 324 FMSR

1897 9203 mt 
(0) s
4355 8868 mt 4355 8749 L
4130 9203 mt 
(0.2) s
6724 8868 mt 6724 8749 L
6499 9203 mt 
(0.4) s
9092 8868 mt 9092 8749 L
8867 9203 mt 
(0.6) s
11461 8868 mt 11461 8749 L
11236 9203 mt 
(0.8) s
13830 8868 mt 13830 8749 L
13740 9203 mt 
(1) s
1987 7243 mt 2105 7243 L
1502 7363 mt 
(0.2) s
1987 5619 mt 2105 5619 L
1502 5739 mt 
(0.4) s
1987 3995 mt 2105 3995 L
1502 4115 mt 
(0.6) s
1987 2371 mt 2105 2371 L
1502 2491 mt 
(0.8) s
1987  747 mt 2105  747 L
1772  867 mt 
(1) s
gs 1987 747 11844 8122 rc
DD
119 -48 118 -41 119 -28 118 -18 119 -10 118 -7 119 -5 118 -6 
118 -7 119 -8 118 -9 119 -8 118 -10 119 -9 118 -11 118 -13 
119 -13 118 -15 119 -16 118 -16 119 -15 118 -14 118 -15 119 -16 
118 -18 119 -19 118 -22 119 -23 118 -26 118 -29 119 -35 118 -40 
119 -46 118 -53 119 -61 118 -70 118 -82 119 -97 118 -116 119 -138 
118 -162 119 -187 118 -209 118 -229 119 -248 118 -268 119 -290 118 -311 
119 -333 118 -350 118 -361 119 -363 118 -352 119 -330 118 -300 119 -266 
118 -232 118 -203 119 -180 118 -160 119 -142 118 -127 119 -112 118 -97 
118 -83 119 -72 118 -60 119 -52 118 -45 119 -38 118 -33 118 -29 
119 -24 118 -21 119 -17 118 -14 119 -12 118 -10 118 -10 119 -12 
118 -12 119 -14 118 -13 119 -11 118 -10 118 -9 119 -7 118 -6 
119 -6 118 -6 119 -5 118 -5 118 -5 119 -6 118 -7 119 -11 
118 -18 119 -30 118 -41 118 -50 1987 8730 101 MP stroke
DA
119 -2 118 -3 119 -5 118 -5 119 -5 118 -5 119 -4 118 -6 
118 -5 119 -6 118 -6 119 -6 118 -6 119 -8 118 -9 118 -12 
119 -14 118 -14 119 -16 118 -15 119 -16 118 -17 118 -17 119 -20 
118 -22 119 -24 118 -26 119 -26 118 -29 118 -31 119 -37 118 -44 
119 -50 118 -55 119 -58 118 -64 118 -73 119 -89 118 -105 119 -125 
118 -147 119 -177 118 -209 118 -244 119 -273 118 -301 119 -330 118 -366 
119 -405 118 -441 118 -459 119 -450 118 -416 119 -366 118 -314 119 -268 
118 -230 118 -200 119 -171 118 -143 119 -119 118 -101 119 -90 118 -82 
118 -79 119 -73 118 -68 119 -61 118 -53 119 -45 118 -37 118 -29 
119 -25 118 -21 119 -20 118 -19 119 -19 118 -20 118 -20 119 -18 
118 -17 119 -14 118 -12 119 -10 118 -8 118 -6 119 -6 118 -6 
119 -7 118 -7 119 -7 118 -6 118 -6 119 -5 118 -4 119 -3 
118 -2 119 -1 118 -1 118 -1 1987 8867 101 MP stroke
gr

DA
gs 1889 651 12040 8315 rc
SO
1962 8842 mt 2012 8892 L
2012 8842 mt 1962 8892 L
2080 8841 mt 2130 8891 L
2130 8841 mt 2080 8891 L
2198 8840 mt 2248 8890 L
2248 8840 mt 2198 8890 L
2317 8839 mt 2367 8889 L
2367 8839 mt 2317 8889 L
2435 8837 mt 2485 8887 L
2485 8837 mt 2435 8887 L
2554 8834 mt 2604 8884 L
2604 8834 mt 2554 8884 L
2672 8830 mt 2722 8880 L
2722 8830 mt 2672 8880 L
2791 8825 mt 2841 8875 L
2841 8825 mt 2791 8875 L
2909 8819 mt 2959 8869 L
2959 8819 mt 2909 8869 L
3027 8813 mt 3077 8863 L
3077 8813 mt 3027 8863 L
3146 8806 mt 3196 8856 L
3196 8806 mt 3146 8856 L
3264 8799 mt 3314 8849 L
3314 8799 mt 3264 8849 L
3383 8792 mt 3433 8842 L
3433 8792 mt 3383 8842 L
3501 8786 mt 3551 8836 L
3551 8786 mt 3501 8836 L
3620 8780 mt 3670 8830 L
3670 8780 mt 3620 8830 L
3738 8774 mt 3788 8824 L
3788 8774 mt 3738 8824 L
3856 8766 mt 3906 8816 L
3906 8766 mt 3856 8816 L
3975 8756 mt 4025 8806 L
4025 8756 mt 3975 8806 L
4093 8744 mt 4143 8794 L
4143 8744 mt 4093 8794 L
4212 8730 mt 4262 8780 L
4262 8730 mt 4212 8780 L
4330 8713 mt 4380 8763 L
4380 8713 mt 4330 8763 L
4449 8695 mt 4499 8745 L
4499 8695 mt 4449 8745 L
4567 8675 mt 4617 8725 L
4617 8675 mt 4567 8725 L
4685 8655 mt 4735 8705 L
4735 8655 mt 4685 8705 L
4804 8636 mt 4854 8686 L
4854 8636 mt 4804 8686 L
4922 8617 mt 4972 8667 L
4972 8617 mt 4922 8667 L
5041 8597 mt 5091 8647 L
5091 8597 mt 5041 8647 L
5159 8576 mt 5209 8626 L
5209 8576 mt 5159 8626 L
5278 8551 mt 5328 8601 L
5328 8551 mt 5278 8601 L
5396 8522 mt 5446 8572 L
5446 8522 mt 5396 8572 L
5514 8485 mt 5564 8535 L
5564 8485 mt 5514 8535 L
5633 8440 mt 5683 8490 L
5683 8440 mt 5633 8490 L
5751 8387 mt 5801 8437 L
5801 8387 mt 5751 8437 L
5870 8326 mt 5920 8376 L
5920 8326 mt 5870 8376 L
5988 8258 mt 6038 8308 L
6038 8258 mt 5988 8308 L
6107 8185 mt 6157 8235 L
6157 8185 mt 6107 8235 L
6225 8106 mt 6275 8156 L
6275 8106 mt 6225 8156 L
6343 8024 mt 6393 8074 L
6393 8024 mt 6343 8074 L
6462 7934 mt 6512 7984 L
6512 7934 mt 6462 7984 L
6580 7833 mt 6630 7883 L
6630 7833 mt 6580 7883 L
6699 7714 mt 6749 7764 L
6749 7714 mt 6699 7764 L
6817 7571 mt 6867 7621 L
6867 7571 mt 6817 7621 L
6936 7400 mt 6986 7450 L
6986 7400 mt 6936 7450 L
7054 7200 mt 7104 7250 L
7104 7200 mt 7054 7250 L
7172 6970 mt 7222 7020 L
7222 6970 mt 7172 7020 L
7291 6702 mt 7341 6752 L
7341 6702 mt 7291 6752 L
7409 6388 mt 7459 6438 L
7459 6388 mt 7409 6438 L
7528 6022 mt 7578 6072 L
7578 6022 mt 7528 6072 L
7646 5606 mt 7696 5656 L
7696 5606 mt 7646 5656 L
7765 5156 mt 7815 5206 L
7815 5156 mt 7765 5206 L
7883 4697 mt 7933 4747 L
7933 4697 mt 7883 4747 L
8001 4256 mt 8051 4306 L
8051 4256 mt 8001 4306 L
8120 3851 mt 8170 3901 L
8170 3851 mt 8120 3901 L
8238 3485 mt 8288 3535 L
8288 3485 mt 8238 3535 L
8357 3155 mt 8407 3205 L
8407 3155 mt 8357 3205 L
8475 2854 mt 8525 2904 L
8525 2854 mt 8475 2904 L
8594 2581 mt 8644 2631 L
8644 2581 mt 8594 2631 L
8712 2337 mt 8762 2387 L
8762 2337 mt 8712 2387 L
8830 2128 mt 8880 2178 L
8880 2128 mt 8830 2178 L
8949 1951 mt 8999 2001 L
8999 1951 mt 8949 2001 L
9067 1804 mt 9117 1854 L
9117 1804 mt 9067 1854 L
9186 1679 mt 9236 1729 L
9236 1679 mt 9186 1729 L
9304 1574 mt 9354 1624 L
9354 1574 mt 9304 1624 L
9423 1485 mt 9473 1535 L
9473 1485 mt 9423 1535 L
9541 1412 mt 9591 1462 L
9591 1412 mt 9541 1462 L
9659 1348 mt 9709 1398 L
9709 1348 mt 9659 1398 L
9778 1290 mt 9828 1340 L
9828 1290 mt 9778 1340 L
9896 1235 mt 9946 1285 L
9946 1235 mt 9896 1285 L
10015 1185 mt 10065 1235 L
10065 1185 mt 10015 1235 L
10133 1141 mt 10183 1191 L
10183 1141 mt 10133 1191 L
10252 1104 mt 10302 1154 L
10302 1104 mt 10252 1154 L
10370 1073 mt 10420 1123 L
10420 1073 mt 10370 1123 L
10488 1044 mt 10538 1094 L
10538 1044 mt 10488 1094 L
10607 1018 mt 10657 1068 L
10657 1018 mt 10607 1068 L
10725  992 mt 10775 1042 L
10775  992 mt 10725 1042 L
10844  968 mt 10894 1018 L
10894  968 mt 10844 1018 L
10962  946 mt 11012  996 L
11012  946 mt 10962  996 L
11081  926 mt 11131  976 L
11131  926 mt 11081  976 L
11199  909 mt 11249  959 L
11249  909 mt 11199  959 L
11317  892 mt 11367  942 L
11367  892 mt 11317  942 L
11436  876 mt 11486  926 L
11486  876 mt 11436  926 L
11554  861 mt 11604  911 L
11604  861 mt 11554  911 L
11673  845 mt 11723  895 L
11723  845 mt 11673  895 L
11791  831 mt 11841  881 L
11841  831 mt 11791  881 L
11910  817 mt 11960  867 L
11960  817 mt 11910  867 L
12028  805 mt 12078  855 L
12078  805 mt 12028  855 L
12146  796 mt 12196  846 L
12196  796 mt 12146  846 L
12265  788 mt 12315  838 L
12315  788 mt 12265  838 L
12383  782 mt 12433  832 L
12433  782 mt 12383  832 L
12502  776 mt 12552  826 L
12552  776 mt 12502  826 L
12620  770 mt 12670  820 L
12670  770 mt 12620  820 L
12739  764 mt 12789  814 L
12789  764 mt 12739  814 L
12857  759 mt 12907  809 L
12907  759 mt 12857  809 L
12975  753 mt 13025  803 L
13025  753 mt 12975  803 L
13094  749 mt 13144  799 L
13144  749 mt 13094  799 L
13212  744 mt 13262  794 L
13262  744 mt 13212  794 L
13331  739 mt 13381  789 L
13381  739 mt 13331  789 L
13449  734 mt 13499  784 L
13499  734 mt 13449  784 L
13568  729 mt 13618  779 L
13618  729 mt 13568  779 L
13686  726 mt 13736  776 L
13736  726 mt 13686  776 L
13805  724 mt 13855  774 L
13855  724 mt 13805  774 L
DA
gs 1987 747 11844 8122 rc
119 -56 118 -58 119 -62 118 -63 119 -66 118 -68 119 -69 118 -70 
118 -71 119 -72 118 -73 119 -72 118 -72 119 -72 118 -72 118 -72 
119 -70 118 -71 119 -70 118 -70 119 -69 118 -68 118 -69 119 -68 
118 -68 119 -67 118 -68 119 -68 118 -67 118 -68 119 -68 118 -68 
119 -68 118 -69 119 -69 118 -69 118 -70 119 -70 118 -71 119 -72 
118 -72 119 -72 118 -74 118 -74 119 -75 118 -76 119 -76 118 -77 
119 -78 118 -79 118 -79 119 -79 118 -80 119 -81 118 -81 119 -81 
118 -82 118 -81 119 -82 118 -82 119 -81 118 -82 119 -81 118 -81 
118 -80 119 -80 118 -80 119 -79 118 -78 119 -78 118 -78 118 -77 
119 -76 118 -76 119 -76 118 -75 119 -75 118 -75 118 -74 119 -75 
118 -74 119 -74 118 -74 119 -74 118 -74 118 -74 119 -74 118 -73 
119 -72 118 -72 119 -71 118 -70 118 -69 119 -67 118 -65 119 -63 
118 -61 119 -58 118 -56 118 -52 1987 8437 101 MP stroke
gr

gs 1889 1111 12040 7425 rc
SO
1987 8437 PD
2105 8385 PD
2223 8329 PD
2342 8271 PD
2460 8210 PD
2579 8147 PD
2697 8082 PD
2816 8015 PD
2934 7946 PD
3052 7876 PD
3171 7805 PD
3289 7733 PD
3408 7661 PD
3526 7588 PD
3645 7514 PD
3763 7440 PD
3881 7366 PD
4000 7292 PD
4118 7218 PD
4237 7144 PD
4355 7070 PD
4474 6995 PD
4592 6921 PD
4710 6846 PD
4829 6771 PD
4947 6696 PD
5066 6620 PD
5184 6544 PD
5303 6468 PD
5421 6391 PD
5539 6313 PD
5658 6235 PD
5776 6157 PD
5895 6078 PD
6013 5998 PD
6132 5918 PD
6250 5838 PD
6368 5757 PD
6487 5676 PD
6605 5594 PD
6724 5513 PD
6842 5431 PD
6961 5349 PD
7079 5268 PD
7197 5186 PD
7316 5105 PD
7434 5024 PD
7553 4943 PD
7671 4863 PD
7790 4784 PD
7908 4705 PD
8026 4626 PD
8145 4548 PD
8263 4471 PD
8382 4395 PD
8500 4319 PD
8619 4244 PD
8737 4170 PD
8855 4096 PD
8974 4024 PD
9092 3952 PD
9211 3880 PD
9329 3809 PD
9448 3739 PD
9566 3669 PD
9684 3600 PD
9803 3531 PD
9921 3462 PD
10040 3394 PD
10158 3326 PD
10277 3258 PD
10395 3190 PD
10513 3123 PD
10632 3055 PD
10750 2987 PD
10869 2920 PD
10987 2852 PD
11106 2784 PD
11224 2715 PD
11342 2647 PD
11461 2578 PD
11579 2508 PD
11698 2438 PD
11816 2367 PD
11935 2297 PD
12053 2225 PD
12171 2153 PD
12290 2081 PD
12408 2009 PD
12527 1937 PD
12645 1864 PD
12764 1792 PD
12882 1721 PD
13000 1651 PD
13119 1582 PD
13237 1514 PD
13356 1448 PD
13474 1385 PD
13593 1323 PD
13711 1265 PD
13830 1209 PD
DA
gr

gs 1987 747 11844 8122 rc
SO
119 -81 118 -81 119 -81 118 -81 119 -82 118 -81 119 -81 118 -81 
118 -81 119 -82 118 -81 119 -81 118 -81 119 -81 118 -82 118 -81 
119 -81 118 -81 119 -81 118 -82 119 -81 118 -81 118 -81 119 -82 
118 -81 119 -81 118 -81 119 -81 118 -82 118 -81 119 -81 118 -81 
119 -81 118 -82 119 -81 118 -81 118 -81 119 -81 118 -82 119 -81 
118 -81 119 -81 118 -82 118 -81 119 -81 118 -81 119 -81 118 -82 
119 -81 118 -81 118 -81 119 -81 118 -82 119 -81 118 -81 119 -81 
118 -81 118 -82 119 -81 118 -81 119 -81 118 -82 119 -81 118 -81 
118 -81 119 -81 118 -82 119 -81 118 -81 119 -81 118 -81 118 -82 
119 -81 118 -81 119 -81 118 -81 119 -82 118 -81 118 -81 119 -81 
118 -82 119 -81 118 -81 119 -81 118 -81 118 -82 119 -81 118 -81 
119 -81 118 -81 119 -82 118 -81 118 -81 119 -81 118 -81 119 -82 
118 -81 119 -81 118 -81 118 -82 1987 8868 101 MP stroke
gr
gr

SO
%%IncludeResource: font Helvetica-Bold
/Helvetica-Bold /ISOLatin1Encoding 456 FMSR

7729 9702 mt 
(z) s
%%IncludeResource: font Helvetica-Bold
/Helvetica-Bold /ISOLatin1Encoding 360 FMSR

7957 9930 mt 
(t) s
%%IncludeResource: font Helvetica-Bold
/Helvetica-Bold /ISOLatin1Encoding 456 FMSR

 990 5740 mt  -90 rotate
(CDF\( z) s
90 rotate
%%IncludeResource: font Helvetica-Bold
/Helvetica-Bold /ISOLatin1Encoding 360 FMSR

1218 4297 mt  -90 rotate
(t) s
90 rotate
%%IncludeResource: font Helvetica-Bold
/Helvetica-Bold /ISOLatin1Encoding 456 FMSR

 990 4178 mt  -90 rotate
( \)) s
90 rotate
%%IncludeResource: font Helvetica
/Helvetica /ISOLatin1Encoding 324 FMSR

1942 8984 mt 
( ) s
13786  862 mt 
( ) s
1 sg
0 1832 3299 0 0 -1832 10426 8184 4 MP
PP
-3299 0 0 1832 3299 0 0 -1832 10426 8184 5 MP stroke
16 w
DO
SO
24 w
0 sg
10426 8184 mt 13725 8184 L
10426 6352 mt 13725 6352 L
10426 8184 mt 10426 6352 L
13725 8184 mt 13725 6352 L
10426 8184 mt 13725 8184 L
10426 8184 mt 10426 6352 L
10426 8184 mt 13725 8184 L
10426 6352 mt 13725 6352 L
10426 8184 mt 10426 6352 L
13725 8184 mt 13725 6352 L
10903 6712 mt 
(Uniform ) s
gs 10426 6352 3300 1833 rc
DD
366 0 10499 6596 2 MP stroke
SO
gr

10903 7160 mt 
(Sample Variance    ) s
gs 10426 6352 3300 1833 rc
DA
366 0 10499 7044 2 MP stroke
SO
gs 10584 6946 197 197 rc
10657 7019 mt 10707 7069 L
10707 7019 mt 10657 7069 L
gr

gr

10903 7607 mt 
(GARCH) s
gs 10426 6352 3300 1833 rc
DA
366 0 10499 7491 2 MP stroke
SO
gs 10584 7393 197 197 rc
10682 7491 PD
gr

gr

10903 8055 mt 
(Ideal \(Baseline\)) s
gs 10426 6352 3300 1833 rc
366 0 10499 7939 2 MP stroke
gr


end %%Color Dict

eplot
%%EndObject

epage
end

showpage

%%Trailer
%%EOF
