%!PS-Adobe-3.0 EPSF-3.0
%%Creator: MATLAB, The Mathworks, Inc. Version 7.9.0.529 (R2009b). Operating System: Linux 2.6.26.6-49.fc8 #1 SMP Fri Oct 17 15:59:36 EDT 2008 i686.
%%Title: /home/saket/data/docs/curr-work/saket/sigmod10/fig/xgarch_cleaning.eps
%%CreationDate: 11/06/2009  00:50:28
%%DocumentNeededFonts: Helvetica
%%+ Helvetica-Bold
%%DocumentProcessColors: Cyan Magenta Yellow Black
%%LanguageLevel: 2
%%Pages: 1
%%BoundingBox:  -330   -19   943   811
%%EndComments

%%BeginProlog
% MathWorks dictionary
/MathWorks 160 dict begin
% definition operators
/bdef {bind def} bind def
/ldef {load def} bind def
/xdef {exch def} bdef
/xstore {exch store} bdef
% operator abbreviations
/c  /clip ldef
/cc /concat ldef
/cp /closepath ldef
/gr /grestore ldef
/gs /gsave ldef
/mt /moveto ldef
/np /newpath ldef
/cm /currentmatrix ldef
/sm /setmatrix ldef
/rm /rmoveto ldef
/rl /rlineto ldef
/s {show newpath} bdef
/sc {setcmykcolor} bdef
/sr /setrgbcolor ldef
/sg /setgray ldef
/w /setlinewidth ldef
/j /setlinejoin ldef
/cap /setlinecap ldef
/rc {rectclip} bdef
/rf {rectfill} bdef
% page state control
/pgsv () def
/bpage {/pgsv save def} bdef
/epage {pgsv restore} bdef
/bplot /gsave ldef
/eplot {stroke grestore} bdef
% orientation switch
/portraitMode 0 def /landscapeMode 1 def /rotateMode 2 def
% coordinate system mappings
/dpi2point 0 def
% font control
/FontSize 0 def
/FMS {/FontSize xstore findfont [FontSize 0 0 FontSize neg 0 0]
  makefont setfont} bdef
/reencode {exch dup where {pop load} {pop StandardEncoding} ifelse
  exch dup 3 1 roll findfont dup length dict begin
  { 1 index /FID ne {def}{pop pop} ifelse } forall
  /Encoding exch def currentdict end definefont pop} bdef
/isroman {findfont /CharStrings get /Agrave known} bdef
/FMSR {3 1 roll 1 index dup isroman {reencode} {pop pop} ifelse
  exch FMS} bdef
/csm {1 dpi2point div -1 dpi2point div scale neg translate
 dup landscapeMode eq {pop -90 rotate}
  {rotateMode eq {90 rotate} if} ifelse} bdef
% line types: solid, dotted, dashed, dotdash
/SO { [] 0 setdash } bdef
/DO { [.5 dpi2point mul 4 dpi2point mul] 0 setdash } bdef
/DA { [6 dpi2point mul] 0 setdash } bdef
/DD { [.5 dpi2point mul 4 dpi2point mul 6 dpi2point mul 4
  dpi2point mul] 0 setdash } bdef
% macros for lines and objects
/L {lineto stroke} bdef
/MP {3 1 roll moveto 1 sub {rlineto} repeat} bdef
/AP {{rlineto} repeat} bdef
/PDlw -1 def
/W {/PDlw currentlinewidth def setlinewidth} def
/PP {closepath eofill} bdef
/DP {closepath stroke} bdef
/MR {4 -2 roll moveto dup  0 exch rlineto exch 0 rlineto
  neg 0 exch rlineto closepath} bdef
/FR {MR stroke} bdef
/PR {MR fill} bdef
/L1i {{currentfile picstr readhexstring pop} image} bdef
/tMatrix matrix def
/MakeOval {newpath tMatrix currentmatrix pop translate scale
0 0 1 0 360 arc tMatrix setmatrix} bdef
/FO {MakeOval stroke} bdef
/PO {MakeOval fill} bdef
/PD {currentlinewidth 2 div 0 360 arc fill
   PDlw -1 eq not {PDlw w /PDlw -1 def} if} def
/FA {newpath tMatrix currentmatrix pop translate scale
  0 0 1 5 -2 roll arc tMatrix setmatrix stroke} bdef
/PA {newpath tMatrix currentmatrix pop	translate 0 0 moveto scale
  0 0 1 5 -2 roll arc closepath tMatrix setmatrix fill} bdef
/FAn {newpath tMatrix currentmatrix pop translate scale
  0 0 1 5 -2 roll arcn tMatrix setmatrix stroke} bdef
/PAn {newpath tMatrix currentmatrix pop translate 0 0 moveto scale
  0 0 1 5 -2 roll arcn closepath tMatrix setmatrix fill} bdef
/vradius 0 def /hradius 0 def /lry 0 def
/lrx 0 def /uly 0 def /ulx 0 def /rad 0 def
/MRR {/vradius xdef /hradius xdef /lry xdef /lrx xdef /uly xdef
  /ulx xdef newpath tMatrix currentmatrix pop ulx hradius add uly
  vradius add translate hradius vradius scale 0 0 1 180 270 arc 
  tMatrix setmatrix lrx hradius sub uly vradius add translate
  hradius vradius scale 0 0 1 270 360 arc tMatrix setmatrix
  lrx hradius sub lry vradius sub translate hradius vradius scale
  0 0 1 0 90 arc tMatrix setmatrix ulx hradius add lry vradius sub
  translate hradius vradius scale 0 0 1 90 180 arc tMatrix setmatrix
  closepath} bdef
/FRR {MRR stroke } bdef
/PRR {MRR fill } bdef
/MlrRR {/lry xdef /lrx xdef /uly xdef /ulx xdef /rad lry uly sub 2 div def
  newpath tMatrix currentmatrix pop ulx rad add uly rad add translate
  rad rad scale 0 0 1 90 270 arc tMatrix setmatrix lrx rad sub lry rad
  sub translate rad rad scale 0 0 1 270 90 arc tMatrix setmatrix
  closepath} bdef
/FlrRR {MlrRR stroke } bdef
/PlrRR {MlrRR fill } bdef
/MtbRR {/lry xdef /lrx xdef /uly xdef /ulx xdef /rad lrx ulx sub 2 div def
  newpath tMatrix currentmatrix pop ulx rad add uly rad add translate
  rad rad scale 0 0 1 180 360 arc tMatrix setmatrix lrx rad sub lry rad
  sub translate rad rad scale 0 0 1 0 180 arc tMatrix setmatrix
  closepath} bdef
/FtbRR {MtbRR stroke } bdef
/PtbRR {MtbRR fill } bdef
/stri 6 array def /dtri 6 array def
/smat 6 array def /dmat 6 array def
/tmat1 6 array def /tmat2 6 array def /dif 3 array def
/asub {/ind2 exch def /ind1 exch def dup dup
  ind1 get exch ind2 get sub exch } bdef
/tri_to_matrix {
  2 0 asub 3 1 asub 4 0 asub 5 1 asub
  dup 0 get exch 1 get 7 -1 roll astore } bdef
/compute_transform {
  dmat dtri tri_to_matrix tmat1 invertmatrix 
  smat stri tri_to_matrix tmat2 concatmatrix } bdef
/ds {stri astore pop} bdef
/dt {dtri astore pop} bdef
/db {2 copy /cols xdef /rows xdef mul dup 3 mul string
  currentfile 
  3 index 0 eq {/ASCIIHexDecode filter}
  {/ASCII85Decode filter 3 index 2 eq {/RunLengthDecode filter} if }
  ifelse exch readstring pop
  dup 0 3 index getinterval /rbmap xdef
  dup 2 index dup getinterval /gbmap xdef
  1 index dup 2 mul exch getinterval /bbmap xdef pop pop}bdef
/it {gs np dtri aload pop moveto lineto lineto cp c
  cols rows 8 compute_transform 
  rbmap gbmap bbmap true 3 colorimage gr}bdef
/il {newpath moveto lineto stroke}bdef
currentdict end def
%%EndProlog

%%BeginSetup
MathWorks begin

0 cap

end
%%EndSetup

%%Page: 1 1
%%BeginPageSetup
%%PageBoundingBox:  -330   -19   943   811
MathWorks begin
bpage
%%EndPageSetup

%%BeginObject: obj1
bplot

/dpi2point 12 def
portraitMode -3960 9732 csm

    0     0 15282  9964 rc
85 dict begin %Colortable dictionary
/c0 { 0.000000 0.000000 0.000000 sr} bdef
/c1 { 1.000000 1.000000 1.000000 sr} bdef
/c2 { 0.900000 0.000000 0.000000 sr} bdef
/c3 { 0.000000 0.820000 0.000000 sr} bdef
/c4 { 0.000000 0.000000 0.800000 sr} bdef
/c5 { 0.910000 0.820000 0.320000 sr} bdef
/c6 { 1.000000 0.260000 0.820000 sr} bdef
/c7 { 0.000000 0.820000 0.820000 sr} bdef
c0
1 j
1 sg
   0    0 15283 9965 rf
9 w
0 8121 11843 0 0 -8121 1987 8868 4 MP
PP
-11843 0 0 8121 11843 0 0 -8121 1987 8868 5 MP stroke
6 w
DO
SO
9 w
0 sg
1987 8868 mt 13830 8868 L
1987 8868 mt 1987  747 L
2276 8868 mt 2276 8749 L
%%IncludeResource: font Helvetica
/Helvetica /ISOLatin1Encoding 324 FMSR

2096 9203 mt 
(90) s
3481 8868 mt 3481 8749 L
3301 9203 mt 
(95) s
4686 8868 mt 4686 8749 L
4416 9203 mt 
(100) s
5891 8868 mt 5891 8749 L
5621 9203 mt 
(105) s
7096 8868 mt 7096 8749 L
6826 9203 mt 
(110) s
8301 8868 mt 8301 8749 L
8031 9203 mt 
(115) s
9506 8868 mt 9506 8749 L
9236 9203 mt 
(120) s
10711 8868 mt 10711 8749 L
10441 9203 mt 
(125) s
11916 8868 mt 11916 8749 L
11646 9203 mt 
(130) s
13121 8868 mt 13121 8749 L
12851 9203 mt 
(135) s
1987 7208 mt 2105 7208 L
1403 7328 mt 
(-40) s
1987 5536 mt 2105 5536 L
1403 5656 mt 
(-20) s
1987 3863 mt 2105 3863 L
1772 3983 mt 
(0) s
1987 2191 mt 2105 2191 L
1592 2311 mt 
(20) s
gs 1987 747 11844 8122 rc
24 w
126 5064 241 17 241 17 241 -9 241 -8 241 0 241 0 241 0 
241 -9 241 -8 241 -8 241 0 241 16 241 -8 241 0 241 0 
241 -25 241 -8 241 0 241 8 241 33 241 -16 241 16 241 9 
241 -17 241 -42 241 -92 241 -33 241 -101 241 -75 241 -67 241 -8 
241 -33 241 -42 241 -76 241 -33 241 -8 241 0 241 8 48 -2 
1987 4409 41 MP stroke
228 8 241 17 241 8 241 26 241 16 241 -16 241 2967 241 -2993 
241 2450 149 -7522 11526 8869 11 MP stroke
DA
228 11 241 8 241 17 241 -47 241 2 241 2 241 2 241 4 
241 6 241 8 241 16 241 33 241 -8 241 -14 241 0 241 0 
241 5 241 -8 241 -8 241 -14 241 -11 241 33 241 -14 241 0 
241 16 241 -35 241 -14 241 -5 241 -8 241 65 241 -38 241 22 
241 25 241 -1 241 -9 241 -128 241 -23 241 -391 241 -7 241 -7 
241 -7 241 -8 241 -6 241 -11 241 -23 241 -5 241 3 241 2 
241 -2 48 3 1987 4398 51 MP stroke
gr

24 w
DA
SO
  24   24 2035 4401 FO
  24   24 2276 4399 FO
  24   24 2517 4401 FO
  24   24 2758 4404 FO
  24   24 2999 4399 FO
  24   24 3240 4376 FO
  24   24 3481 4365 FO
  24   24 3722 4359 FO
  24   24 3963 4351 FO
  24   24 4204 4344 FO
  24   24 4445 4337 FO
  24   24 4686 4330 FO
  24   24 4927 3939 FO
  24   24 5168 3916 FO
  24   24 5409 3788 FO
  24   24 5650 3779 FO
  24   24 5891 3778 FO
  24   24 6132 3803 FO
  24   24 6373 3825 FO
  24   24 6614 3787 FO
  24   24 6855 3852 FO
  24   24 7096 3844 FO
  24   24 7337 3839 FO
  24   24 7578 3825 FO
  24   24 7819 3790 FO
  24   24 8060 3806 FO
  24   24 8301 3806 FO
  24   24 8542 3792 FO
  24   24 8783 3825 FO
  24   24 9024 3814 FO
  24   24 9265 3800 FO
  24   24 9506 3792 FO
  24   24 9747 3784 FO
  24   24 9988 3789 FO
  24   24 10229 3789 FO
  24   24 10470 3789 FO
  24   24 10711 3775 FO
  24   24 10952 3767 FO
  24   24 11193 3800 FO
  24   24 11434 3816 FO
  24   24 11675 3824 FO
  24   24 11916 3830 FO
  24   24 12157 3834 FO
  24   24 12398 3836 FO
  24   24 12639 3838 FO
  24   24 12880 3840 FO
  24   24 13121 3793 FO
  24   24 13362 3810 FO
  24   24 13603 3818 FO
DA
gs 1987 747 11844 8122 rc
DD
228 14 241 11 241 20 241 -275 241 8 241 -2 241 9 241 -17 
241 6 241 9 241 63 241 33 241 -53 241 -13 241 53 241 2 
241 -43 241 -7 241 55 241 -12 241 -11 241 33 241 -13 241 1 
241 16 241 -33 241 -13 241 -7 241 -9 241 57 241 -55 241 18 
241 26 241 3 241 -8 241 -118 241 -22 241 -459 241 19 241 11 
241 -1 241 -3 241 -3 241 3 241 5 241 38 241 3 241 1 
241 0 48 4 1987 4248 51 MP stroke
228 8 241 5 241 14 241 180 241 -4 241 6 241 -3 241 25 
241 4 241 7 241 -29 241 31 241 37 241 -14 241 -53 241 -2 
241 54 241 -10 241 -72 241 -14 241 -11 241 32 241 -14 241 -1 
241 16 241 -38 241 -14 241 -4 241 -7 241 74 241 -21 241 25 
241 23 241 -3 241 -11 241 -139 241 -23 241 -322 241 -34 241 -24 
241 -14 241 -13 241 -9 241 -25 241 -52 241 -47 241 4 241 2 
241 -4 48 2 1987 4548 51 MP stroke
gr

DD
%%IncludeResource: font Helvetica-Bold
/Helvetica-Bold /ISOLatin1Encoding 384 FMSR

6768 10013 mt 
(Time \(mins.\)) s
 972 6748 mt  -90 rotate
(Temperature \(deg. C\)) s
90 rotate
%%IncludeResource: font Helvetica
/Helvetica /ISOLatin1Encoding 324 FMSR

1942 8984 mt 
( ) s
13786  862 mt 
( ) s
SO
9 w
1 sg
0 1385 3135 0 0 -1385 2397 2719 4 MP
PP
-3135 0 0 1385 3135 0 0 -1385 2397 2719 5 MP stroke
6 w
DO
SO
9 w
0 sg
2397 2719 mt 5532 2719 L
2397 1334 mt 5532 1334 L
2397 2719 mt 2397 1334 L
5532 2719 mt 5532 1334 L
2397 2719 mt 5532 2719 L
2397 2719 mt 2397 1334 L
2397 2719 mt 5532 2719 L
2397 1334 mt 5532 1334 L
2397 2719 mt 2397 1334 L
5532 2719 mt 5532 1334 L
2879 1694 mt 
(raw values) s
gs 2397 1334 3136 1386 rc
24 w
370 0 2471 1578 2 MP stroke
gr

24 w
2879 2142 mt 
(Estimated Values) s
gs 2397 1334 3136 1386 rc
DA
370 0 2471 2026 2 MP stroke
SO
gs 2582 1952 149 149 rc
  24   24 2656 2026 FO
gr

gr

2879 2590 mt 
(Estimated Bounds) s
gs 2397 1334 3136 1386 rc
DD
370 0 2471 2474 2 MP stroke
SO
9 w
gr

9 w
0 -644 4947 4781 2 MP stroke
0 78 45 -120 4902 4179 3 MP
PP
-45 42 0 78 45 -120 4902 4179 4 MP stroke
-45 -42 45 120 4947 4059 3 MP
PP
0 -78 -45 -42 45 120 4947 4059 4 MP stroke
3922 5082 mt 
(Trend change ) s
4326 5455 mt 
(detected) s
6 w
0 j
 176  167 11666 1410 FO
1 j
0 j
 181  163 12148  926 FO
1 j
9 w
255 -128 11136 1664 2 MP stroke
-70 35 128 -13 11333 1514 3 MP
PP
-58 -22 -70 35 128 -13 11333 1514 4 MP stroke
17 -59 -87 94 11461 1501 3 MP
PP
70 -35 17 -59 -87 94 11461 1501 4 MP stroke
9641 1779 mt 
(Erroneous) s
9985 2152 mt 
(Value) s
-300 -484 12719 1535 2 MP stroke
41 67 -25 -126 12403 1110 3 MP
PP
-16 59 41 67 -25 -126 12403 1110 4 MP stroke
-60 -12 101 79 12378 984 3 MP
PP
-41 -67 -60 -12 101 79 12378 984 4 MP stroke
12720 1836 mt 
(Erroneous) s
13064 2209 mt 
(Value) s
0 -1189 3090 5845 2 MP stroke
0 78 45 -120 3045 4698 3 MP
PP
-45 42 0 78 45 -120 3045 4698 4 MP stroke
-45 -42 45 120 3090 4578 3 MP
PP
0 -78 -45 -42 45 120 3090 4578 4 MP stroke
2065 6146 mt 
(Trend change ) s
2687 6519 mt 
(starts) s

end %%Color Dict

eplot
%%EndObject

epage
end

showpage

%%Trailer
%%EOF
