# PLOT NAME:
#      SIGMA INDEX EFFICIENCY
#
# DESCRIPTION:
# This plot should the effect of database size (number of tuples) 
# on the efficiency of data base creation. It comares the
# naive method with the one with the one using sigma index
#
# LEGEND:
# DB SIZE = Size of the database in tuples
# index size = size of the index in number of keys
# total hits = total cache hits when the index is used
# time with index = time taken for database creation when index is used
# time w/o index = time taken for database creation when index is not used
# speedup = speedup between time with index and without index
#
# PARAMETERS:
# delta = 0.05, steps = 300, distance threshold = 1E-2, 
#
# DB size,  index size (no. of keys), total hits, time with index, time w/o index, speedup
4000  576 3424 218.0213628 661.1178594 3.03235
8000  695 7305 274.1598416 1181.7003538 4.31026 
12000 843 11157 333.2524714 1662.4611308 4.98859
16000 953 15047 371.6909350 2181.6563334 5.86954 
20000 1047 18924 407.1587126 2693.6400294 6.6157


# PLOT NAME:
#      SIGMA INDEX ACCURACY
#
# DESCRIPTION:
# This plot should the effect of database size (number of tuples) 
# on the accuracy of data base creation. It compares the
# naive method with the one with the one using sigma index
#
# LEGEND:
# DB SIZE = Size of the database in tuples
# avg error = the average caused while creating database
#
# PARAMETERS:
#
# delta = 0.05, steps = 300, distance threshold = 1E-2, 
#
# DB size,  avg error, 
4000  0.003147575523584427
8000  0.004159611336059589
12000 0.005057712835626917
16000 0.005684631565707715
20000 0.005226421353979869

#
# PLOT NOT USED. INCOMPELETE.
#
# DB Size = 12000, distance threshold = 1E-2, 
# delta,  steps, avg error, 
#
0.5 30 0.0011873531096648635
0.05 300 0.005057712835626917
0.005 3000 0.016062300713569653
0.0005 30000 

