%!PS-Adobe-2.0 EPSF-2.0
%%Title: /home/saket/data/docs/curr-work/saket/sigmod10/fig/models_summary.dia
%%Creator: Dia v0.96.1
%%CreationDate: Fri Oct 23 14:12:01 2009
%%For: saket
%%Orientation: Portrait
%%Magnification: 1.0000
%%BoundingBox: 0 0 810 312
%%BeginSetup
%%EndSetup
%%EndComments
%%BeginProlog
[ /.notdef /.notdef /.notdef /.notdef /.notdef /.notdef /.notdef /.notdef /.notdef /.notdef
/.notdef /.notdef /.notdef /.notdef /.notdef /.notdef /.notdef /.notdef /.notdef /.notdef
/.notdef /.notdef /.notdef /.notdef /.notdef /.notdef /.notdef /.notdef /.notdef /.notdef
/.notdef /.notdef /space /exclam /quotedbl /numbersign /dollar /percent /ampersand /quoteright
/parenleft /parenright /asterisk /plus /comma /hyphen /period /slash /zero /one
/two /three /four /five /six /seven /eight /nine /colon /semicolon
/less /equal /greater /question /at /A /B /C /D /E
/F /G /H /I /J /K /L /M /N /O
/P /Q /R /S /T /U /V /W /X /Y
/Z /bracketleft /backslash /bracketright /asciicircum /underscore /quoteleft /a /b /c
/d /e /f /g /h /i /j /k /l /m
/n /o /p /q /r /s /t /u /v /w
/x /y /z /braceleft /bar /braceright /asciitilde /.notdef /.notdef /.notdef
/.notdef /.notdef /.notdef /.notdef /.notdef /.notdef /.notdef /.notdef /.notdef /.notdef
/.notdef /.notdef /.notdef /.notdef /.notdef /.notdef /.notdef /.notdef /.notdef /.notdef
/.notdef /.notdef /.notdef /.notdef /.notdef /.notdef /.notdef /.notdef /.notdef /.notdef
/space /exclamdown /cent /sterling /currency /yen /brokenbar /section /dieresis /copyright
/ordfeminine /guillemotleft /logicalnot /hyphen /registered /macron /degree /plusminus /twosuperior /threesuperior
/acute /mu /paragraph /periodcentered /cedilla /onesuperior /ordmasculine /guillemotright /onequarter /onehalf
/threequarters /questiondown /Agrave /Aacute /Acircumflex /Atilde /Adieresis /Aring /AE /Ccedilla
/Egrave /Eacute /Ecircumflex /Edieresis /Igrave /Iacute /Icircumflex /Idieresis /Eth /Ntilde
/Ograve /Oacute /Ocircumflex /Otilde /Odieresis /multiply /Oslash /Ugrave /Uacute /Ucircumflex
/Udieresis /Yacute /Thorn /germandbls /agrave /aacute /acircumflex /atilde /adieresis /aring
/ae /ccedilla /egrave /eacute /ecircumflex /edieresis /igrave /iacute /icircumflex /idieresis
/eth /ntilde /ograve /oacute /ocircumflex /otilde /odieresis /divide /oslash /ugrave
/uacute /ucircumflex /udieresis /yacute /thorn /ydieresis] /isolatin1encoding exch def
/cp {closepath} bind def
/c {curveto} bind def
/f {fill} bind def
/a {arc} bind def
/ef {eofill} bind def
/ex {exch} bind def
/gr {grestore} bind def
/gs {gsave} bind def
/sa {save} bind def
/rs {restore} bind def
/l {lineto} bind def
/m {moveto} bind def
/rm {rmoveto} bind def
/n {newpath} bind def
/s {stroke} bind def
/sh {show} bind def
/slc {setlinecap} bind def
/slj {setlinejoin} bind def
/slw {setlinewidth} bind def
/srgb {setrgbcolor} bind def
/rot {rotate} bind def
/sc {scale} bind def
/sd {setdash} bind def
/ff {findfont} bind def
/sf {setfont} bind def
/scf {scalefont} bind def
/sw {stringwidth pop} bind def
/tr {translate} bind def

/ellipsedict 8 dict def
ellipsedict /mtrx matrix put
/ellipse
{ ellipsedict begin
   /endangle exch def
   /startangle exch def
   /yrad exch def
   /xrad exch def
   /y exch def
   /x exch def   /savematrix mtrx currentmatrix def
   x y tr xrad yrad sc
   0 0 1 startangle endangle arc
   savematrix setmatrix
   end
} def

/mergeprocs {
dup length
3 -1 roll
dup
length
dup
5 1 roll
3 -1 roll
add
array cvx
dup
3 -1 roll
0 exch
putinterval
dup
4 2 roll
putinterval
} bind def
/dpi_x 300 def
/dpi_y 300 def
/conicto {
    /to_y exch def
    /to_x exch def
    /conic_cntrl_y exch def
    /conic_cntrl_x exch def
    currentpoint
    /p0_y exch def
    /p0_x exch def
    /p1_x p0_x conic_cntrl_x p0_x sub 2 3 div mul add def
    /p1_y p0_y conic_cntrl_y p0_y sub 2 3 div mul add def
    /p2_x p1_x to_x p0_x sub 1 3 div mul add def
    /p2_y p1_y to_y p0_y sub 1 3 div mul add def
    p1_x p1_y p2_x p2_y to_x to_y curveto
} bind def
/start_ol { gsave 1.1 dpi_x div dup scale} bind def
/end_ol { closepath fill grestore } bind def
28.346000 -28.346000 scale
-10.875400 -19.403350 translate
%%EndProlog


0.100000 slw
[] 0 sd
[] 0 sd
0 slj
1.000000 1.000000 1.000000 srgb
n 23.694800 8.463940 m 23.694800 10.463940 l 28.694800 10.463940 l 28.694800 8.463940 l f
0.000000 0.000000 0.000000 srgb
n 23.694800 8.463940 m 23.694800 10.463940 l 28.694800 10.463940 l 28.694800 8.463940 l cp s
gsave 24.544800 9.663940 translate 0.035278 -0.035278 scale
start_ol
0 3219 moveto
2688 3219 lineto
2688 2880 lineto
1569 2880 lineto
1569 0 lineto
1152 0 lineto
1152 2880 lineto
0 2880 lineto
0 3219 lineto
end_ol grestore 
gsave 24.881978 9.663940 translate 0.035278 -0.035278 scale
start_ol
384 2432 moveto
801 2432 lineto
801 0 lineto
384 0 lineto
384 2432 lineto
384 3392 moveto
801 3392 lineto
801 2880 lineto
384 2880 lineto
384 3392 lineto
end_ol grestore 
gsave 25.044325 9.663940 translate 0.035278 -0.035278 scale
start_ol
2267 1978 moveto
2413 2243 2617 2369 conicto
2821 2496 3098 2496 conicto
3469 2496 3671 2229 conicto
3873 1963 3873 1471 conicto
3873 0 lineto
3456 0 lineto
3456 1464 lineto
3456 1816 3338 1986 conicto
3220 2157 2977 2157 conicto
2681 2157 2509 1949 conicto
2337 1741 2337 1384 conicto
2337 0 lineto
1920 0 lineto
1920 1464 lineto
1920 1819 1802 1988 conicto
1684 2157 1437 2157 conicto
1145 2157 973 1948 conicto
801 1739 801 1384 conicto
801 0 lineto
384 0 lineto
384 2432 lineto
801 2432 lineto
801 2067 lineto
934 2287 1120 2391 conicto
1306 2496 1561 2496 conicto
1819 2496 2000 2363 conicto
2181 2231 2267 1978 conicto
end_ol grestore 
gsave 25.613791 9.663940 translate 0.035278 -0.035278 scale
start_ol
2496 1273 moveto
2496 1069 lineto
673 1069 lineto
673 681 896 478 conicto
1120 275 1519 275 conicto
1751 275 1968 328 conicto
2185 381 2399 487 conicto
2399 123 lineto
2186 32 1962 -16 conicto
1738 -64 1508 -64 conicto
930 -64 593 275 conicto
256 615 256 1194 conicto
256 1793 576 2144 conicto
897 2496 1441 2496 conicto
1928 2496 2212 2167 conicto
2496 1838 2496 1273 conicto
2079 1408 moveto
2079 1750 1901 1953 conicto
1724 2157 1431 2157 conicto
1101 2157 902 1960 conicto
703 1764 673 1408 conicto
2079 1408 lineto
end_ol grestore 
gsave 25.970954 9.663940 translate 0.035278 -0.035278 scale
start_ol
end_ol grestore 
gsave 26.155774 9.663940 translate 0.035278 -0.035278 scale
start_ol
2382 3126 moveto
2382 2706 lineto
2133 2826 1911 2885 conicto
1690 2944 1484 2944 conicto
1126 2944 931 2805 conicto
737 2666 737 2410 conicto
737 2194 865 2084 conicto
993 1975 1350 1908 conicto
1612 1853 lineto
2098 1760 2329 1524 conicto
2560 1289 2560 894 conicto
2560 422 2248 179 conicto
1936 -64 1334 -64 conicto
1107 -64 851 -15 conicto
595 34 320 132 conicto
320 579 lineto
589 428 846 351 conicto
1104 275 1354 275 conicto
1732 275 1937 422 conicto
2143 570 2143 844 conicto
2143 1082 1996 1217 conicto
1850 1352 1517 1420 conicto
1249 1472 lineto
759 1569 539 1778 conicto
320 1987 320 2358 conicto
320 2788 619 3035 conicto
919 3283 1444 3283 conicto
1670 3283 1904 3243 conicto
2138 3204 2382 3126 conicto
end_ol grestore 
gsave 26.525421 9.663940 translate 0.035278 -0.035278 scale
start_ol
2496 1273 moveto
2496 1069 lineto
673 1069 lineto
673 681 896 478 conicto
1120 275 1519 275 conicto
1751 275 1968 328 conicto
2185 381 2399 487 conicto
2399 123 lineto
2186 32 1962 -16 conicto
1738 -64 1508 -64 conicto
930 -64 593 275 conicto
256 615 256 1194 conicto
256 1793 576 2144 conicto
897 2496 1441 2496 conicto
1928 2496 2212 2167 conicto
2496 1838 2496 1273 conicto
2079 1408 moveto
2079 1750 1901 1953 conicto
1724 2157 1431 2157 conicto
1101 2157 902 1960 conicto
703 1764 673 1408 conicto
2079 1408 lineto
end_ol grestore 
gsave 26.882584 9.663940 translate 0.035278 -0.035278 scale
start_ol
1792 2080 moveto
1726 2120 1649 2138 conicto
1573 2157 1481 2157 conicto
1152 2157 976 1934 conicto
801 1711 801 1295 conicto
801 0 lineto
384 0 lineto
384 2432 lineto
801 2432 lineto
801 2076 lineto
924 2289 1120 2392 conicto
1316 2496 1596 2496 conicto
1636 2496 1684 2490 conicto
1733 2484 1792 2472 conicto
1792 2080 lineto
end_ol grestore 
gsave 27.122354 9.663940 translate 0.035278 -0.035278 scale
start_ol
384 2432 moveto
801 2432 lineto
801 0 lineto
384 0 lineto
384 2432 lineto
384 3392 moveto
801 3392 lineto
801 2880 lineto
384 2880 lineto
384 3392 lineto
end_ol grestore 
gsave 27.284701 9.663940 translate 0.035278 -0.035278 scale
start_ol
2496 1273 moveto
2496 1069 lineto
673 1069 lineto
673 681 896 478 conicto
1120 275 1519 275 conicto
1751 275 1968 328 conicto
2185 381 2399 487 conicto
2399 123 lineto
2186 32 1962 -16 conicto
1738 -64 1508 -64 conicto
930 -64 593 275 conicto
256 615 256 1194 conicto
256 1793 576 2144 conicto
897 2496 1441 2496 conicto
1928 2496 2212 2167 conicto
2496 1838 2496 1273 conicto
2079 1408 moveto
2079 1750 1901 1953 conicto
1724 2157 1431 2157 conicto
1101 2157 902 1960 conicto
703 1764 673 1408 conicto
2079 1408 lineto
end_ol grestore 
gsave 27.641864 9.663940 translate 0.035278 -0.035278 scale
start_ol
1949 2364 moveto
1949 1984 lineto
1786 2071 1610 2114 conicto
1435 2157 1246 2157 conicto
959 2157 816 2065 conicto
673 1974 673 1791 conicto
673 1653 776 1573 conicto
879 1494 1190 1422 conicto
1322 1392 lineto
1734 1301 1907 1135 conicto
2081 969 2081 670 conicto
2081 331 1813 133 conicto
1545 -64 1076 -64 conicto
881 -64 669 -25 conicto
458 13 224 90 conicto
224 505 lineto
444 390 658 332 conicto
872 275 1082 275 conicto
1362 275 1513 372 conicto
1664 469 1664 645 conicto
1664 807 1556 894 conicto
1448 981 1083 1062 conicto
947 1094 lineto
581 1173 418 1334 conicto
256 1496 256 1779 conicto
256 2123 496 2309 conicto
737 2496 1180 2496 conicto
1399 2496 1592 2463 conicto
1785 2431 1949 2364 conicto
end_ol grestore 
0.100000 slw
[] 0 sd
[] 0 sd
0 slj
1.000000 1.000000 1.000000 srgb
n 19.010400 12.255600 m 19.010400 14.255600 l 24.910400 14.255600 l 24.910400 12.255600 l f
0.000000 0.000000 0.000000 srgb
n 19.010400 12.255600 m 19.010400 14.255600 l 24.910400 14.255600 l 24.910400 12.255600 l cp s
gsave 20.351250 13.005600 translate 0.035278 -0.035278 scale
start_ol
448 3264 moveto
1093 3264 lineto
1919 1043 lineto
2749 3264 lineto
3392 3264 lineto
3392 0 lineto
2975 0 lineto
2975 2866 lineto
2140 628 lineto
1700 628 lineto
865 2866 lineto
865 0 lineto
448 0 lineto
448 3264 lineto
end_ol grestore 
gsave 20.853280 13.005600 translate 0.035278 -0.035278 scale
start_ol
1362 2157 moveto
1043 2157 858 1905 conicto
673 1654 673 1215 conicto
673 778 857 526 conicto
1041 275 1362 275 conicto
1678 275 1863 527 conicto
2048 780 2048 1215 conicto
2048 1650 1863 1903 conicto
1678 2157 1362 2157 conicto
1361 2496 moveto
1877 2496 2171 2156 conicto
2465 1817 2465 1215 conicto
2465 617 2171 276 conicto
1877 -64 1361 -64 conicto
842 -64 549 276 conicto
256 617 256 1215 conicto
256 1817 549 2156 conicto
842 2496 1361 2496 conicto
end_ol grestore 
gsave 21.210443 13.005600 translate 0.035278 -0.035278 scale
start_ol
2015 2064 moveto
2015 3392 lineto
2432 3392 lineto
2432 0 lineto
2015 0 lineto
2015 368 lineto
1891 148 1700 42 conicto
1509 -64 1242 -64 conicto
806 -64 531 288 conicto
256 641 256 1215 conicto
256 1791 531 2143 conicto
806 2496 1242 2496 conicto
1509 2496 1700 2390 conicto
1891 2284 2015 2064 conicto
673 1216 moveto
673 776 851 525 conicto
1030 275 1343 275 conicto
1656 275 1835 525 conicto
2015 776 2015 1216 conicto
2015 1656 1835 1906 conicto
1656 2157 1343 2157 conicto
1030 2157 851 1906 conicto
673 1656 673 1216 conicto
end_ol grestore 
gsave 21.580091 13.005600 translate 0.035278 -0.035278 scale
start_ol
2496 1273 moveto
2496 1069 lineto
673 1069 lineto
673 681 896 478 conicto
1120 275 1519 275 conicto
1751 275 1968 328 conicto
2185 381 2399 487 conicto
2399 123 lineto
2186 32 1962 -16 conicto
1738 -64 1508 -64 conicto
930 -64 593 275 conicto
256 615 256 1194 conicto
256 1793 576 2144 conicto
897 2496 1441 2496 conicto
1928 2496 2212 2167 conicto
2496 1838 2496 1273 conicto
2079 1408 moveto
2079 1750 1901 1953 conicto
1724 2157 1431 2157 conicto
1101 2157 902 1960 conicto
703 1764 673 1408 conicto
2079 1408 lineto
end_ol grestore 
gsave 21.937253 13.005600 translate 0.035278 -0.035278 scale
start_ol
384 3392 moveto
801 3392 lineto
801 0 lineto
384 0 lineto
384 3392 lineto
end_ol grestore 
gsave 22.099600 13.005600 translate 0.035278 -0.035278 scale
start_ol
1949 2364 moveto
1949 1984 lineto
1786 2071 1610 2114 conicto
1435 2157 1246 2157 conicto
959 2157 816 2065 conicto
673 1974 673 1791 conicto
673 1653 776 1573 conicto
879 1494 1190 1422 conicto
1322 1392 lineto
1734 1301 1907 1135 conicto
2081 969 2081 670 conicto
2081 331 1813 133 conicto
1545 -64 1076 -64 conicto
881 -64 669 -25 conicto
458 13 224 90 conicto
224 505 lineto
444 390 658 332 conicto
872 275 1082 275 conicto
1362 275 1513 372 conicto
1664 469 1664 645 conicto
1664 807 1556 894 conicto
1448 981 1083 1062 conicto
947 1094 lineto
581 1173 418 1334 conicto
256 1496 256 1779 conicto
256 2123 496 2309 conicto
737 2496 1180 2496 conicto
1399 2496 1592 2463 conicto
1785 2431 1949 2364 conicto
end_ol grestore 
gsave 22.404309 13.005600 translate 0.035278 -0.035278 scale
start_ol
end_ol grestore 
gsave 22.589129 13.005600 translate 0.035278 -0.035278 scale
start_ol
1664 3392 moveto
1664 3053 lineto
1296 3053 lineto
1089 3053 1009 2968 conicto
929 2883 929 2662 conicto
929 2451 lineto
1536 2451 lineto
1536 2112 lineto
929 2112 lineto
929 13 lineto
512 13 lineto
512 2112 lineto
128 2112 lineto
128 2451 lineto
512 2451 lineto
512 2620 lineto
512 3023 698 3207 conicto
885 3392 1290 3392 conicto
1664 3392 lineto
end_ol grestore 
gsave 22.793933 13.005600 translate 0.035278 -0.035278 scale
start_ol
1362 2157 moveto
1043 2157 858 1905 conicto
673 1654 673 1215 conicto
673 778 857 526 conicto
1041 275 1362 275 conicto
1678 275 1863 527 conicto
2048 780 2048 1215 conicto
2048 1650 1863 1903 conicto
1678 2157 1362 2157 conicto
1361 2496 moveto
1877 2496 2171 2156 conicto
2465 1817 2465 1215 conicto
2465 617 2171 276 conicto
1877 -64 1361 -64 conicto
842 -64 549 276 conicto
256 617 256 1215 conicto
256 1817 549 2156 conicto
842 2496 1361 2496 conicto
end_ol grestore 
gsave 23.151096 13.005600 translate 0.035278 -0.035278 scale
start_ol
1792 2080 moveto
1726 2120 1649 2138 conicto
1573 2157 1481 2157 conicto
1152 2157 976 1934 conicto
801 1711 801 1295 conicto
801 0 lineto
384 0 lineto
384 2432 lineto
801 2432 lineto
801 2076 lineto
924 2289 1120 2392 conicto
1316 2496 1596 2496 conicto
1636 2496 1684 2490 conicto
1733 2484 1792 2472 conicto
1792 2080 lineto
end_ol grestore 
gsave 23.390866 13.005600 translate 0.035278 -0.035278 scale
start_ol
end_ol grestore 
gsave 19.435000 13.805600 translate 0.035278 -0.035278 scale
start_ol
2176 2344 moveto
2176 1970 lineto
2006 2064 1835 2110 conicto
1665 2157 1492 2157 conicto
1103 2157 888 1910 conicto
673 1663 673 1215 conicto
673 769 888 522 conicto
1103 275 1492 275 conicto
1665 275 1835 322 conicto
2006 369 2176 462 conicto
2176 92 lineto
2009 14 1830 -25 conicto
1651 -64 1450 -64 conicto
902 -64 579 282 conicto
256 628 256 1215 conicto
256 1813 582 2154 conicto
908 2496 1476 2496 conicto
1660 2496 1835 2458 conicto
2011 2420 2176 2344 conicto
end_ol grestore 
gsave 19.754699 13.805600 translate 0.035278 -0.035278 scale
start_ol
1362 2157 moveto
1043 2157 858 1905 conicto
673 1654 673 1215 conicto
673 778 857 526 conicto
1041 275 1362 275 conicto
1678 275 1863 527 conicto
2048 780 2048 1215 conicto
2048 1650 1863 1903 conicto
1678 2157 1362 2157 conicto
1361 2496 moveto
1877 2496 2171 2156 conicto
2465 1817 2465 1215 conicto
2465 617 2171 276 conicto
1877 -64 1361 -64 conicto
842 -64 549 276 conicto
256 617 256 1215 conicto
256 1817 549 2156 conicto
842 2496 1361 2496 conicto
end_ol grestore 
gsave 20.111862 13.805600 translate 0.035278 -0.035278 scale
start_ol
2401 1471 moveto
2401 0 lineto
1984 0 lineto
1984 1464 lineto
1984 1812 1855 1984 conicto
1726 2157 1468 2157 conicto
1159 2157 980 1949 conicto
801 1741 801 1384 conicto
801 0 lineto
384 0 lineto
384 2432 lineto
801 2432 lineto
801 2067 lineto
941 2282 1131 2389 conicto
1321 2496 1570 2496 conicto
1980 2496 2190 2236 conicto
2401 1976 2401 1471 conicto
end_ol grestore 
gsave 20.481510 13.805600 translate 0.035278 -0.035278 scale
start_ol
2015 2064 moveto
2015 3392 lineto
2432 3392 lineto
2432 0 lineto
2015 0 lineto
2015 368 lineto
1891 148 1700 42 conicto
1509 -64 1242 -64 conicto
806 -64 531 288 conicto
256 641 256 1215 conicto
256 1791 531 2143 conicto
806 2496 1242 2496 conicto
1509 2496 1700 2390 conicto
1891 2284 2015 2064 conicto
673 1216 moveto
673 776 851 525 conicto
1030 275 1343 275 conicto
1656 275 1835 525 conicto
2015 776 2015 1216 conicto
2015 1656 1835 1906 conicto
1656 2157 1343 2157 conicto
1030 2157 851 1906 conicto
673 1656 673 1216 conicto
end_ol grestore 
gsave 20.851157 13.805600 translate 0.035278 -0.035278 scale
start_ol
384 2432 moveto
801 2432 lineto
801 0 lineto
384 0 lineto
384 2432 lineto
384 3392 moveto
801 3392 lineto
801 2880 lineto
384 2880 lineto
384 3392 lineto
end_ol grestore 
gsave 21.013504 13.805600 translate 0.035278 -0.035278 scale
start_ol
832 3136 moveto
832 2451 lineto
1664 2451 lineto
1664 2112 lineto
832 2112 lineto
832 802 lineto
832 507 914 423 conicto
996 339 1249 339 conicto
1664 339 lineto
1664 0 lineto
1245 0 lineto
773 0 594 172 conicto
415 344 415 798 conicto
415 2112 lineto
128 2112 lineto
128 2451 lineto
415 2451 lineto
415 3136 lineto
832 3136 lineto
end_ol grestore 
gsave 21.243287 13.805600 translate 0.035278 -0.035278 scale
start_ol
384 2432 moveto
801 2432 lineto
801 0 lineto
384 0 lineto
384 2432 lineto
384 3392 moveto
801 3392 lineto
801 2880 lineto
384 2880 lineto
384 3392 lineto
end_ol grestore 
gsave 21.405633 13.805600 translate 0.035278 -0.035278 scale
start_ol
1362 2157 moveto
1043 2157 858 1905 conicto
673 1654 673 1215 conicto
673 778 857 526 conicto
1041 275 1362 275 conicto
1678 275 1863 527 conicto
2048 780 2048 1215 conicto
2048 1650 1863 1903 conicto
1678 2157 1362 2157 conicto
1361 2496 moveto
1877 2496 2171 2156 conicto
2465 1817 2465 1215 conicto
2465 617 2171 276 conicto
1877 -64 1361 -64 conicto
842 -64 549 276 conicto
256 617 256 1215 conicto
256 1817 549 2156 conicto
842 2496 1361 2496 conicto
end_ol grestore 
gsave 21.762796 13.805600 translate 0.035278 -0.035278 scale
start_ol
2401 1471 moveto
2401 0 lineto
1984 0 lineto
1984 1464 lineto
1984 1812 1855 1984 conicto
1726 2157 1468 2157 conicto
1159 2157 980 1949 conicto
801 1741 801 1384 conicto
801 0 lineto
384 0 lineto
384 2432 lineto
801 2432 lineto
801 2067 lineto
941 2282 1131 2389 conicto
1321 2496 1570 2496 conicto
1980 2496 2190 2236 conicto
2401 1976 2401 1471 conicto
end_ol grestore 
gsave 22.132444 13.805600 translate 0.035278 -0.035278 scale
start_ol
1503 1216 moveto
1034 1216 853 1106 conicto
673 997 673 733 conicto
673 522 808 398 conicto
944 275 1178 275 conicto
1499 275 1693 508 conicto
1887 741 1887 1128 conicto
1887 1216 lineto
1503 1216 lineto
2304 1391 moveto
2304 0 lineto
1887 0 lineto
1887 372 lineto
1752 148 1551 42 conicto
1350 -64 1058 -64 conicto
690 -64 473 148 conicto
256 360 256 716 conicto
256 1133 526 1344 conicto
797 1555 1335 1555 conicto
1887 1555 lineto
1887 1593 lineto
1887 1862 1709 2009 conicto
1531 2157 1211 2157 conicto
1007 2157 814 2108 conicto
621 2059 442 1962 conicto
442 2327 lineto
659 2412 864 2454 conicto
1069 2496 1263 2496 conicto
1787 2496 2045 2222 conicto
2304 1948 2304 1391 conicto
end_ol grestore 
gsave 22.489606 13.805600 translate 0.035278 -0.035278 scale
start_ol
384 3392 moveto
801 3392 lineto
801 0 lineto
384 0 lineto
384 3392 lineto
end_ol grestore 
gsave 22.651953 13.805600 translate 0.035278 -0.035278 scale
start_ol
end_ol grestore 
gsave 22.836773 13.805600 translate 0.035278 -0.035278 scale
start_ol
2267 1978 moveto
2413 2243 2617 2369 conicto
2821 2496 3098 2496 conicto
3469 2496 3671 2229 conicto
3873 1963 3873 1471 conicto
3873 0 lineto
3456 0 lineto
3456 1464 lineto
3456 1816 3338 1986 conicto
3220 2157 2977 2157 conicto
2681 2157 2509 1949 conicto
2337 1741 2337 1384 conicto
2337 0 lineto
1920 0 lineto
1920 1464 lineto
1920 1819 1802 1988 conicto
1684 2157 1437 2157 conicto
1145 2157 973 1948 conicto
801 1739 801 1384 conicto
801 0 lineto
384 0 lineto
384 2432 lineto
801 2432 lineto
801 2067 lineto
934 2287 1120 2391 conicto
1306 2496 1561 2496 conicto
1819 2496 2000 2363 conicto
2181 2231 2267 1978 conicto
end_ol grestore 
gsave 23.406239 13.805600 translate 0.035278 -0.035278 scale
start_ol
2496 1273 moveto
2496 1069 lineto
673 1069 lineto
673 681 896 478 conicto
1120 275 1519 275 conicto
1751 275 1968 328 conicto
2185 381 2399 487 conicto
2399 123 lineto
2186 32 1962 -16 conicto
1738 -64 1508 -64 conicto
930 -64 593 275 conicto
256 615 256 1194 conicto
256 1793 576 2144 conicto
897 2496 1441 2496 conicto
1928 2496 2212 2167 conicto
2496 1838 2496 1273 conicto
2079 1408 moveto
2079 1750 1901 1953 conicto
1724 2157 1431 2157 conicto
1101 2157 902 1960 conicto
703 1764 673 1408 conicto
2079 1408 lineto
end_ol grestore 
gsave 23.763401 13.805600 translate 0.035278 -0.035278 scale
start_ol
1503 1216 moveto
1034 1216 853 1106 conicto
673 997 673 733 conicto
673 522 808 398 conicto
944 275 1178 275 conicto
1499 275 1693 508 conicto
1887 741 1887 1128 conicto
1887 1216 lineto
1503 1216 lineto
2304 1391 moveto
2304 0 lineto
1887 0 lineto
1887 372 lineto
1752 148 1551 42 conicto
1350 -64 1058 -64 conicto
690 -64 473 148 conicto
256 360 256 716 conicto
256 1133 526 1344 conicto
797 1555 1335 1555 conicto
1887 1555 lineto
1887 1593 lineto
1887 1862 1709 2009 conicto
1531 2157 1211 2157 conicto
1007 2157 814 2108 conicto
621 2059 442 1962 conicto
442 2327 lineto
659 2412 864 2454 conicto
1069 2496 1263 2496 conicto
1787 2496 2045 2222 conicto
2304 1948 2304 1391 conicto
end_ol grestore 
gsave 24.120564 13.805600 translate 0.035278 -0.035278 scale
start_ol
2401 1471 moveto
2401 0 lineto
1984 0 lineto
1984 1464 lineto
1984 1812 1855 1984 conicto
1726 2157 1468 2157 conicto
1159 2157 980 1949 conicto
801 1741 801 1384 conicto
801 0 lineto
384 0 lineto
384 2432 lineto
801 2432 lineto
801 2067 lineto
941 2282 1131 2389 conicto
1321 2496 1570 2496 conicto
1980 2496 2190 2236 conicto
2401 1976 2401 1471 conicto
end_ol grestore 
0.100000 slw
[] 0 sd
[] 0 sd
0 slj
1.000000 1.000000 1.000000 srgb
n 27.900000 12.270000 m 27.900000 14.270000 l 35.350000 14.270000 l 35.350000 12.270000 l f
0.000000 0.000000 0.000000 srgb
n 27.900000 12.270000 m 27.900000 14.270000 l 35.350000 14.270000 l 35.350000 12.270000 l cp s
gsave 30.101250 13.027500 translate 0.035278 -0.035278 scale
start_ol
448 3264 moveto
1093 3264 lineto
1919 1043 lineto
2749 3264 lineto
3392 3264 lineto
3392 0 lineto
2975 0 lineto
2975 2866 lineto
2140 628 lineto
1700 628 lineto
865 2866 lineto
865 0 lineto
448 0 lineto
448 3264 lineto
end_ol grestore 
gsave 30.603280 13.027500 translate 0.035278 -0.035278 scale
start_ol
1362 2157 moveto
1043 2157 858 1905 conicto
673 1654 673 1215 conicto
673 778 857 526 conicto
1041 275 1362 275 conicto
1678 275 1863 527 conicto
2048 780 2048 1215 conicto
2048 1650 1863 1903 conicto
1678 2157 1362 2157 conicto
1361 2496 moveto
1877 2496 2171 2156 conicto
2465 1817 2465 1215 conicto
2465 617 2171 276 conicto
1877 -64 1361 -64 conicto
842 -64 549 276 conicto
256 617 256 1215 conicto
256 1817 549 2156 conicto
842 2496 1361 2496 conicto
end_ol grestore 
gsave 30.960443 13.027500 translate 0.035278 -0.035278 scale
start_ol
2015 2064 moveto
2015 3392 lineto
2432 3392 lineto
2432 0 lineto
2015 0 lineto
2015 368 lineto
1891 148 1700 42 conicto
1509 -64 1242 -64 conicto
806 -64 531 288 conicto
256 641 256 1215 conicto
256 1791 531 2143 conicto
806 2496 1242 2496 conicto
1509 2496 1700 2390 conicto
1891 2284 2015 2064 conicto
673 1216 moveto
673 776 851 525 conicto
1030 275 1343 275 conicto
1656 275 1835 525 conicto
2015 776 2015 1216 conicto
2015 1656 1835 1906 conicto
1656 2157 1343 2157 conicto
1030 2157 851 1906 conicto
673 1656 673 1216 conicto
end_ol grestore 
gsave 31.330091 13.027500 translate 0.035278 -0.035278 scale
start_ol
2496 1273 moveto
2496 1069 lineto
673 1069 lineto
673 681 896 478 conicto
1120 275 1519 275 conicto
1751 275 1968 328 conicto
2185 381 2399 487 conicto
2399 123 lineto
2186 32 1962 -16 conicto
1738 -64 1508 -64 conicto
930 -64 593 275 conicto
256 615 256 1194 conicto
256 1793 576 2144 conicto
897 2496 1441 2496 conicto
1928 2496 2212 2167 conicto
2496 1838 2496 1273 conicto
2079 1408 moveto
2079 1750 1901 1953 conicto
1724 2157 1431 2157 conicto
1101 2157 902 1960 conicto
703 1764 673 1408 conicto
2079 1408 lineto
end_ol grestore 
gsave 31.687253 13.027500 translate 0.035278 -0.035278 scale
start_ol
384 3392 moveto
801 3392 lineto
801 0 lineto
384 0 lineto
384 3392 lineto
end_ol grestore 
gsave 31.849600 13.027500 translate 0.035278 -0.035278 scale
start_ol
1949 2364 moveto
1949 1984 lineto
1786 2071 1610 2114 conicto
1435 2157 1246 2157 conicto
959 2157 816 2065 conicto
673 1974 673 1791 conicto
673 1653 776 1573 conicto
879 1494 1190 1422 conicto
1322 1392 lineto
1734 1301 1907 1135 conicto
2081 969 2081 670 conicto
2081 331 1813 133 conicto
1545 -64 1076 -64 conicto
881 -64 669 -25 conicto
458 13 224 90 conicto
224 505 lineto
444 390 658 332 conicto
872 275 1082 275 conicto
1362 275 1513 372 conicto
1664 469 1664 645 conicto
1664 807 1556 894 conicto
1448 981 1083 1062 conicto
947 1094 lineto
581 1173 418 1334 conicto
256 1496 256 1779 conicto
256 2123 496 2309 conicto
737 2496 1180 2496 conicto
1399 2496 1592 2463 conicto
1785 2431 1949 2364 conicto
end_ol grestore 
gsave 32.154309 13.027500 translate 0.035278 -0.035278 scale
start_ol
end_ol grestore 
gsave 32.339129 13.027500 translate 0.035278 -0.035278 scale
start_ol
1664 3392 moveto
1664 3053 lineto
1296 3053 lineto
1089 3053 1009 2968 conicto
929 2883 929 2662 conicto
929 2451 lineto
1536 2451 lineto
1536 2112 lineto
929 2112 lineto
929 13 lineto
512 13 lineto
512 2112 lineto
128 2112 lineto
128 2451 lineto
512 2451 lineto
512 2620 lineto
512 3023 698 3207 conicto
885 3392 1290 3392 conicto
1664 3392 lineto
end_ol grestore 
gsave 32.543933 13.027500 translate 0.035278 -0.035278 scale
start_ol
1362 2157 moveto
1043 2157 858 1905 conicto
673 1654 673 1215 conicto
673 778 857 526 conicto
1041 275 1362 275 conicto
1678 275 1863 527 conicto
2048 780 2048 1215 conicto
2048 1650 1863 1903 conicto
1678 2157 1362 2157 conicto
1361 2496 moveto
1877 2496 2171 2156 conicto
2465 1817 2465 1215 conicto
2465 617 2171 276 conicto
1877 -64 1361 -64 conicto
842 -64 549 276 conicto
256 617 256 1215 conicto
256 1817 549 2156 conicto
842 2496 1361 2496 conicto
end_ol grestore 
gsave 32.901096 13.027500 translate 0.035278 -0.035278 scale
start_ol
1792 2080 moveto
1726 2120 1649 2138 conicto
1573 2157 1481 2157 conicto
1152 2157 976 1934 conicto
801 1711 801 1295 conicto
801 0 lineto
384 0 lineto
384 2432 lineto
801 2432 lineto
801 2076 lineto
924 2289 1120 2392 conicto
1316 2496 1596 2496 conicto
1636 2496 1684 2490 conicto
1733 2484 1792 2472 conicto
1792 2080 lineto
end_ol grestore 
gsave 33.140866 13.027500 translate 0.035278 -0.035278 scale
start_ol
end_ol grestore 
gsave 28.757500 13.827500 translate 0.035278 -0.035278 scale
start_ol
2176 2344 moveto
2176 1970 lineto
2006 2064 1835 2110 conicto
1665 2157 1492 2157 conicto
1103 2157 888 1910 conicto
673 1663 673 1215 conicto
673 769 888 522 conicto
1103 275 1492 275 conicto
1665 275 1835 322 conicto
2006 369 2176 462 conicto
2176 92 lineto
2009 14 1830 -25 conicto
1651 -64 1450 -64 conicto
902 -64 579 282 conicto
256 628 256 1215 conicto
256 1813 582 2154 conicto
908 2496 1476 2496 conicto
1660 2496 1835 2458 conicto
2011 2420 2176 2344 conicto
end_ol grestore 
gsave 29.077199 13.827500 translate 0.035278 -0.035278 scale
start_ol
1362 2157 moveto
1043 2157 858 1905 conicto
673 1654 673 1215 conicto
673 778 857 526 conicto
1041 275 1362 275 conicto
1678 275 1863 527 conicto
2048 780 2048 1215 conicto
2048 1650 1863 1903 conicto
1678 2157 1362 2157 conicto
1361 2496 moveto
1877 2496 2171 2156 conicto
2465 1817 2465 1215 conicto
2465 617 2171 276 conicto
1877 -64 1361 -64 conicto
842 -64 549 276 conicto
256 617 256 1215 conicto
256 1817 549 2156 conicto
842 2496 1361 2496 conicto
end_ol grestore 
gsave 29.434362 13.827500 translate 0.035278 -0.035278 scale
start_ol
2401 1471 moveto
2401 0 lineto
1984 0 lineto
1984 1464 lineto
1984 1812 1855 1984 conicto
1726 2157 1468 2157 conicto
1159 2157 980 1949 conicto
801 1741 801 1384 conicto
801 0 lineto
384 0 lineto
384 2432 lineto
801 2432 lineto
801 2067 lineto
941 2282 1131 2389 conicto
1321 2496 1570 2496 conicto
1980 2496 2190 2236 conicto
2401 1976 2401 1471 conicto
end_ol grestore 
gsave 29.804010 13.827500 translate 0.035278 -0.035278 scale
start_ol
2015 2064 moveto
2015 3392 lineto
2432 3392 lineto
2432 0 lineto
2015 0 lineto
2015 368 lineto
1891 148 1700 42 conicto
1509 -64 1242 -64 conicto
806 -64 531 288 conicto
256 641 256 1215 conicto
256 1791 531 2143 conicto
806 2496 1242 2496 conicto
1509 2496 1700 2390 conicto
1891 2284 2015 2064 conicto
673 1216 moveto
673 776 851 525 conicto
1030 275 1343 275 conicto
1656 275 1835 525 conicto
2015 776 2015 1216 conicto
2015 1656 1835 1906 conicto
1656 2157 1343 2157 conicto
1030 2157 851 1906 conicto
673 1656 673 1216 conicto
end_ol grestore 
gsave 30.173657 13.827500 translate 0.035278 -0.035278 scale
start_ol
384 2432 moveto
801 2432 lineto
801 0 lineto
384 0 lineto
384 2432 lineto
384 3392 moveto
801 3392 lineto
801 2880 lineto
384 2880 lineto
384 3392 lineto
end_ol grestore 
gsave 30.336004 13.827500 translate 0.035278 -0.035278 scale
start_ol
832 3136 moveto
832 2451 lineto
1664 2451 lineto
1664 2112 lineto
832 2112 lineto
832 802 lineto
832 507 914 423 conicto
996 339 1249 339 conicto
1664 339 lineto
1664 0 lineto
1245 0 lineto
773 0 594 172 conicto
415 344 415 798 conicto
415 2112 lineto
128 2112 lineto
128 2451 lineto
415 2451 lineto
415 3136 lineto
832 3136 lineto
end_ol grestore 
gsave 30.565787 13.827500 translate 0.035278 -0.035278 scale
start_ol
384 2432 moveto
801 2432 lineto
801 0 lineto
384 0 lineto
384 2432 lineto
384 3392 moveto
801 3392 lineto
801 2880 lineto
384 2880 lineto
384 3392 lineto
end_ol grestore 
gsave 30.728133 13.827500 translate 0.035278 -0.035278 scale
start_ol
1362 2157 moveto
1043 2157 858 1905 conicto
673 1654 673 1215 conicto
673 778 857 526 conicto
1041 275 1362 275 conicto
1678 275 1863 527 conicto
2048 780 2048 1215 conicto
2048 1650 1863 1903 conicto
1678 2157 1362 2157 conicto
1361 2496 moveto
1877 2496 2171 2156 conicto
2465 1817 2465 1215 conicto
2465 617 2171 276 conicto
1877 -64 1361 -64 conicto
842 -64 549 276 conicto
256 617 256 1215 conicto
256 1817 549 2156 conicto
842 2496 1361 2496 conicto
end_ol grestore 
gsave 31.085296 13.827500 translate 0.035278 -0.035278 scale
start_ol
2401 1471 moveto
2401 0 lineto
1984 0 lineto
1984 1464 lineto
1984 1812 1855 1984 conicto
1726 2157 1468 2157 conicto
1159 2157 980 1949 conicto
801 1741 801 1384 conicto
801 0 lineto
384 0 lineto
384 2432 lineto
801 2432 lineto
801 2067 lineto
941 2282 1131 2389 conicto
1321 2496 1570 2496 conicto
1980 2496 2190 2236 conicto
2401 1976 2401 1471 conicto
end_ol grestore 
gsave 31.454944 13.827500 translate 0.035278 -0.035278 scale
start_ol
1503 1216 moveto
1034 1216 853 1106 conicto
673 997 673 733 conicto
673 522 808 398 conicto
944 275 1178 275 conicto
1499 275 1693 508 conicto
1887 741 1887 1128 conicto
1887 1216 lineto
1503 1216 lineto
2304 1391 moveto
2304 0 lineto
1887 0 lineto
1887 372 lineto
1752 148 1551 42 conicto
1350 -64 1058 -64 conicto
690 -64 473 148 conicto
256 360 256 716 conicto
256 1133 526 1344 conicto
797 1555 1335 1555 conicto
1887 1555 lineto
1887 1593 lineto
1887 1862 1709 2009 conicto
1531 2157 1211 2157 conicto
1007 2157 814 2108 conicto
621 2059 442 1962 conicto
442 2327 lineto
659 2412 864 2454 conicto
1069 2496 1263 2496 conicto
1787 2496 2045 2222 conicto
2304 1948 2304 1391 conicto
end_ol grestore 
gsave 31.812106 13.827500 translate 0.035278 -0.035278 scale
start_ol
384 3392 moveto
801 3392 lineto
801 0 lineto
384 0 lineto
384 3392 lineto
end_ol grestore 
gsave 31.974453 13.827500 translate 0.035278 -0.035278 scale
start_ol
end_ol grestore 
gsave 32.159273 13.827500 translate 0.035278 -0.035278 scale
start_ol
131 2432 moveto
551 2432 lineto
1303 391 lineto
2056 2432 lineto
2476 2432 lineto
1572 0 lineto
1035 0 lineto
131 2432 lineto
end_ol grestore 
gsave 32.503950 13.827500 translate 0.035278 -0.035278 scale
start_ol
1503 1216 moveto
1034 1216 853 1106 conicto
673 997 673 733 conicto
673 522 808 398 conicto
944 275 1178 275 conicto
1499 275 1693 508 conicto
1887 741 1887 1128 conicto
1887 1216 lineto
1503 1216 lineto
2304 1391 moveto
2304 0 lineto
1887 0 lineto
1887 372 lineto
1752 148 1551 42 conicto
1350 -64 1058 -64 conicto
690 -64 473 148 conicto
256 360 256 716 conicto
256 1133 526 1344 conicto
797 1555 1335 1555 conicto
1887 1555 lineto
1887 1593 lineto
1887 1862 1709 2009 conicto
1531 2157 1211 2157 conicto
1007 2157 814 2108 conicto
621 2059 442 1962 conicto
442 2327 lineto
659 2412 864 2454 conicto
1069 2496 1263 2496 conicto
1787 2496 2045 2222 conicto
2304 1948 2304 1391 conicto
end_ol grestore 
gsave 32.861113 13.827500 translate 0.035278 -0.035278 scale
start_ol
1792 2080 moveto
1726 2120 1649 2138 conicto
1573 2157 1481 2157 conicto
1152 2157 976 1934 conicto
801 1711 801 1295 conicto
801 0 lineto
384 0 lineto
384 2432 lineto
801 2432 lineto
801 2076 lineto
924 2289 1120 2392 conicto
1316 2496 1596 2496 conicto
1636 2496 1684 2490 conicto
1733 2484 1792 2472 conicto
1792 2080 lineto
end_ol grestore 
gsave 33.100883 13.827500 translate 0.035278 -0.035278 scale
start_ol
384 2432 moveto
801 2432 lineto
801 0 lineto
384 0 lineto
384 2432 lineto
384 3392 moveto
801 3392 lineto
801 2880 lineto
384 2880 lineto
384 3392 lineto
end_ol grestore 
gsave 33.263230 13.827500 translate 0.035278 -0.035278 scale
start_ol
1503 1216 moveto
1034 1216 853 1106 conicto
673 997 673 733 conicto
673 522 808 398 conicto
944 275 1178 275 conicto
1499 275 1693 508 conicto
1887 741 1887 1128 conicto
1887 1216 lineto
1503 1216 lineto
2304 1391 moveto
2304 0 lineto
1887 0 lineto
1887 372 lineto
1752 148 1551 42 conicto
1350 -64 1058 -64 conicto
690 -64 473 148 conicto
256 360 256 716 conicto
256 1133 526 1344 conicto
797 1555 1335 1555 conicto
1887 1555 lineto
1887 1593 lineto
1887 1862 1709 2009 conicto
1531 2157 1211 2157 conicto
1007 2157 814 2108 conicto
621 2059 442 1962 conicto
442 2327 lineto
659 2412 864 2454 conicto
1069 2496 1263 2496 conicto
1787 2496 2045 2222 conicto
2304 1948 2304 1391 conicto
end_ol grestore 
gsave 33.620393 13.827500 translate 0.035278 -0.035278 scale
start_ol
2401 1471 moveto
2401 0 lineto
1984 0 lineto
1984 1464 lineto
1984 1812 1855 1984 conicto
1726 2157 1468 2157 conicto
1159 2157 980 1949 conicto
801 1741 801 1384 conicto
801 0 lineto
384 0 lineto
384 2432 lineto
801 2432 lineto
801 2067 lineto
941 2282 1131 2389 conicto
1321 2496 1570 2496 conicto
1980 2496 2190 2236 conicto
2401 1976 2401 1471 conicto
end_ol grestore 
gsave 33.990041 13.827500 translate 0.035278 -0.035278 scale
start_ol
2176 2344 moveto
2176 1970 lineto
2006 2064 1835 2110 conicto
1665 2157 1492 2157 conicto
1103 2157 888 1910 conicto
673 1663 673 1215 conicto
673 769 888 522 conicto
1103 275 1492 275 conicto
1665 275 1835 322 conicto
2006 369 2176 462 conicto
2176 92 lineto
2009 14 1830 -25 conicto
1651 -64 1450 -64 conicto
902 -64 579 282 conicto
256 628 256 1215 conicto
256 1813 582 2154 conicto
908 2496 1476 2496 conicto
1660 2496 1835 2458 conicto
2011 2420 2176 2344 conicto
end_ol grestore 
gsave 34.309740 13.827500 translate 0.035278 -0.035278 scale
start_ol
2496 1273 moveto
2496 1069 lineto
673 1069 lineto
673 681 896 478 conicto
1120 275 1519 275 conicto
1751 275 1968 328 conicto
2185 381 2399 487 conicto
2399 123 lineto
2186 32 1962 -16 conicto
1738 -64 1508 -64 conicto
930 -64 593 275 conicto
256 615 256 1194 conicto
256 1793 576 2144 conicto
897 2496 1441 2496 conicto
1928 2496 2212 2167 conicto
2496 1838 2496 1273 conicto
2079 1408 moveto
2079 1750 1901 1953 conicto
1724 2157 1431 2157 conicto
1101 2157 902 1960 conicto
703 1764 673 1408 conicto
2079 1408 lineto
end_ol grestore 
0.100000 slw
[] 0 sd
[] 0 sd
0 slj
1.000000 1.000000 1.000000 srgb
n 19.000000 16.400000 m 19.000000 18.600000 l 26.550000 18.600000 l 26.550000 16.400000 l f
0.000000 0.000000 0.000000 srgb
n 19.000000 16.400000 m 19.000000 18.600000 l 26.550000 18.600000 l 26.550000 16.400000 l cp s
gsave 19.441800 17.235600 translate 0.035278 -0.035278 scale
start_ol
1506 2822 moveto
916 1171 lineto
2097 1171 lineto
1506 2822 lineto
1260 3264 moveto
1753 3264 lineto
2977 0 lineto
2525 0 lineto
2233 832 lineto
785 832 lineto
493 0 lineto
34 0 lineto
1260 3264 lineto
end_ol grestore 
gsave 19.841420 17.235600 translate 0.035278 -0.035278 scale
start_ol
384 959 moveto
384 2432 lineto
801 2432 lineto
801 969 lineto
801 622 930 448 conicto
1059 275 1315 275 conicto
1625 275 1804 482 conicto
1984 690 1984 1047 conicto
1984 2432 lineto
2401 2432 lineto
2401 0 lineto
1984 0 lineto
1984 364 lineto
1842 147 1654 41 conicto
1466 -64 1219 -64 conicto
808 -64 596 196 conicto
384 457 384 959 conicto
1380 2491 moveto
1380 2491 lineto
end_ol grestore 
gsave 20.211068 17.235600 translate 0.035278 -0.035278 scale
start_ol
832 3136 moveto
832 2451 lineto
1664 2451 lineto
1664 2112 lineto
832 2112 lineto
832 802 lineto
832 507 914 423 conicto
996 339 1249 339 conicto
1664 339 lineto
1664 0 lineto
1245 0 lineto
773 0 594 172 conicto
415 344 415 798 conicto
415 2112 lineto
128 2112 lineto
128 2451 lineto
415 2451 lineto
415 3136 lineto
832 3136 lineto
end_ol grestore 
gsave 20.440850 17.235600 translate 0.035278 -0.035278 scale
start_ol
1362 2157 moveto
1043 2157 858 1905 conicto
673 1654 673 1215 conicto
673 778 857 526 conicto
1041 275 1362 275 conicto
1678 275 1863 527 conicto
2048 780 2048 1215 conicto
2048 1650 1863 1903 conicto
1678 2157 1362 2157 conicto
1361 2496 moveto
1877 2496 2171 2156 conicto
2465 1817 2465 1215 conicto
2465 617 2171 276 conicto
1877 -64 1361 -64 conicto
842 -64 549 276 conicto
256 617 256 1215 conicto
256 1817 549 2156 conicto
842 2496 1361 2496 conicto
end_ol grestore 
gsave 20.798013 17.235600 translate 0.035278 -0.035278 scale
start_ol
1792 2080 moveto
1726 2120 1649 2138 conicto
1573 2157 1481 2157 conicto
1152 2157 976 1934 conicto
801 1711 801 1295 conicto
801 0 lineto
384 0 lineto
384 2432 lineto
801 2432 lineto
801 2076 lineto
924 2289 1120 2392 conicto
1316 2496 1596 2496 conicto
1636 2496 1684 2490 conicto
1733 2484 1792 2472 conicto
1792 2080 lineto
end_ol grestore 
gsave 21.025298 17.235600 translate 0.035278 -0.035278 scale
start_ol
2496 1273 moveto
2496 1069 lineto
673 1069 lineto
673 681 896 478 conicto
1120 275 1519 275 conicto
1751 275 1968 328 conicto
2185 381 2399 487 conicto
2399 123 lineto
2186 32 1962 -16 conicto
1738 -64 1508 -64 conicto
930 -64 593 275 conicto
256 615 256 1194 conicto
256 1793 576 2144 conicto
897 2496 1441 2496 conicto
1928 2496 2212 2167 conicto
2496 1838 2496 1273 conicto
2079 1408 moveto
2079 1750 1901 1953 conicto
1724 2157 1431 2157 conicto
1101 2157 902 1960 conicto
703 1764 673 1408 conicto
2079 1408 lineto
end_ol grestore 
gsave 21.382461 17.235600 translate 0.035278 -0.035278 scale
start_ol
2015 1279 moveto
2015 1706 1838 1941 conicto
1662 2176 1343 2176 conicto
1026 2176 849 1941 conicto
673 1706 673 1279 conicto
673 854 849 619 conicto
1026 384 1343 384 conicto
1662 384 1838 619 conicto
2015 854 2015 1279 conicto
2432 328 moveto
2432 -291 2156 -593 conicto
1881 -896 1312 -896 conicto
1102 -896 915 -863 conicto
729 -831 552 -764 conicto
552 -368 lineto
727 -465 896 -511 conicto
1065 -557 1241 -557 conicto
1629 -557 1822 -350 conicto
2015 -143 2015 276 conicto
2015 476 lineto
1893 259 1701 152 conicto
1509 45 1242 45 conicto
799 45 527 383 conicto
256 721 256 1279 conicto
256 1839 527 2177 conicto
799 2515 1242 2515 conicto
1509 2515 1701 2408 conicto
1893 2301 2015 2084 conicto
2015 2455 lineto
2432 2455 lineto
2432 328 lineto
end_ol grestore 
gsave 21.752109 17.235600 translate 0.035278 -0.035278 scale
start_ol
1792 2080 moveto
1726 2120 1649 2138 conicto
1573 2157 1481 2157 conicto
1152 2157 976 1934 conicto
801 1711 801 1295 conicto
801 0 lineto
384 0 lineto
384 2432 lineto
801 2432 lineto
801 2076 lineto
924 2289 1120 2392 conicto
1316 2496 1596 2496 conicto
1636 2496 1684 2490 conicto
1733 2484 1792 2472 conicto
1792 2080 lineto
end_ol grestore 
gsave 21.979394 17.235600 translate 0.035278 -0.035278 scale
start_ol
2496 1273 moveto
2496 1069 lineto
673 1069 lineto
673 681 896 478 conicto
1120 275 1519 275 conicto
1751 275 1968 328 conicto
2185 381 2399 487 conicto
2399 123 lineto
2186 32 1962 -16 conicto
1738 -64 1508 -64 conicto
930 -64 593 275 conicto
256 615 256 1194 conicto
256 1793 576 2144 conicto
897 2496 1441 2496 conicto
1928 2496 2212 2167 conicto
2496 1838 2496 1273 conicto
2079 1408 moveto
2079 1750 1901 1953 conicto
1724 2157 1431 2157 conicto
1101 2157 902 1960 conicto
703 1764 673 1408 conicto
2079 1408 lineto
end_ol grestore 
gsave 22.336557 17.235600 translate 0.035278 -0.035278 scale
start_ol
1949 2364 moveto
1949 1984 lineto
1786 2071 1610 2114 conicto
1435 2157 1246 2157 conicto
959 2157 816 2065 conicto
673 1974 673 1791 conicto
673 1653 776 1573 conicto
879 1494 1190 1422 conicto
1322 1392 lineto
1734 1301 1907 1135 conicto
2081 969 2081 670 conicto
2081 331 1813 133 conicto
1545 -64 1076 -64 conicto
881 -64 669 -25 conicto
458 13 224 90 conicto
224 505 lineto
444 390 658 332 conicto
872 275 1082 275 conicto
1362 275 1513 372 conicto
1664 469 1664 645 conicto
1664 807 1556 894 conicto
1448 981 1083 1062 conicto
947 1094 lineto
581 1173 418 1334 conicto
256 1496 256 1779 conicto
256 2123 496 2309 conicto
737 2496 1180 2496 conicto
1399 2496 1592 2463 conicto
1785 2431 1949 2364 conicto
end_ol grestore 
gsave 22.641266 17.235600 translate 0.035278 -0.035278 scale
start_ol
1949 2364 moveto
1949 1984 lineto
1786 2071 1610 2114 conicto
1435 2157 1246 2157 conicto
959 2157 816 2065 conicto
673 1974 673 1791 conicto
673 1653 776 1573 conicto
879 1494 1190 1422 conicto
1322 1392 lineto
1734 1301 1907 1135 conicto
2081 969 2081 670 conicto
2081 331 1813 133 conicto
1545 -64 1076 -64 conicto
881 -64 669 -25 conicto
458 13 224 90 conicto
224 505 lineto
444 390 658 332 conicto
872 275 1082 275 conicto
1362 275 1513 372 conicto
1664 469 1664 645 conicto
1664 807 1556 894 conicto
1448 981 1083 1062 conicto
947 1094 lineto
581 1173 418 1334 conicto
256 1496 256 1779 conicto
256 2123 496 2309 conicto
737 2496 1180 2496 conicto
1399 2496 1592 2463 conicto
1785 2431 1949 2364 conicto
end_ol grestore 
gsave 22.945975 17.235600 translate 0.035278 -0.035278 scale
start_ol
384 2432 moveto
801 2432 lineto
801 0 lineto
384 0 lineto
384 2432 lineto
384 3392 moveto
801 3392 lineto
801 2880 lineto
384 2880 lineto
384 3392 lineto
end_ol grestore 
gsave 23.108321 17.235600 translate 0.035278 -0.035278 scale
start_ol
131 2432 moveto
551 2432 lineto
1303 391 lineto
2056 2432 lineto
2476 2432 lineto
1572 0 lineto
1035 0 lineto
131 2432 lineto
end_ol grestore 
gsave 23.452999 17.235600 translate 0.035278 -0.035278 scale
start_ol
2496 1273 moveto
2496 1069 lineto
673 1069 lineto
673 681 896 478 conicto
1120 275 1519 275 conicto
1751 275 1968 328 conicto
2185 381 2399 487 conicto
2399 123 lineto
2186 32 1962 -16 conicto
1738 -64 1508 -64 conicto
930 -64 593 275 conicto
256 615 256 1194 conicto
256 1793 576 2144 conicto
897 2496 1441 2496 conicto
1928 2496 2212 2167 conicto
2496 1838 2496 1273 conicto
2079 1408 moveto
2079 1750 1901 1953 conicto
1724 2157 1431 2157 conicto
1101 2157 902 1960 conicto
703 1764 673 1408 conicto
2079 1408 lineto
end_ol grestore 
gsave 23.810162 17.235600 translate 0.035278 -0.035278 scale
start_ol
end_ol grestore 
gsave 23.994982 17.235600 translate 0.035278 -0.035278 scale
start_ol
448 3264 moveto
1093 3264 lineto
1919 1043 lineto
2749 3264 lineto
3392 3264 lineto
3392 0 lineto
2975 0 lineto
2975 2866 lineto
2140 628 lineto
1700 628 lineto
865 2866 lineto
865 0 lineto
448 0 lineto
448 3264 lineto
end_ol grestore 
gsave 24.497012 17.235600 translate 0.035278 -0.035278 scale
start_ol
1362 2157 moveto
1043 2157 858 1905 conicto
673 1654 673 1215 conicto
673 778 857 526 conicto
1041 275 1362 275 conicto
1678 275 1863 527 conicto
2048 780 2048 1215 conicto
2048 1650 1863 1903 conicto
1678 2157 1362 2157 conicto
1361 2496 moveto
1877 2496 2171 2156 conicto
2465 1817 2465 1215 conicto
2465 617 2171 276 conicto
1877 -64 1361 -64 conicto
842 -64 549 276 conicto
256 617 256 1215 conicto
256 1817 549 2156 conicto
842 2496 1361 2496 conicto
end_ol grestore 
gsave 24.854175 17.235600 translate 0.035278 -0.035278 scale
start_ol
131 2432 moveto
551 2432 lineto
1303 391 lineto
2056 2432 lineto
2476 2432 lineto
1572 0 lineto
1035 0 lineto
131 2432 lineto
end_ol grestore 
gsave 25.198852 17.235600 translate 0.035278 -0.035278 scale
start_ol
384 2432 moveto
801 2432 lineto
801 0 lineto
384 0 lineto
384 2432 lineto
384 3392 moveto
801 3392 lineto
801 2880 lineto
384 2880 lineto
384 3392 lineto
end_ol grestore 
gsave 25.361199 17.235600 translate 0.035278 -0.035278 scale
start_ol
2401 1471 moveto
2401 0 lineto
1984 0 lineto
1984 1464 lineto
1984 1812 1855 1984 conicto
1726 2157 1468 2157 conicto
1159 2157 980 1949 conicto
801 1741 801 1384 conicto
801 0 lineto
384 0 lineto
384 2432 lineto
801 2432 lineto
801 2067 lineto
941 2282 1131 2389 conicto
1321 2496 1570 2496 conicto
1980 2496 2190 2236 conicto
2401 1976 2401 1471 conicto
end_ol grestore 
gsave 25.730847 17.235600 translate 0.035278 -0.035278 scale
start_ol
2015 1279 moveto
2015 1706 1838 1941 conicto
1662 2176 1343 2176 conicto
1026 2176 849 1941 conicto
673 1706 673 1279 conicto
673 854 849 619 conicto
1026 384 1343 384 conicto
1662 384 1838 619 conicto
2015 854 2015 1279 conicto
2432 328 moveto
2432 -291 2156 -593 conicto
1881 -896 1312 -896 conicto
1102 -896 915 -863 conicto
729 -831 552 -764 conicto
552 -368 lineto
727 -465 896 -511 conicto
1065 -557 1241 -557 conicto
1629 -557 1822 -350 conicto
2015 -143 2015 276 conicto
2015 476 lineto
1893 259 1701 152 conicto
1509 45 1242 45 conicto
799 45 527 383 conicto
256 721 256 1279 conicto
256 1839 527 2177 conicto
799 2515 1242 2515 conicto
1509 2515 1701 2408 conicto
1893 2301 2015 2084 conicto
2015 2455 lineto
2432 2455 lineto
2432 328 lineto
end_ol grestore 
gsave 26.100494 17.235600 translate 0.035278 -0.035278 scale
start_ol
end_ol grestore 
gsave 19.284300 18.035600 translate 0.035278 -0.035278 scale
start_ol
1506 2822 moveto
916 1171 lineto
2097 1171 lineto
1506 2822 lineto
1260 3264 moveto
1753 3264 lineto
2977 0 lineto
2525 0 lineto
2233 832 lineto
785 832 lineto
493 0 lineto
34 0 lineto
1260 3264 lineto
end_ol grestore 
gsave 19.648954 18.035600 translate 0.035278 -0.035278 scale
start_ol
131 2432 moveto
551 2432 lineto
1303 391 lineto
2056 2432 lineto
2476 2432 lineto
1572 0 lineto
1035 0 lineto
131 2432 lineto
end_ol grestore 
gsave 19.993631 18.035600 translate 0.035278 -0.035278 scale
start_ol
2496 1273 moveto
2496 1069 lineto
673 1069 lineto
673 681 896 478 conicto
1120 275 1519 275 conicto
1751 275 1968 328 conicto
2185 381 2399 487 conicto
2399 123 lineto
2186 32 1962 -16 conicto
1738 -64 1508 -64 conicto
930 -64 593 275 conicto
256 615 256 1194 conicto
256 1793 576 2144 conicto
897 2496 1441 2496 conicto
1928 2496 2212 2167 conicto
2496 1838 2496 1273 conicto
2079 1408 moveto
2079 1750 1901 1953 conicto
1724 2157 1431 2157 conicto
1101 2157 902 1960 conicto
703 1764 673 1408 conicto
2079 1408 lineto
end_ol grestore 
gsave 20.350794 18.035600 translate 0.035278 -0.035278 scale
start_ol
1792 2080 moveto
1726 2120 1649 2138 conicto
1573 2157 1481 2157 conicto
1152 2157 976 1934 conicto
801 1711 801 1295 conicto
801 0 lineto
384 0 lineto
384 2432 lineto
801 2432 lineto
801 2076 lineto
924 2289 1120 2392 conicto
1316 2496 1596 2496 conicto
1636 2496 1684 2490 conicto
1733 2484 1792 2472 conicto
1792 2080 lineto
end_ol grestore 
gsave 20.590564 18.035600 translate 0.035278 -0.035278 scale
start_ol
1503 1216 moveto
1034 1216 853 1106 conicto
673 997 673 733 conicto
673 522 808 398 conicto
944 275 1178 275 conicto
1499 275 1693 508 conicto
1887 741 1887 1128 conicto
1887 1216 lineto
1503 1216 lineto
2304 1391 moveto
2304 0 lineto
1887 0 lineto
1887 372 lineto
1752 148 1551 42 conicto
1350 -64 1058 -64 conicto
690 -64 473 148 conicto
256 360 256 716 conicto
256 1133 526 1344 conicto
797 1555 1335 1555 conicto
1887 1555 lineto
1887 1593 lineto
1887 1862 1709 2009 conicto
1531 2157 1211 2157 conicto
1007 2157 814 2108 conicto
621 2059 442 1962 conicto
442 2327 lineto
659 2412 864 2454 conicto
1069 2496 1263 2496 conicto
1787 2496 2045 2222 conicto
2304 1948 2304 1391 conicto
end_ol grestore 
gsave 20.947727 18.035600 translate 0.035278 -0.035278 scale
start_ol
2015 1279 moveto
2015 1706 1838 1941 conicto
1662 2176 1343 2176 conicto
1026 2176 849 1941 conicto
673 1706 673 1279 conicto
673 854 849 619 conicto
1026 384 1343 384 conicto
1662 384 1838 619 conicto
2015 854 2015 1279 conicto
2432 328 moveto
2432 -291 2156 -593 conicto
1881 -896 1312 -896 conicto
1102 -896 915 -863 conicto
729 -831 552 -764 conicto
552 -368 lineto
727 -465 896 -511 conicto
1065 -557 1241 -557 conicto
1629 -557 1822 -350 conicto
2015 -143 2015 276 conicto
2015 476 lineto
1893 259 1701 152 conicto
1509 45 1242 45 conicto
799 45 527 383 conicto
256 721 256 1279 conicto
256 1839 527 2177 conicto
799 2515 1242 2515 conicto
1509 2515 1701 2408 conicto
1893 2301 2015 2084 conicto
2015 2455 lineto
2432 2455 lineto
2432 328 lineto
end_ol grestore 
gsave 21.317375 18.035600 translate 0.035278 -0.035278 scale
start_ol
2496 1273 moveto
2496 1069 lineto
673 1069 lineto
673 681 896 478 conicto
1120 275 1519 275 conicto
1751 275 1968 328 conicto
2185 381 2399 487 conicto
2399 123 lineto
2186 32 1962 -16 conicto
1738 -64 1508 -64 conicto
930 -64 593 275 conicto
256 615 256 1194 conicto
256 1793 576 2144 conicto
897 2496 1441 2496 conicto
1928 2496 2212 2167 conicto
2496 1838 2496 1273 conicto
2079 1408 moveto
2079 1750 1901 1953 conicto
1724 2157 1431 2157 conicto
1101 2157 902 1960 conicto
703 1764 673 1408 conicto
2079 1408 lineto
end_ol grestore 
gsave 21.674538 18.035600 translate 0.035278 -0.035278 scale
start_ol
end_ol grestore 
gsave 21.859357 18.035600 translate 0.035278 -0.035278 scale
start_ol
448 3264 moveto
1093 3264 lineto
1919 1043 lineto
2749 3264 lineto
3392 3264 lineto
3392 0 lineto
2975 0 lineto
2975 2866 lineto
2140 628 lineto
1700 628 lineto
865 2866 lineto
865 0 lineto
448 0 lineto
448 3264 lineto
end_ol grestore 
gsave 22.361388 18.035600 translate 0.035278 -0.035278 scale
start_ol
1362 2157 moveto
1043 2157 858 1905 conicto
673 1654 673 1215 conicto
673 778 857 526 conicto
1041 275 1362 275 conicto
1678 275 1863 527 conicto
2048 780 2048 1215 conicto
2048 1650 1863 1903 conicto
1678 2157 1362 2157 conicto
1361 2496 moveto
1877 2496 2171 2156 conicto
2465 1817 2465 1215 conicto
2465 617 2171 276 conicto
1877 -64 1361 -64 conicto
842 -64 549 276 conicto
256 617 256 1215 conicto
256 1817 549 2156 conicto
842 2496 1361 2496 conicto
end_ol grestore 
gsave 22.718550 18.035600 translate 0.035278 -0.035278 scale
start_ol
2015 2064 moveto
2015 3392 lineto
2432 3392 lineto
2432 0 lineto
2015 0 lineto
2015 368 lineto
1891 148 1700 42 conicto
1509 -64 1242 -64 conicto
806 -64 531 288 conicto
256 641 256 1215 conicto
256 1791 531 2143 conicto
806 2496 1242 2496 conicto
1509 2496 1700 2390 conicto
1891 2284 2015 2064 conicto
673 1216 moveto
673 776 851 525 conicto
1030 275 1343 275 conicto
1656 275 1835 525 conicto
2015 776 2015 1216 conicto
2015 1656 1835 1906 conicto
1656 2157 1343 2157 conicto
1030 2157 851 1906 conicto
673 1656 673 1216 conicto
end_ol grestore 
gsave 23.088198 18.035600 translate 0.035278 -0.035278 scale
start_ol
2496 1273 moveto
2496 1069 lineto
673 1069 lineto
673 681 896 478 conicto
1120 275 1519 275 conicto
1751 275 1968 328 conicto
2185 381 2399 487 conicto
2399 123 lineto
2186 32 1962 -16 conicto
1738 -64 1508 -64 conicto
930 -64 593 275 conicto
256 615 256 1194 conicto
256 1793 576 2144 conicto
897 2496 1441 2496 conicto
1928 2496 2212 2167 conicto
2496 1838 2496 1273 conicto
2079 1408 moveto
2079 1750 1901 1953 conicto
1724 2157 1431 2157 conicto
1101 2157 902 1960 conicto
703 1764 673 1408 conicto
2079 1408 lineto
end_ol grestore 
gsave 23.445361 18.035600 translate 0.035278 -0.035278 scale
start_ol
384 3392 moveto
801 3392 lineto
801 0 lineto
384 0 lineto
384 3392 lineto
end_ol grestore 
gsave 23.607707 18.035600 translate 0.035278 -0.035278 scale
start_ol
1949 2364 moveto
1949 1984 lineto
1786 2071 1610 2114 conicto
1435 2157 1246 2157 conicto
959 2157 816 2065 conicto
673 1974 673 1791 conicto
673 1653 776 1573 conicto
879 1494 1190 1422 conicto
1322 1392 lineto
1734 1301 1907 1135 conicto
2081 969 2081 670 conicto
2081 331 1813 133 conicto
1545 -64 1076 -64 conicto
881 -64 669 -25 conicto
458 13 224 90 conicto
224 505 lineto
444 390 658 332 conicto
872 275 1082 275 conicto
1362 275 1513 372 conicto
1664 469 1664 645 conicto
1664 807 1556 894 conicto
1448 981 1083 1062 conicto
947 1094 lineto
581 1173 418 1334 conicto
256 1496 256 1779 conicto
256 2123 496 2309 conicto
737 2496 1180 2496 conicto
1399 2496 1592 2463 conicto
1785 2431 1949 2364 conicto
end_ol grestore 
gsave 23.912416 18.035600 translate 0.035278 -0.035278 scale
start_ol
end_ol grestore 
gsave 24.097236 18.035600 translate 0.035278 -0.035278 scale
start_ol
1369 3392 moveto
1081 2891 941 2402 conicto
801 1913 801 1410 conicto
801 908 942 415 conicto
1083 -77 1369 -576 conicto
1025 -576 lineto
703 -64 543 429 conicto
384 923 384 1410 conicto
384 1896 542 2387 conicto
701 2878 1025 3392 conicto
1369 3392 lineto
end_ol grestore 
gsave 24.324522 18.035600 translate 0.035278 -0.035278 scale
start_ol
1506 2822 moveto
916 1171 lineto
2097 1171 lineto
1506 2822 lineto
1260 3264 moveto
1753 3264 lineto
2977 0 lineto
2525 0 lineto
2233 832 lineto
785 832 lineto
493 0 lineto
34 0 lineto
1260 3264 lineto
end_ol grestore 
gsave 24.724142 18.035600 translate 0.035278 -0.035278 scale
start_ol
1955 1485 moveto
2094 1437 2225 1281 conicto
2356 1125 2488 853 conicto
2924 -32 lineto
2458 -32 lineto
2049 803 lineto
1890 1131 1741 1237 conicto
1593 1344 1336 1344 conicto
865 1344 lineto
865 -32 lineto
448 -32 lineto
448 3200 lineto
1417 3200 lineto
1961 3200 2228 2968 conicto
2496 2737 2496 2270 conicto
2496 1965 2357 1764 conicto
2219 1563 1955 1485 conicto
865 2861 moveto
865 1683 lineto
1412 1683 lineto
1726 1683 1887 1833 conicto
2048 1983 2048 2274 conicto
2048 2565 1887 2713 conicto
1726 2861 1412 2861 conicto
865 2861 lineto
end_ol grestore 
gsave 25.128756 18.035600 translate 0.035278 -0.035278 scale
start_ol
448 3264 moveto
1093 3264 lineto
1919 1043 lineto
2749 3264 lineto
3392 3264 lineto
3392 0 lineto
2975 0 lineto
2975 2866 lineto
2140 628 lineto
1700 628 lineto
865 2866 lineto
865 0 lineto
448 0 lineto
448 3264 lineto
end_ol grestore 
gsave 25.630786 18.035600 translate 0.035278 -0.035278 scale
start_ol
1506 2822 moveto
916 1171 lineto
2097 1171 lineto
1506 2822 lineto
1260 3264 moveto
1753 3264 lineto
2977 0 lineto
2525 0 lineto
2233 832 lineto
785 832 lineto
493 0 lineto
34 0 lineto
1260 3264 lineto
end_ol grestore 
gsave 26.030406 18.035600 translate 0.035278 -0.035278 scale
start_ol
328 3392 moveto
672 3392 lineto
994 2878 1153 2387 conicto
1313 1896 1313 1410 conicto
1313 923 1153 429 conicto
994 -64 672 -576 conicto
328 -576 lineto
614 -77 755 415 conicto
896 908 896 1410 conicto
896 1913 755 2402 conicto
614 2891 328 3392 conicto
end_ol grestore 
gsave 26.257691 18.035600 translate 0.035278 -0.035278 scale
start_ol
end_ol grestore 
0.100000 slw
[] 0 sd
[] 0 sd
0 slj
1.000000 1.000000 1.000000 srgb
n 27.350000 16.527900 m 27.350000 18.750000 l 39.400000 18.750000 l 39.400000 16.527900 l f
0.000000 0.000000 0.000000 srgb
n 27.350000 16.527900 m 27.350000 18.750000 l 39.400000 18.750000 l 39.400000 16.527900 l cp s
gsave 27.657900 17.412900 translate 0.035278 -0.035278 scale
start_ol
2624 445 moveto
2624 1344 lineto
1913 1344 lineto
1913 1683 lineto
3041 1683 lineto
3041 279 lineto
2791 110 2490 23 conicto
2189 -64 1848 -64 conicto
1100 -64 678 378 conicto
256 820 256 1608 conicto
256 2399 678 2841 conicto
1101 3283 1849 3283 conicto
2161 3283 2441 3209 conicto
2722 3136 2960 2993 conicto
2960 2524 lineto
2720 2733 2449 2838 conicto
2179 2944 1881 2944 conicto
1294 2944 999 2608 conicto
704 2273 704 1608 conicto
704 946 1000 610 conicto
1297 275 1887 275 conicto
2117 275 2298 316 conicto
2480 358 2624 445 conicto
end_ol grestore 
gsave 28.109974 17.412900 translate 0.035278 -0.035278 scale
start_ol
2496 1273 moveto
2496 1069 lineto
673 1069 lineto
673 681 896 478 conicto
1120 275 1519 275 conicto
1751 275 1968 328 conicto
2185 381 2399 487 conicto
2399 123 lineto
2186 32 1962 -16 conicto
1738 -64 1508 -64 conicto
930 -64 593 275 conicto
256 615 256 1194 conicto
256 1793 576 2144 conicto
897 2496 1441 2496 conicto
1928 2496 2212 2167 conicto
2496 1838 2496 1273 conicto
2079 1408 moveto
2079 1750 1901 1953 conicto
1724 2157 1431 2157 conicto
1101 2157 902 1960 conicto
703 1764 673 1408 conicto
2079 1408 lineto
end_ol grestore 
gsave 28.467136 17.412900 translate 0.035278 -0.035278 scale
start_ol
2401 1471 moveto
2401 0 lineto
1984 0 lineto
1984 1464 lineto
1984 1812 1855 1984 conicto
1726 2157 1468 2157 conicto
1159 2157 980 1949 conicto
801 1741 801 1384 conicto
801 0 lineto
384 0 lineto
384 2432 lineto
801 2432 lineto
801 2067 lineto
941 2282 1131 2389 conicto
1321 2496 1570 2496 conicto
1980 2496 2190 2236 conicto
2401 1976 2401 1471 conicto
end_ol grestore 
gsave 28.836784 17.412900 translate 0.035278 -0.035278 scale
start_ol
2496 1273 moveto
2496 1069 lineto
673 1069 lineto
673 681 896 478 conicto
1120 275 1519 275 conicto
1751 275 1968 328 conicto
2185 381 2399 487 conicto
2399 123 lineto
2186 32 1962 -16 conicto
1738 -64 1508 -64 conicto
930 -64 593 275 conicto
256 615 256 1194 conicto
256 1793 576 2144 conicto
897 2496 1441 2496 conicto
1928 2496 2212 2167 conicto
2496 1838 2496 1273 conicto
2079 1408 moveto
2079 1750 1901 1953 conicto
1724 2157 1431 2157 conicto
1101 2157 902 1960 conicto
703 1764 673 1408 conicto
2079 1408 lineto
end_ol grestore 
gsave 29.193947 17.412900 translate 0.035278 -0.035278 scale
start_ol
1792 2080 moveto
1726 2120 1649 2138 conicto
1573 2157 1481 2157 conicto
1152 2157 976 1934 conicto
801 1711 801 1295 conicto
801 0 lineto
384 0 lineto
384 2432 lineto
801 2432 lineto
801 2076 lineto
924 2289 1120 2392 conicto
1316 2496 1596 2496 conicto
1636 2496 1684 2490 conicto
1733 2484 1792 2472 conicto
1792 2080 lineto
end_ol grestore 
gsave 29.433717 17.412900 translate 0.035278 -0.035278 scale
start_ol
1503 1216 moveto
1034 1216 853 1106 conicto
673 997 673 733 conicto
673 522 808 398 conicto
944 275 1178 275 conicto
1499 275 1693 508 conicto
1887 741 1887 1128 conicto
1887 1216 lineto
1503 1216 lineto
2304 1391 moveto
2304 0 lineto
1887 0 lineto
1887 372 lineto
1752 148 1551 42 conicto
1350 -64 1058 -64 conicto
690 -64 473 148 conicto
256 360 256 716 conicto
256 1133 526 1344 conicto
797 1555 1335 1555 conicto
1887 1555 lineto
1887 1593 lineto
1887 1862 1709 2009 conicto
1531 2157 1211 2157 conicto
1007 2157 814 2108 conicto
621 2059 442 1962 conicto
442 2327 lineto
659 2412 864 2454 conicto
1069 2496 1263 2496 conicto
1787 2496 2045 2222 conicto
2304 1948 2304 1391 conicto
end_ol grestore 
gsave 29.790880 17.412900 translate 0.035278 -0.035278 scale
start_ol
384 3392 moveto
801 3392 lineto
801 0 lineto
384 0 lineto
384 3392 lineto
end_ol grestore 
gsave 29.953227 17.412900 translate 0.035278 -0.035278 scale
start_ol
384 2432 moveto
801 2432 lineto
801 0 lineto
384 0 lineto
384 2432 lineto
384 3392 moveto
801 3392 lineto
801 2880 lineto
384 2880 lineto
384 3392 lineto
end_ol grestore 
gsave 30.115573 17.412900 translate 0.035278 -0.035278 scale
start_ol
256 2451 moveto
2112 2451 lineto
2112 2067 lineto
642 339 lineto
2112 339 lineto
2112 0 lineto
192 0 lineto
192 384 lineto
1672 2112 lineto
256 2112 lineto
256 2451 lineto
end_ol grestore 
gsave 30.422779 17.412900 translate 0.035278 -0.035278 scale
start_ol
2496 1273 moveto
2496 1069 lineto
673 1069 lineto
673 681 896 478 conicto
1120 275 1519 275 conicto
1751 275 1968 328 conicto
2185 381 2399 487 conicto
2399 123 lineto
2186 32 1962 -16 conicto
1738 -64 1508 -64 conicto
930 -64 593 275 conicto
256 615 256 1194 conicto
256 1793 576 2144 conicto
897 2496 1441 2496 conicto
1928 2496 2212 2167 conicto
2496 1838 2496 1273 conicto
2079 1408 moveto
2079 1750 1901 1953 conicto
1724 2157 1431 2157 conicto
1101 2157 902 1960 conicto
703 1764 673 1408 conicto
2079 1408 lineto
end_ol grestore 
gsave 30.779942 17.412900 translate 0.035278 -0.035278 scale
start_ol
2015 2064 moveto
2015 3392 lineto
2432 3392 lineto
2432 0 lineto
2015 0 lineto
2015 368 lineto
1891 148 1700 42 conicto
1509 -64 1242 -64 conicto
806 -64 531 288 conicto
256 641 256 1215 conicto
256 1791 531 2143 conicto
806 2496 1242 2496 conicto
1509 2496 1700 2390 conicto
1891 2284 2015 2064 conicto
673 1216 moveto
673 776 851 525 conicto
1030 275 1343 275 conicto
1656 275 1835 525 conicto
2015 776 2015 1216 conicto
2015 1656 1835 1906 conicto
1656 2157 1343 2157 conicto
1030 2157 851 1906 conicto
673 1656 673 1216 conicto
end_ol grestore 
gsave 31.149590 17.412900 translate 0.035278 -0.035278 scale
start_ol
end_ol grestore 
gsave 31.334409 17.412900 translate 0.035278 -0.035278 scale
start_ol
1506 2822 moveto
916 1171 lineto
2097 1171 lineto
1506 2822 lineto
1260 3264 moveto
1753 3264 lineto
2977 0 lineto
2525 0 lineto
2233 832 lineto
785 832 lineto
493 0 lineto
34 0 lineto
1260 3264 lineto
end_ol grestore 
gsave 31.734029 17.412900 translate 0.035278 -0.035278 scale
start_ol
384 959 moveto
384 2432 lineto
801 2432 lineto
801 969 lineto
801 622 930 448 conicto
1059 275 1315 275 conicto
1625 275 1804 482 conicto
1984 690 1984 1047 conicto
1984 2432 lineto
2401 2432 lineto
2401 0 lineto
1984 0 lineto
1984 364 lineto
1842 147 1654 41 conicto
1466 -64 1219 -64 conicto
808 -64 596 196 conicto
384 457 384 959 conicto
1380 2491 moveto
1380 2491 lineto
end_ol grestore 
gsave 32.103677 17.412900 translate 0.035278 -0.035278 scale
start_ol
832 3136 moveto
832 2451 lineto
1664 2451 lineto
1664 2112 lineto
832 2112 lineto
832 802 lineto
832 507 914 423 conicto
996 339 1249 339 conicto
1664 339 lineto
1664 0 lineto
1245 0 lineto
773 0 594 172 conicto
415 344 415 798 conicto
415 2112 lineto
128 2112 lineto
128 2451 lineto
415 2451 lineto
415 3136 lineto
832 3136 lineto
end_ol grestore 
gsave 32.333460 17.412900 translate 0.035278 -0.035278 scale
start_ol
1362 2157 moveto
1043 2157 858 1905 conicto
673 1654 673 1215 conicto
673 778 857 526 conicto
1041 275 1362 275 conicto
1678 275 1863 527 conicto
2048 780 2048 1215 conicto
2048 1650 1863 1903 conicto
1678 2157 1362 2157 conicto
1361 2496 moveto
1877 2496 2171 2156 conicto
2465 1817 2465 1215 conicto
2465 617 2171 276 conicto
1877 -64 1361 -64 conicto
842 -64 549 276 conicto
256 617 256 1215 conicto
256 1817 549 2156 conicto
842 2496 1361 2496 conicto
end_ol grestore 
gsave 32.690622 17.412900 translate 0.035278 -0.035278 scale
start_ol
1792 2080 moveto
1726 2120 1649 2138 conicto
1573 2157 1481 2157 conicto
1152 2157 976 1934 conicto
801 1711 801 1295 conicto
801 0 lineto
384 0 lineto
384 2432 lineto
801 2432 lineto
801 2076 lineto
924 2289 1120 2392 conicto
1316 2496 1596 2496 conicto
1636 2496 1684 2490 conicto
1733 2484 1792 2472 conicto
1792 2080 lineto
end_ol grestore 
gsave 32.917908 17.412900 translate 0.035278 -0.035278 scale
start_ol
2496 1273 moveto
2496 1069 lineto
673 1069 lineto
673 681 896 478 conicto
1120 275 1519 275 conicto
1751 275 1968 328 conicto
2185 381 2399 487 conicto
2399 123 lineto
2186 32 1962 -16 conicto
1738 -64 1508 -64 conicto
930 -64 593 275 conicto
256 615 256 1194 conicto
256 1793 576 2144 conicto
897 2496 1441 2496 conicto
1928 2496 2212 2167 conicto
2496 1838 2496 1273 conicto
2079 1408 moveto
2079 1750 1901 1953 conicto
1724 2157 1431 2157 conicto
1101 2157 902 1960 conicto
703 1764 673 1408 conicto
2079 1408 lineto
end_ol grestore 
gsave 33.275070 17.412900 translate 0.035278 -0.035278 scale
start_ol
2015 1279 moveto
2015 1706 1838 1941 conicto
1662 2176 1343 2176 conicto
1026 2176 849 1941 conicto
673 1706 673 1279 conicto
673 854 849 619 conicto
1026 384 1343 384 conicto
1662 384 1838 619 conicto
2015 854 2015 1279 conicto
2432 328 moveto
2432 -291 2156 -593 conicto
1881 -896 1312 -896 conicto
1102 -896 915 -863 conicto
729 -831 552 -764 conicto
552 -368 lineto
727 -465 896 -511 conicto
1065 -557 1241 -557 conicto
1629 -557 1822 -350 conicto
2015 -143 2015 276 conicto
2015 476 lineto
1893 259 1701 152 conicto
1509 45 1242 45 conicto
799 45 527 383 conicto
256 721 256 1279 conicto
256 1839 527 2177 conicto
799 2515 1242 2515 conicto
1509 2515 1701 2408 conicto
1893 2301 2015 2084 conicto
2015 2455 lineto
2432 2455 lineto
2432 328 lineto
end_ol grestore 
gsave 33.644718 17.412900 translate 0.035278 -0.035278 scale
start_ol
1792 2080 moveto
1726 2120 1649 2138 conicto
1573 2157 1481 2157 conicto
1152 2157 976 1934 conicto
801 1711 801 1295 conicto
801 0 lineto
384 0 lineto
384 2432 lineto
801 2432 lineto
801 2076 lineto
924 2289 1120 2392 conicto
1316 2496 1596 2496 conicto
1636 2496 1684 2490 conicto
1733 2484 1792 2472 conicto
1792 2080 lineto
end_ol grestore 
gsave 33.872003 17.412900 translate 0.035278 -0.035278 scale
start_ol
2496 1273 moveto
2496 1069 lineto
673 1069 lineto
673 681 896 478 conicto
1120 275 1519 275 conicto
1751 275 1968 328 conicto
2185 381 2399 487 conicto
2399 123 lineto
2186 32 1962 -16 conicto
1738 -64 1508 -64 conicto
930 -64 593 275 conicto
256 615 256 1194 conicto
256 1793 576 2144 conicto
897 2496 1441 2496 conicto
1928 2496 2212 2167 conicto
2496 1838 2496 1273 conicto
2079 1408 moveto
2079 1750 1901 1953 conicto
1724 2157 1431 2157 conicto
1101 2157 902 1960 conicto
703 1764 673 1408 conicto
2079 1408 lineto
end_ol grestore 
gsave 34.229166 17.412900 translate 0.035278 -0.035278 scale
start_ol
1949 2364 moveto
1949 1984 lineto
1786 2071 1610 2114 conicto
1435 2157 1246 2157 conicto
959 2157 816 2065 conicto
673 1974 673 1791 conicto
673 1653 776 1573 conicto
879 1494 1190 1422 conicto
1322 1392 lineto
1734 1301 1907 1135 conicto
2081 969 2081 670 conicto
2081 331 1813 133 conicto
1545 -64 1076 -64 conicto
881 -64 669 -25 conicto
458 13 224 90 conicto
224 505 lineto
444 390 658 332 conicto
872 275 1082 275 conicto
1362 275 1513 372 conicto
1664 469 1664 645 conicto
1664 807 1556 894 conicto
1448 981 1083 1062 conicto
947 1094 lineto
581 1173 418 1334 conicto
256 1496 256 1779 conicto
256 2123 496 2309 conicto
737 2496 1180 2496 conicto
1399 2496 1592 2463 conicto
1785 2431 1949 2364 conicto
end_ol grestore 
gsave 34.533875 17.412900 translate 0.035278 -0.035278 scale
start_ol
1949 2364 moveto
1949 1984 lineto
1786 2071 1610 2114 conicto
1435 2157 1246 2157 conicto
959 2157 816 2065 conicto
673 1974 673 1791 conicto
673 1653 776 1573 conicto
879 1494 1190 1422 conicto
1322 1392 lineto
1734 1301 1907 1135 conicto
2081 969 2081 670 conicto
2081 331 1813 133 conicto
1545 -64 1076 -64 conicto
881 -64 669 -25 conicto
458 13 224 90 conicto
224 505 lineto
444 390 658 332 conicto
872 275 1082 275 conicto
1362 275 1513 372 conicto
1664 469 1664 645 conicto
1664 807 1556 894 conicto
1448 981 1083 1062 conicto
947 1094 lineto
581 1173 418 1334 conicto
256 1496 256 1779 conicto
256 2123 496 2309 conicto
737 2496 1180 2496 conicto
1399 2496 1592 2463 conicto
1785 2431 1949 2364 conicto
end_ol grestore 
gsave 34.838584 17.412900 translate 0.035278 -0.035278 scale
start_ol
384 2432 moveto
801 2432 lineto
801 0 lineto
384 0 lineto
384 2432 lineto
384 3392 moveto
801 3392 lineto
801 2880 lineto
384 2880 lineto
384 3392 lineto
end_ol grestore 
gsave 35.000931 17.412900 translate 0.035278 -0.035278 scale
start_ol
131 2432 moveto
551 2432 lineto
1303 391 lineto
2056 2432 lineto
2476 2432 lineto
1572 0 lineto
1035 0 lineto
131 2432 lineto
end_ol grestore 
gsave 35.345609 17.412900 translate 0.035278 -0.035278 scale
start_ol
2496 1273 moveto
2496 1069 lineto
673 1069 lineto
673 681 896 478 conicto
1120 275 1519 275 conicto
1751 275 1968 328 conicto
2185 381 2399 487 conicto
2399 123 lineto
2186 32 1962 -16 conicto
1738 -64 1508 -64 conicto
930 -64 593 275 conicto
256 615 256 1194 conicto
256 1793 576 2144 conicto
897 2496 1441 2496 conicto
1928 2496 2212 2167 conicto
2496 1838 2496 1273 conicto
2079 1408 moveto
2079 1750 1901 1953 conicto
1724 2157 1431 2157 conicto
1101 2157 902 1960 conicto
703 1764 673 1408 conicto
2079 1408 lineto
end_ol grestore 
gsave 35.702771 17.412900 translate 0.035278 -0.035278 scale
start_ol
end_ol grestore 
gsave 35.887591 17.412900 translate 0.035278 -0.035278 scale
start_ol
2848 2993 moveto
2848 2530 lineto
2628 2738 2378 2841 conicto
2128 2944 1846 2944 conicto
1293 2944 998 2600 conicto
704 2257 704 1608 conicto
704 961 998 618 conicto
1293 275 1846 275 conicto
2128 275 2378 378 conicto
2628 481 2848 689 conicto
2848 230 lineto
2620 83 2364 9 conicto
2109 -64 1825 -64 conicto
1096 -64 676 384 conicto
256 833 256 1608 conicto
256 2386 676 2834 conicto
1096 3283 1825 3283 conicto
2114 3283 2369 3210 conicto
2624 3138 2848 2993 conicto
end_ol grestore 
gsave 36.294710 17.412900 translate 0.035278 -0.035278 scale
start_ol
1362 2157 moveto
1043 2157 858 1905 conicto
673 1654 673 1215 conicto
673 778 857 526 conicto
1041 275 1362 275 conicto
1678 275 1863 527 conicto
2048 780 2048 1215 conicto
2048 1650 1863 1903 conicto
1678 2157 1362 2157 conicto
1361 2496 moveto
1877 2496 2171 2156 conicto
2465 1817 2465 1215 conicto
2465 617 2171 276 conicto
1877 -64 1361 -64 conicto
842 -64 549 276 conicto
256 617 256 1215 conicto
256 1817 549 2156 conicto
842 2496 1361 2496 conicto
end_ol grestore 
gsave 36.651873 17.412900 translate 0.035278 -0.035278 scale
start_ol
2401 1471 moveto
2401 0 lineto
1984 0 lineto
1984 1464 lineto
1984 1812 1855 1984 conicto
1726 2157 1468 2157 conicto
1159 2157 980 1949 conicto
801 1741 801 1384 conicto
801 0 lineto
384 0 lineto
384 2432 lineto
801 2432 lineto
801 2067 lineto
941 2282 1131 2389 conicto
1321 2496 1570 2496 conicto
1980 2496 2190 2236 conicto
2401 1976 2401 1471 conicto
end_ol grestore 
gsave 37.021521 17.412900 translate 0.035278 -0.035278 scale
start_ol
2015 2064 moveto
2015 3392 lineto
2432 3392 lineto
2432 0 lineto
2015 0 lineto
2015 368 lineto
1891 148 1700 42 conicto
1509 -64 1242 -64 conicto
806 -64 531 288 conicto
256 641 256 1215 conicto
256 1791 531 2143 conicto
806 2496 1242 2496 conicto
1509 2496 1700 2390 conicto
1891 2284 2015 2064 conicto
673 1216 moveto
673 776 851 525 conicto
1030 275 1343 275 conicto
1656 275 1835 525 conicto
2015 776 2015 1216 conicto
2015 1656 1835 1906 conicto
1656 2157 1343 2157 conicto
1030 2157 851 1906 conicto
673 1656 673 1216 conicto
end_ol grestore 
gsave 37.391168 17.412900 translate 0.035278 -0.035278 scale
start_ol
384 2432 moveto
801 2432 lineto
801 0 lineto
384 0 lineto
384 2432 lineto
384 3392 moveto
801 3392 lineto
801 2880 lineto
384 2880 lineto
384 3392 lineto
end_ol grestore 
gsave 37.553515 17.412900 translate 0.035278 -0.035278 scale
start_ol
832 3136 moveto
832 2451 lineto
1664 2451 lineto
1664 2112 lineto
832 2112 lineto
832 802 lineto
832 507 914 423 conicto
996 339 1249 339 conicto
1664 339 lineto
1664 0 lineto
1245 0 lineto
773 0 594 172 conicto
415 344 415 798 conicto
415 2112 lineto
128 2112 lineto
128 2451 lineto
415 2451 lineto
415 3136 lineto
832 3136 lineto
end_ol grestore 
gsave 37.783297 17.412900 translate 0.035278 -0.035278 scale
start_ol
384 2432 moveto
801 2432 lineto
801 0 lineto
384 0 lineto
384 2432 lineto
384 3392 moveto
801 3392 lineto
801 2880 lineto
384 2880 lineto
384 3392 lineto
end_ol grestore 
gsave 37.945644 17.412900 translate 0.035278 -0.035278 scale
start_ol
1362 2157 moveto
1043 2157 858 1905 conicto
673 1654 673 1215 conicto
673 778 857 526 conicto
1041 275 1362 275 conicto
1678 275 1863 527 conicto
2048 780 2048 1215 conicto
2048 1650 1863 1903 conicto
1678 2157 1362 2157 conicto
1361 2496 moveto
1877 2496 2171 2156 conicto
2465 1817 2465 1215 conicto
2465 617 2171 276 conicto
1877 -64 1361 -64 conicto
842 -64 549 276 conicto
256 617 256 1215 conicto
256 1817 549 2156 conicto
842 2496 1361 2496 conicto
end_ol grestore 
gsave 38.302807 17.412900 translate 0.035278 -0.035278 scale
start_ol
2401 1471 moveto
2401 0 lineto
1984 0 lineto
1984 1464 lineto
1984 1812 1855 1984 conicto
1726 2157 1468 2157 conicto
1159 2157 980 1949 conicto
801 1741 801 1384 conicto
801 0 lineto
384 0 lineto
384 2432 lineto
801 2432 lineto
801 2067 lineto
941 2282 1131 2389 conicto
1321 2496 1570 2496 conicto
1980 2496 2190 2236 conicto
2401 1976 2401 1471 conicto
end_ol grestore 
gsave 38.672455 17.412900 translate 0.035278 -0.035278 scale
start_ol
1503 1216 moveto
1034 1216 853 1106 conicto
673 997 673 733 conicto
673 522 808 398 conicto
944 275 1178 275 conicto
1499 275 1693 508 conicto
1887 741 1887 1128 conicto
1887 1216 lineto
1503 1216 lineto
2304 1391 moveto
2304 0 lineto
1887 0 lineto
1887 372 lineto
1752 148 1551 42 conicto
1350 -64 1058 -64 conicto
690 -64 473 148 conicto
256 360 256 716 conicto
256 1133 526 1344 conicto
797 1555 1335 1555 conicto
1887 1555 lineto
1887 1593 lineto
1887 1862 1709 2009 conicto
1531 2157 1211 2157 conicto
1007 2157 814 2108 conicto
621 2059 442 1962 conicto
442 2327 lineto
659 2412 864 2454 conicto
1069 2496 1263 2496 conicto
1787 2496 2045 2222 conicto
2304 1948 2304 1391 conicto
end_ol grestore 
gsave 39.029617 17.412900 translate 0.035278 -0.035278 scale
start_ol
384 3392 moveto
801 3392 lineto
801 0 lineto
384 0 lineto
384 3392 lineto
end_ol grestore 
gsave 39.191964 17.412900 translate 0.035278 -0.035278 scale
start_ol
end_ol grestore 
gsave 28.327900 18.212900 translate 0.035278 -0.035278 scale
start_ol
448 3264 moveto
865 3264 lineto
865 1920 lineto
2463 1920 lineto
2463 3264 lineto
2880 3264 lineto
2880 0 lineto
2463 0 lineto
2463 1581 lineto
865 1581 lineto
865 0 lineto
448 0 lineto
448 3264 lineto
end_ol grestore 
gsave 28.767489 18.212900 translate 0.035278 -0.035278 scale
start_ol
2496 1273 moveto
2496 1069 lineto
673 1069 lineto
673 681 896 478 conicto
1120 275 1519 275 conicto
1751 275 1968 328 conicto
2185 381 2399 487 conicto
2399 123 lineto
2186 32 1962 -16 conicto
1738 -64 1508 -64 conicto
930 -64 593 275 conicto
256 615 256 1194 conicto
256 1793 576 2144 conicto
897 2496 1441 2496 conicto
1928 2496 2212 2167 conicto
2496 1838 2496 1273 conicto
2079 1408 moveto
2079 1750 1901 1953 conicto
1724 2157 1431 2157 conicto
1101 2157 902 1960 conicto
703 1764 673 1408 conicto
2079 1408 lineto
end_ol grestore 
gsave 29.124651 18.212900 translate 0.035278 -0.035278 scale
start_ol
832 3136 moveto
832 2451 lineto
1664 2451 lineto
1664 2112 lineto
832 2112 lineto
832 802 lineto
832 507 914 423 conicto
996 339 1249 339 conicto
1664 339 lineto
1664 0 lineto
1245 0 lineto
773 0 594 172 conicto
415 344 415 798 conicto
415 2112 lineto
128 2112 lineto
128 2451 lineto
415 2451 lineto
415 3136 lineto
832 3136 lineto
end_ol grestore 
gsave 29.354434 18.212900 translate 0.035278 -0.035278 scale
start_ol
2496 1273 moveto
2496 1069 lineto
673 1069 lineto
673 681 896 478 conicto
1120 275 1519 275 conicto
1751 275 1968 328 conicto
2185 381 2399 487 conicto
2399 123 lineto
2186 32 1962 -16 conicto
1738 -64 1508 -64 conicto
930 -64 593 275 conicto
256 615 256 1194 conicto
256 1793 576 2144 conicto
897 2496 1441 2496 conicto
1928 2496 2212 2167 conicto
2496 1838 2496 1273 conicto
2079 1408 moveto
2079 1750 1901 1953 conicto
1724 2157 1431 2157 conicto
1101 2157 902 1960 conicto
703 1764 673 1408 conicto
2079 1408 lineto
end_ol grestore 
gsave 29.711596 18.212900 translate 0.035278 -0.035278 scale
start_ol
1792 2080 moveto
1726 2120 1649 2138 conicto
1573 2157 1481 2157 conicto
1152 2157 976 1934 conicto
801 1711 801 1295 conicto
801 0 lineto
384 0 lineto
384 2432 lineto
801 2432 lineto
801 2076 lineto
924 2289 1120 2392 conicto
1316 2496 1596 2496 conicto
1636 2496 1684 2490 conicto
1733 2484 1792 2472 conicto
1792 2080 lineto
end_ol grestore 
gsave 29.938882 18.212900 translate 0.035278 -0.035278 scale
start_ol
1362 2157 moveto
1043 2157 858 1905 conicto
673 1654 673 1215 conicto
673 778 857 526 conicto
1041 275 1362 275 conicto
1678 275 1863 527 conicto
2048 780 2048 1215 conicto
2048 1650 1863 1903 conicto
1678 2157 1362 2157 conicto
1361 2496 moveto
1877 2496 2171 2156 conicto
2465 1817 2465 1215 conicto
2465 617 2171 276 conicto
1877 -64 1361 -64 conicto
842 -64 549 276 conicto
256 617 256 1215 conicto
256 1817 549 2156 conicto
842 2496 1361 2496 conicto
end_ol grestore 
gsave 30.296044 18.212900 translate 0.035278 -0.035278 scale
start_ol
1949 2364 moveto
1949 1984 lineto
1786 2071 1610 2114 conicto
1435 2157 1246 2157 conicto
959 2157 816 2065 conicto
673 1974 673 1791 conicto
673 1653 776 1573 conicto
879 1494 1190 1422 conicto
1322 1392 lineto
1734 1301 1907 1135 conicto
2081 969 2081 670 conicto
2081 331 1813 133 conicto
1545 -64 1076 -64 conicto
881 -64 669 -25 conicto
458 13 224 90 conicto
224 505 lineto
444 390 658 332 conicto
872 275 1082 275 conicto
1362 275 1513 372 conicto
1664 469 1664 645 conicto
1664 807 1556 894 conicto
1448 981 1083 1062 conicto
947 1094 lineto
581 1173 418 1334 conicto
256 1496 256 1779 conicto
256 2123 496 2309 conicto
737 2496 1180 2496 conicto
1399 2496 1592 2463 conicto
1785 2431 1949 2364 conicto
end_ol grestore 
gsave 30.600754 18.212900 translate 0.035278 -0.035278 scale
start_ol
2176 2344 moveto
2176 1970 lineto
2006 2064 1835 2110 conicto
1665 2157 1492 2157 conicto
1103 2157 888 1910 conicto
673 1663 673 1215 conicto
673 769 888 522 conicto
1103 275 1492 275 conicto
1665 275 1835 322 conicto
2006 369 2176 462 conicto
2176 92 lineto
2009 14 1830 -25 conicto
1651 -64 1450 -64 conicto
902 -64 579 282 conicto
256 628 256 1215 conicto
256 1813 582 2154 conicto
908 2496 1476 2496 conicto
1660 2496 1835 2458 conicto
2011 2420 2176 2344 conicto
end_ol grestore 
gsave 30.920453 18.212900 translate 0.035278 -0.035278 scale
start_ol
2496 1273 moveto
2496 1069 lineto
673 1069 lineto
673 681 896 478 conicto
1120 275 1519 275 conicto
1751 275 1968 328 conicto
2185 381 2399 487 conicto
2399 123 lineto
2186 32 1962 -16 conicto
1738 -64 1508 -64 conicto
930 -64 593 275 conicto
256 615 256 1194 conicto
256 1793 576 2144 conicto
897 2496 1441 2496 conicto
1928 2496 2212 2167 conicto
2496 1838 2496 1273 conicto
2079 1408 moveto
2079 1750 1901 1953 conicto
1724 2157 1431 2157 conicto
1101 2157 902 1960 conicto
703 1764 673 1408 conicto
2079 1408 lineto
end_ol grestore 
gsave 31.277616 18.212900 translate 0.035278 -0.035278 scale
start_ol
2015 2064 moveto
2015 3392 lineto
2432 3392 lineto
2432 0 lineto
2015 0 lineto
2015 368 lineto
1891 148 1700 42 conicto
1509 -64 1242 -64 conicto
806 -64 531 288 conicto
256 641 256 1215 conicto
256 1791 531 2143 conicto
806 2496 1242 2496 conicto
1509 2496 1700 2390 conicto
1891 2284 2015 2064 conicto
673 1216 moveto
673 776 851 525 conicto
1030 275 1343 275 conicto
1656 275 1835 525 conicto
2015 776 2015 1216 conicto
2015 1656 1835 1906 conicto
1656 2157 1343 2157 conicto
1030 2157 851 1906 conicto
673 1656 673 1216 conicto
end_ol grestore 
gsave 31.647263 18.212900 translate 0.035278 -0.035278 scale
start_ol
1503 1216 moveto
1034 1216 853 1106 conicto
673 997 673 733 conicto
673 522 808 398 conicto
944 275 1178 275 conicto
1499 275 1693 508 conicto
1887 741 1887 1128 conicto
1887 1216 lineto
1503 1216 lineto
2304 1391 moveto
2304 0 lineto
1887 0 lineto
1887 372 lineto
1752 148 1551 42 conicto
1350 -64 1058 -64 conicto
690 -64 473 148 conicto
256 360 256 716 conicto
256 1133 526 1344 conicto
797 1555 1335 1555 conicto
1887 1555 lineto
1887 1593 lineto
1887 1862 1709 2009 conicto
1531 2157 1211 2157 conicto
1007 2157 814 2108 conicto
621 2059 442 1962 conicto
442 2327 lineto
659 2412 864 2454 conicto
1069 2496 1263 2496 conicto
1787 2496 2045 2222 conicto
2304 1948 2304 1391 conicto
end_ol grestore 
gsave 32.004426 18.212900 translate 0.035278 -0.035278 scale
start_ol
1949 2364 moveto
1949 1984 lineto
1786 2071 1610 2114 conicto
1435 2157 1246 2157 conicto
959 2157 816 2065 conicto
673 1974 673 1791 conicto
673 1653 776 1573 conicto
879 1494 1190 1422 conicto
1322 1392 lineto
1734 1301 1907 1135 conicto
2081 969 2081 670 conicto
2081 331 1813 133 conicto
1545 -64 1076 -64 conicto
881 -64 669 -25 conicto
458 13 224 90 conicto
224 505 lineto
444 390 658 332 conicto
872 275 1082 275 conicto
1362 275 1513 372 conicto
1664 469 1664 645 conicto
1664 807 1556 894 conicto
1448 981 1083 1062 conicto
947 1094 lineto
581 1173 418 1334 conicto
256 1496 256 1779 conicto
256 2123 496 2309 conicto
737 2496 1180 2496 conicto
1399 2496 1592 2463 conicto
1785 2431 1949 2364 conicto
end_ol grestore 
gsave 32.309135 18.212900 translate 0.035278 -0.035278 scale
start_ol
832 3136 moveto
832 2451 lineto
1664 2451 lineto
1664 2112 lineto
832 2112 lineto
832 802 lineto
832 507 914 423 conicto
996 339 1249 339 conicto
1664 339 lineto
1664 0 lineto
1245 0 lineto
773 0 594 172 conicto
415 344 415 798 conicto
415 2112 lineto
128 2112 lineto
128 2451 lineto
415 2451 lineto
415 3136 lineto
832 3136 lineto
end_ol grestore 
gsave 32.538917 18.212900 translate 0.035278 -0.035278 scale
start_ol
384 2432 moveto
801 2432 lineto
801 0 lineto
384 0 lineto
384 2432 lineto
384 3392 moveto
801 3392 lineto
801 2880 lineto
384 2880 lineto
384 3392 lineto
end_ol grestore 
gsave 32.701264 18.212900 translate 0.035278 -0.035278 scale
start_ol
2176 2344 moveto
2176 1970 lineto
2006 2064 1835 2110 conicto
1665 2157 1492 2157 conicto
1103 2157 888 1910 conicto
673 1663 673 1215 conicto
673 769 888 522 conicto
1103 275 1492 275 conicto
1665 275 1835 322 conicto
2006 369 2176 462 conicto
2176 92 lineto
2009 14 1830 -25 conicto
1651 -64 1450 -64 conicto
902 -64 579 282 conicto
256 628 256 1215 conicto
256 1813 582 2154 conicto
908 2496 1476 2496 conicto
1660 2496 1835 2458 conicto
2011 2420 2176 2344 conicto
end_ol grestore 
gsave 33.020963 18.212900 translate 0.035278 -0.035278 scale
start_ol
384 2432 moveto
801 2432 lineto
801 0 lineto
384 0 lineto
384 2432 lineto
384 3392 moveto
801 3392 lineto
801 2880 lineto
384 2880 lineto
384 3392 lineto
end_ol grestore 
gsave 33.183310 18.212900 translate 0.035278 -0.035278 scale
start_ol
832 3136 moveto
832 2451 lineto
1664 2451 lineto
1664 2112 lineto
832 2112 lineto
832 802 lineto
832 507 914 423 conicto
996 339 1249 339 conicto
1664 339 lineto
1664 0 lineto
1245 0 lineto
773 0 594 172 conicto
415 344 415 798 conicto
415 2112 lineto
128 2112 lineto
128 2451 lineto
415 2451 lineto
415 3136 lineto
832 3136 lineto
end_ol grestore 
gsave 33.413092 18.212900 translate 0.035278 -0.035278 scale
start_ol
1389 -196 moveto
1222 -631 1062 -763 conicto
903 -896 637 -896 conicto
320 -896 lineto
320 -557 lineto
553 -557 lineto
716 -557 806 -478 conicto
897 -400 1007 -110 conicto
1078 72 lineto
103 2464 lineto
523 2464 lineto
1275 563 lineto
2028 2464 lineto
2448 2464 lineto
1389 -196 lineto
end_ol grestore 
gsave 33.757770 18.212900 translate 0.035278 -0.035278 scale
start_ol
end_ol grestore 
gsave 33.942590 18.212900 translate 0.035278 -0.035278 scale
start_ol
1369 3392 moveto
1081 2891 941 2402 conicto
801 1913 801 1410 conicto
801 908 942 415 conicto
1083 -77 1369 -576 conicto
1025 -576 lineto
703 -64 543 429 conicto
384 923 384 1410 conicto
384 1896 542 2387 conicto
701 2878 1025 3392 conicto
1369 3392 lineto
end_ol grestore 
gsave 34.169875 18.212900 translate 0.035278 -0.035278 scale
start_ol
2624 445 moveto
2624 1344 lineto
1913 1344 lineto
1913 1683 lineto
3041 1683 lineto
3041 279 lineto
2791 110 2490 23 conicto
2189 -64 1848 -64 conicto
1100 -64 678 378 conicto
256 820 256 1608 conicto
256 2399 678 2841 conicto
1101 3283 1849 3283 conicto
2161 3283 2441 3209 conicto
2722 3136 2960 2993 conicto
2960 2524 lineto
2720 2733 2449 2838 conicto
2179 2944 1881 2944 conicto
1294 2944 999 2608 conicto
704 2273 704 1608 conicto
704 946 1000 610 conicto
1297 275 1887 275 conicto
2117 275 2298 316 conicto
2480 358 2624 445 conicto
end_ol grestore 
gsave 34.621949 18.212900 translate 0.035278 -0.035278 scale
start_ol
1506 2822 moveto
916 1171 lineto
2097 1171 lineto
1506 2822 lineto
1260 3264 moveto
1753 3264 lineto
2977 0 lineto
2525 0 lineto
2233 832 lineto
785 832 lineto
493 0 lineto
34 0 lineto
1260 3264 lineto
end_ol grestore 
gsave 35.021569 18.212900 translate 0.035278 -0.035278 scale
start_ol
1955 1485 moveto
2094 1437 2225 1281 conicto
2356 1125 2488 853 conicto
2924 -32 lineto
2458 -32 lineto
2049 803 lineto
1890 1131 1741 1237 conicto
1593 1344 1336 1344 conicto
865 1344 lineto
865 -32 lineto
448 -32 lineto
448 3200 lineto
1417 3200 lineto
1961 3200 2228 2968 conicto
2496 2737 2496 2270 conicto
2496 1965 2357 1764 conicto
2219 1563 1955 1485 conicto
865 2861 moveto
865 1683 lineto
1412 1683 lineto
1726 1683 1887 1833 conicto
2048 1983 2048 2274 conicto
2048 2565 1887 2713 conicto
1726 2861 1412 2861 conicto
865 2861 lineto
end_ol grestore 
gsave 35.396219 18.212900 translate 0.035278 -0.035278 scale
start_ol
2848 2993 moveto
2848 2530 lineto
2628 2738 2378 2841 conicto
2128 2944 1846 2944 conicto
1293 2944 998 2600 conicto
704 2257 704 1608 conicto
704 961 998 618 conicto
1293 275 1846 275 conicto
2128 275 2378 378 conicto
2628 481 2848 689 conicto
2848 230 lineto
2620 83 2364 9 conicto
2109 -64 1825 -64 conicto
1096 -64 676 384 conicto
256 833 256 1608 conicto
256 2386 676 2834 conicto
1096 3283 1825 3283 conicto
2114 3283 2369 3210 conicto
2624 3138 2848 2993 conicto
end_ol grestore 
gsave 35.803338 18.212900 translate 0.035278 -0.035278 scale
start_ol
448 3264 moveto
865 3264 lineto
865 1920 lineto
2463 1920 lineto
2463 3264 lineto
2880 3264 lineto
2880 0 lineto
2463 0 lineto
2463 1581 lineto
865 1581 lineto
865 0 lineto
448 0 lineto
448 3264 lineto
end_ol grestore 
gsave 36.242927 18.212900 translate 0.035278 -0.035278 scale
start_ol
328 3392 moveto
672 3392 lineto
994 2878 1153 2387 conicto
1313 1896 1313 1410 conicto
1313 923 1153 429 conicto
994 -64 672 -576 conicto
328 -576 lineto
614 -77 755 415 conicto
896 908 896 1410 conicto
896 1913 755 2402 conicto
614 2891 328 3392 conicto
end_ol grestore 
gsave 36.470212 18.212900 translate 0.035278 -0.035278 scale
start_ol
end_ol grestore 
gsave 36.655032 18.212900 translate 0.035278 -0.035278 scale
start_ol
448 3264 moveto
1093 3264 lineto
1919 1043 lineto
2749 3264 lineto
3392 3264 lineto
3392 0 lineto
2975 0 lineto
2975 2866 lineto
2140 628 lineto
1700 628 lineto
865 2866 lineto
865 0 lineto
448 0 lineto
448 3264 lineto
end_ol grestore 
gsave 37.157062 18.212900 translate 0.035278 -0.035278 scale
start_ol
1362 2157 moveto
1043 2157 858 1905 conicto
673 1654 673 1215 conicto
673 778 857 526 conicto
1041 275 1362 275 conicto
1678 275 1863 527 conicto
2048 780 2048 1215 conicto
2048 1650 1863 1903 conicto
1678 2157 1362 2157 conicto
1361 2496 moveto
1877 2496 2171 2156 conicto
2465 1817 2465 1215 conicto
2465 617 2171 276 conicto
1877 -64 1361 -64 conicto
842 -64 549 276 conicto
256 617 256 1215 conicto
256 1817 549 2156 conicto
842 2496 1361 2496 conicto
end_ol grestore 
gsave 37.514225 18.212900 translate 0.035278 -0.035278 scale
start_ol
2015 2064 moveto
2015 3392 lineto
2432 3392 lineto
2432 0 lineto
2015 0 lineto
2015 368 lineto
1891 148 1700 42 conicto
1509 -64 1242 -64 conicto
806 -64 531 288 conicto
256 641 256 1215 conicto
256 1791 531 2143 conicto
806 2496 1242 2496 conicto
1509 2496 1700 2390 conicto
1891 2284 2015 2064 conicto
673 1216 moveto
673 776 851 525 conicto
1030 275 1343 275 conicto
1656 275 1835 525 conicto
2015 776 2015 1216 conicto
2015 1656 1835 1906 conicto
1656 2157 1343 2157 conicto
1030 2157 851 1906 conicto
673 1656 673 1216 conicto
end_ol grestore 
gsave 37.883873 18.212900 translate 0.035278 -0.035278 scale
start_ol
2496 1273 moveto
2496 1069 lineto
673 1069 lineto
673 681 896 478 conicto
1120 275 1519 275 conicto
1751 275 1968 328 conicto
2185 381 2399 487 conicto
2399 123 lineto
2186 32 1962 -16 conicto
1738 -64 1508 -64 conicto
930 -64 593 275 conicto
256 615 256 1194 conicto
256 1793 576 2144 conicto
897 2496 1441 2496 conicto
1928 2496 2212 2167 conicto
2496 1838 2496 1273 conicto
2079 1408 moveto
2079 1750 1901 1953 conicto
1724 2157 1431 2157 conicto
1101 2157 902 1960 conicto
703 1764 673 1408 conicto
2079 1408 lineto
end_ol grestore 
gsave 38.241035 18.212900 translate 0.035278 -0.035278 scale
start_ol
384 3392 moveto
801 3392 lineto
801 0 lineto
384 0 lineto
384 3392 lineto
end_ol grestore 
gsave 38.403382 18.212900 translate 0.035278 -0.035278 scale
start_ol
1949 2364 moveto
1949 1984 lineto
1786 2071 1610 2114 conicto
1435 2157 1246 2157 conicto
959 2157 816 2065 conicto
673 1974 673 1791 conicto
673 1653 776 1573 conicto
879 1494 1190 1422 conicto
1322 1392 lineto
1734 1301 1907 1135 conicto
2081 969 2081 670 conicto
2081 331 1813 133 conicto
1545 -64 1076 -64 conicto
881 -64 669 -25 conicto
458 13 224 90 conicto
224 505 lineto
444 390 658 332 conicto
872 275 1082 275 conicto
1362 275 1513 372 conicto
1664 469 1664 645 conicto
1664 807 1556 894 conicto
1448 981 1083 1062 conicto
947 1094 lineto
581 1173 418 1334 conicto
256 1496 256 1779 conicto
256 2123 496 2309 conicto
737 2496 1180 2496 conicto
1399 2496 1592 2463 conicto
1785 2431 1949 2364 conicto
end_ol grestore 
0.100000 slw
[] 0 sd
[] 0 sd
0 slc
n 21.960400 14.255600 m 21.964854 16.081094 l s
0.100000 slw
[] 0 sd
0 slj
0 slc
n 21.713908 15.693508 m 21.965127 16.192897 l 22.213906 15.692288 l s
0.100000 slw
[] 0 sd
[] 0 sd
0 slj
0 slc
n 31.625000 14.270000 m 31.625000 15.373808 l 33.375000 15.373808 l 33.375000 16.254010 l s
0.100000 slw
[] 0 sd
0 slj
0 slc
n 33.125000 15.865813 m 33.375000 16.365813 l 33.625000 15.865813 l s
0.100000 slw
[] 0 sd
[] 0 sd
0 slj
1.000000 1.000000 1.000000 srgb
n 11.925400 16.400000 m 11.925400 18.600000 l 17.775400 18.600000 l 17.775400 16.400000 l f
0.000000 0.000000 0.000000 srgb
n 11.925400 16.400000 m 11.925400 18.600000 l 17.775400 18.600000 l 17.775400 16.400000 l cp s
gsave 12.736650 17.700000 translate 0.035278 -0.035278 scale
start_ol
448 3264 moveto
865 3264 lineto
865 1885 lineto
2306 3264 lineto
2865 3264 lineto
1271 1742 lineto
2979 0 lineto
2407 0 lineto
865 1572 lineto
865 0 lineto
448 0 lineto
448 3264 lineto
end_ol grestore 
gsave 13.108795 17.700000 translate 0.035278 -0.035278 scale
start_ol
1503 1216 moveto
1034 1216 853 1106 conicto
673 997 673 733 conicto
673 522 808 398 conicto
944 275 1178 275 conicto
1499 275 1693 508 conicto
1887 741 1887 1128 conicto
1887 1216 lineto
1503 1216 lineto
2304 1391 moveto
2304 0 lineto
1887 0 lineto
1887 372 lineto
1752 148 1551 42 conicto
1350 -64 1058 -64 conicto
690 -64 473 148 conicto
256 360 256 716 conicto
256 1133 526 1344 conicto
797 1555 1335 1555 conicto
1887 1555 lineto
1887 1593 lineto
1887 1862 1709 2009 conicto
1531 2157 1211 2157 conicto
1007 2157 814 2108 conicto
621 2059 442 1962 conicto
442 2327 lineto
659 2412 864 2454 conicto
1069 2496 1263 2496 conicto
1787 2496 2045 2222 conicto
2304 1948 2304 1391 conicto
end_ol grestore 
gsave 13.465957 17.700000 translate 0.035278 -0.035278 scale
start_ol
384 3392 moveto
801 3392 lineto
801 0 lineto
384 0 lineto
384 3392 lineto
end_ol grestore 
gsave 13.628304 17.700000 translate 0.035278 -0.035278 scale
start_ol
2267 1978 moveto
2413 2243 2617 2369 conicto
2821 2496 3098 2496 conicto
3469 2496 3671 2229 conicto
3873 1963 3873 1471 conicto
3873 0 lineto
3456 0 lineto
3456 1464 lineto
3456 1816 3338 1986 conicto
3220 2157 2977 2157 conicto
2681 2157 2509 1949 conicto
2337 1741 2337 1384 conicto
2337 0 lineto
1920 0 lineto
1920 1464 lineto
1920 1819 1802 1988 conicto
1684 2157 1437 2157 conicto
1145 2157 973 1948 conicto
801 1739 801 1384 conicto
801 0 lineto
384 0 lineto
384 2432 lineto
801 2432 lineto
801 2067 lineto
934 2287 1120 2391 conicto
1306 2496 1561 2496 conicto
1819 2496 2000 2363 conicto
2181 2231 2267 1978 conicto
end_ol grestore 
gsave 14.197770 17.700000 translate 0.035278 -0.035278 scale
start_ol
1503 1216 moveto
1034 1216 853 1106 conicto
673 997 673 733 conicto
673 522 808 398 conicto
944 275 1178 275 conicto
1499 275 1693 508 conicto
1887 741 1887 1128 conicto
1887 1216 lineto
1503 1216 lineto
2304 1391 moveto
2304 0 lineto
1887 0 lineto
1887 372 lineto
1752 148 1551 42 conicto
1350 -64 1058 -64 conicto
690 -64 473 148 conicto
256 360 256 716 conicto
256 1133 526 1344 conicto
797 1555 1335 1555 conicto
1887 1555 lineto
1887 1593 lineto
1887 1862 1709 2009 conicto
1531 2157 1211 2157 conicto
1007 2157 814 2108 conicto
621 2059 442 1962 conicto
442 2327 lineto
659 2412 864 2454 conicto
1069 2496 1263 2496 conicto
1787 2496 2045 2222 conicto
2304 1948 2304 1391 conicto
end_ol grestore 
gsave 14.554933 17.700000 translate 0.035278 -0.035278 scale
start_ol
2401 1471 moveto
2401 0 lineto
1984 0 lineto
1984 1464 lineto
1984 1812 1855 1984 conicto
1726 2157 1468 2157 conicto
1159 2157 980 1949 conicto
801 1741 801 1384 conicto
801 0 lineto
384 0 lineto
384 2432 lineto
801 2432 lineto
801 2067 lineto
941 2282 1131 2389 conicto
1321 2496 1570 2496 conicto
1980 2496 2190 2236 conicto
2401 1976 2401 1471 conicto
end_ol grestore 
gsave 14.924581 17.700000 translate 0.035278 -0.035278 scale
start_ol
end_ol grestore 
gsave 15.109400 17.700000 translate 0.035278 -0.035278 scale
start_ol
448 3219 moveto
2304 3219 lineto
2304 2880 lineto
865 2880 lineto
865 1875 lineto
2144 1875 lineto
2144 1536 lineto
865 1536 lineto
865 0 lineto
448 0 lineto
448 3219 lineto
end_ol grestore 
gsave 15.404121 17.700000 translate 0.035278 -0.035278 scale
start_ol
384 2432 moveto
801 2432 lineto
801 0 lineto
384 0 lineto
384 2432 lineto
384 3392 moveto
801 3392 lineto
801 2880 lineto
384 2880 lineto
384 3392 lineto
end_ol grestore 
gsave 15.566468 17.700000 translate 0.035278 -0.035278 scale
start_ol
384 3392 moveto
801 3392 lineto
801 0 lineto
384 0 lineto
384 3392 lineto
end_ol grestore 
gsave 15.728815 17.700000 translate 0.035278 -0.035278 scale
start_ol
832 3136 moveto
832 2451 lineto
1664 2451 lineto
1664 2112 lineto
832 2112 lineto
832 802 lineto
832 507 914 423 conicto
996 339 1249 339 conicto
1664 339 lineto
1664 0 lineto
1245 0 lineto
773 0 594 172 conicto
415 344 415 798 conicto
415 2112 lineto
128 2112 lineto
128 2451 lineto
415 2451 lineto
415 3136 lineto
832 3136 lineto
end_ol grestore 
gsave 15.958597 17.700000 translate 0.035278 -0.035278 scale
start_ol
2496 1273 moveto
2496 1069 lineto
673 1069 lineto
673 681 896 478 conicto
1120 275 1519 275 conicto
1751 275 1968 328 conicto
2185 381 2399 487 conicto
2399 123 lineto
2186 32 1962 -16 conicto
1738 -64 1508 -64 conicto
930 -64 593 275 conicto
256 615 256 1194 conicto
256 1793 576 2144 conicto
897 2496 1441 2496 conicto
1928 2496 2212 2167 conicto
2496 1838 2496 1273 conicto
2079 1408 moveto
2079 1750 1901 1953 conicto
1724 2157 1431 2157 conicto
1101 2157 902 1960 conicto
703 1764 673 1408 conicto
2079 1408 lineto
end_ol grestore 
gsave 16.315760 17.700000 translate 0.035278 -0.035278 scale
start_ol
1792 2080 moveto
1726 2120 1649 2138 conicto
1573 2157 1481 2157 conicto
1152 2157 976 1934 conicto
801 1711 801 1295 conicto
801 0 lineto
384 0 lineto
384 2432 lineto
801 2432 lineto
801 2076 lineto
924 2289 1120 2392 conicto
1316 2496 1596 2496 conicto
1636 2496 1684 2490 conicto
1733 2484 1792 2472 conicto
1792 2080 lineto
end_ol grestore 
gsave 16.555530 17.700000 translate 0.035278 -0.035278 scale
start_ol
1949 2364 moveto
1949 1984 lineto
1786 2071 1610 2114 conicto
1435 2157 1246 2157 conicto
959 2157 816 2065 conicto
673 1974 673 1791 conicto
673 1653 776 1573 conicto
879 1494 1190 1422 conicto
1322 1392 lineto
1734 1301 1907 1135 conicto
2081 969 2081 670 conicto
2081 331 1813 133 conicto
1545 -64 1076 -64 conicto
881 -64 669 -25 conicto
458 13 224 90 conicto
224 505 lineto
444 390 658 332 conicto
872 275 1082 275 conicto
1362 275 1513 372 conicto
1664 469 1664 645 conicto
1664 807 1556 894 conicto
1448 981 1083 1062 conicto
947 1094 lineto
581 1173 418 1334 conicto
256 1496 256 1779 conicto
256 2123 496 2309 conicto
737 2496 1180 2496 conicto
1399 2496 1592 2463 conicto
1785 2431 1949 2364 conicto
end_ol grestore 
0.100000 slw
[] 0 sd
[] 0 sd
0 slj
0 slc
n 21.960400 14.255600 m 21.960400 15.255600 l 10.925400 15.255600 l 10.925400 17.500000 l 11.701793 17.500000 l s
0.100000 slw
[] 0 sd
0 slj
0 slc
n 11.313597 17.750000 m 11.813597 17.500000 l 11.313597 17.250000 l s
0.100000 slw
[] 0 sd
[] 0 sd
0 slj
0 slc
n 26.194800 10.463940 m 26.194800 11.359770 l 21.960400 11.359770 l 21.960400 12.031993 l s
0.100000 slw
[] 0 sd
0 slj
0 slc
n 21.710400 11.643797 m 21.960400 12.143797 l 22.210400 11.643797 l s
0.100000 slw
[] 0 sd
[] 0 sd
0 slj
0 slc
n 26.194800 10.463900 m 26.194800 11.355700 l 31.625000 11.355700 l 31.625000 12.046393 l s
0.100000 slw
[] 0 sd
0 slj
0 slc
n 31.375000 11.658197 m 31.625000 12.158197 l 31.875000 11.658197 l s
showpage
