This is BibTeX, Version 0.99dThe top-level auxiliary file: probSensor_journal.aux
The style file: IEEEtran.bst
Database file #1: ref.bib
-- IEEEtran.bst version 1.11 (2003/04/02) by Michael Shell.
-- http://www.ctan.org/tex-archive/macros/latex/contrib/supported/IEEEtran/
-- See the "IEEEtran_bst_HOWTO.pdf" manual for usage information.

Done.
