%!PS-Adobe-3.0 EPSF-3.0
%%Creator: MATLAB, The Mathworks, Inc. Version 7.9.0.529 (R2009b). Operating System: Linux 2.6.26.6-49.fc8 #1 SMP Fri Oct 17 15:59:36 EDT 2008 i686.
%%Title: /home/saket/data/docs/curr-work/saket/sigmod10/fig/example_vol_regions.eps
%%CreationDate: 10/23/2009  12:55:38
%%DocumentNeededFonts: Helvetica
%%+ Helvetica-Bold
%%DocumentProcessColors: Cyan Magenta Yellow Black
%%LanguageLevel: 2
%%Pages: 1
%%BoundingBox:  -333   -21   946   812
%%EndComments

%%BeginProlog
% MathWorks dictionary
/MathWorks 160 dict begin
% definition operators
/bdef {bind def} bind def
/ldef {load def} bind def
/xdef {exch def} bdef
/xstore {exch store} bdef
% operator abbreviations
/c  /clip ldef
/cc /concat ldef
/cp /closepath ldef
/gr /grestore ldef
/gs /gsave ldef
/mt /moveto ldef
/np /newpath ldef
/cm /currentmatrix ldef
/sm /setmatrix ldef
/rm /rmoveto ldef
/rl /rlineto ldef
/s {show newpath} bdef
/sc {setcmykcolor} bdef
/sr /setrgbcolor ldef
/sg /setgray ldef
/w /setlinewidth ldef
/j /setlinejoin ldef
/cap /setlinecap ldef
/rc {rectclip} bdef
/rf {rectfill} bdef
% page state control
/pgsv () def
/bpage {/pgsv save def} bdef
/epage {pgsv restore} bdef
/bplot /gsave ldef
/eplot {stroke grestore} bdef
% orientation switch
/portraitMode 0 def /landscapeMode 1 def /rotateMode 2 def
% coordinate system mappings
/dpi2point 0 def
% font control
/FontSize 0 def
/FMS {/FontSize xstore findfont [FontSize 0 0 FontSize neg 0 0]
  makefont setfont} bdef
/reencode {exch dup where {pop load} {pop StandardEncoding} ifelse
  exch dup 3 1 roll findfont dup length dict begin
  { 1 index /FID ne {def}{pop pop} ifelse } forall
  /Encoding exch def currentdict end definefont pop} bdef
/isroman {findfont /CharStrings get /Agrave known} bdef
/FMSR {3 1 roll 1 index dup isroman {reencode} {pop pop} ifelse
  exch FMS} bdef
/csm {1 dpi2point div -1 dpi2point div scale neg translate
 dup landscapeMode eq {pop -90 rotate}
  {rotateMode eq {90 rotate} if} ifelse} bdef
% line types: solid, dotted, dashed, dotdash
/SO { [] 0 setdash } bdef
/DO { [.5 dpi2point mul 4 dpi2point mul] 0 setdash } bdef
/DA { [6 dpi2point mul] 0 setdash } bdef
/DD { [.5 dpi2point mul 4 dpi2point mul 6 dpi2point mul 4
  dpi2point mul] 0 setdash } bdef
% macros for lines and objects
/L {lineto stroke} bdef
/MP {3 1 roll moveto 1 sub {rlineto} repeat} bdef
/AP {{rlineto} repeat} bdef
/PDlw -1 def
/W {/PDlw currentlinewidth def setlinewidth} def
/PP {closepath eofill} bdef
/DP {closepath stroke} bdef
/MR {4 -2 roll moveto dup  0 exch rlineto exch 0 rlineto
  neg 0 exch rlineto closepath} bdef
/FR {MR stroke} bdef
/PR {MR fill} bdef
/L1i {{currentfile picstr readhexstring pop} image} bdef
/tMatrix matrix def
/MakeOval {newpath tMatrix currentmatrix pop translate scale
0 0 1 0 360 arc tMatrix setmatrix} bdef
/FO {MakeOval stroke} bdef
/PO {MakeOval fill} bdef
/PD {currentlinewidth 2 div 0 360 arc fill
   PDlw -1 eq not {PDlw w /PDlw -1 def} if} def
/FA {newpath tMatrix currentmatrix pop translate scale
  0 0 1 5 -2 roll arc tMatrix setmatrix stroke} bdef
/PA {newpath tMatrix currentmatrix pop	translate 0 0 moveto scale
  0 0 1 5 -2 roll arc closepath tMatrix setmatrix fill} bdef
/FAn {newpath tMatrix currentmatrix pop translate scale
  0 0 1 5 -2 roll arcn tMatrix setmatrix stroke} bdef
/PAn {newpath tMatrix currentmatrix pop translate 0 0 moveto scale
  0 0 1 5 -2 roll arcn closepath tMatrix setmatrix fill} bdef
/vradius 0 def /hradius 0 def /lry 0 def
/lrx 0 def /uly 0 def /ulx 0 def /rad 0 def
/MRR {/vradius xdef /hradius xdef /lry xdef /lrx xdef /uly xdef
  /ulx xdef newpath tMatrix currentmatrix pop ulx hradius add uly
  vradius add translate hradius vradius scale 0 0 1 180 270 arc 
  tMatrix setmatrix lrx hradius sub uly vradius add translate
  hradius vradius scale 0 0 1 270 360 arc tMatrix setmatrix
  lrx hradius sub lry vradius sub translate hradius vradius scale
  0 0 1 0 90 arc tMatrix setmatrix ulx hradius add lry vradius sub
  translate hradius vradius scale 0 0 1 90 180 arc tMatrix setmatrix
  closepath} bdef
/FRR {MRR stroke } bdef
/PRR {MRR fill } bdef
/MlrRR {/lry xdef /lrx xdef /uly xdef /ulx xdef /rad lry uly sub 2 div def
  newpath tMatrix currentmatrix pop ulx rad add uly rad add translate
  rad rad scale 0 0 1 90 270 arc tMatrix setmatrix lrx rad sub lry rad
  sub translate rad rad scale 0 0 1 270 90 arc tMatrix setmatrix
  closepath} bdef
/FlrRR {MlrRR stroke } bdef
/PlrRR {MlrRR fill } bdef
/MtbRR {/lry xdef /lrx xdef /uly xdef /ulx xdef /rad lrx ulx sub 2 div def
  newpath tMatrix currentmatrix pop ulx rad add uly rad add translate
  rad rad scale 0 0 1 180 360 arc tMatrix setmatrix lrx rad sub lry rad
  sub translate rad rad scale 0 0 1 0 180 arc tMatrix setmatrix
  closepath} bdef
/FtbRR {MtbRR stroke } bdef
/PtbRR {MtbRR fill } bdef
/stri 6 array def /dtri 6 array def
/smat 6 array def /dmat 6 array def
/tmat1 6 array def /tmat2 6 array def /dif 3 array def
/asub {/ind2 exch def /ind1 exch def dup dup
  ind1 get exch ind2 get sub exch } bdef
/tri_to_matrix {
  2 0 asub 3 1 asub 4 0 asub 5 1 asub
  dup 0 get exch 1 get 7 -1 roll astore } bdef
/compute_transform {
  dmat dtri tri_to_matrix tmat1 invertmatrix 
  smat stri tri_to_matrix tmat2 concatmatrix } bdef
/ds {stri astore pop} bdef
/dt {dtri astore pop} bdef
/db {2 copy /cols xdef /rows xdef mul dup 3 mul string
  currentfile 
  3 index 0 eq {/ASCIIHexDecode filter}
  {/ASCII85Decode filter 3 index 2 eq {/RunLengthDecode filter} if }
  ifelse exch readstring pop
  dup 0 3 index getinterval /rbmap xdef
  dup 2 index dup getinterval /gbmap xdef
  1 index dup 2 mul exch getinterval /bbmap xdef pop pop}bdef
/it {gs np dtri aload pop moveto lineto lineto cp c
  cols rows 8 compute_transform 
  rbmap gbmap bbmap true 3 colorimage gr}bdef
/il {newpath moveto lineto stroke}bdef
currentdict end def
%%EndProlog

%%BeginSetup
MathWorks begin

0 cap

end
%%EndSetup

%%Page: 1 1
%%BeginPageSetup
%%PageBoundingBox:  -333   -21   946   812
MathWorks begin
bpage
%%EndPageSetup

%%BeginObject: obj1
bplot

/dpi2point 12 def
portraitMode -3996 9744 csm

    0     0 15359 10002 rc
85 dict begin %Colortable dictionary
/c0 { 0.000000 0.000000 0.000000 sr} bdef
/c1 { 1.000000 1.000000 1.000000 sr} bdef
/c2 { 0.900000 0.000000 0.000000 sr} bdef
/c3 { 0.000000 0.820000 0.000000 sr} bdef
/c4 { 0.000000 0.000000 0.800000 sr} bdef
/c5 { 0.910000 0.820000 0.320000 sr} bdef
/c6 { 1.000000 0.260000 0.820000 sr} bdef
/c7 { 0.000000 0.820000 0.820000 sr} bdef
c0
1 j
1 sg
   0    0 15360 10003 rf
9 w
0 8153 11903 0 0 -8153 1997 8902 4 MP
PP
-11903 0 0 8153 11903 0 0 -8153 1997 8902 5 MP stroke
6 w
DO
SO
9 w
0 sg
1997 8902 mt 13900 8902 L
1997  749 mt 13900  749 L
1997 8902 mt 1997  749 L
13900 8902 mt 13900  749 L
1997 8902 mt 13900 8902 L
1997 8902 mt 1997  749 L
2826 8902 mt 2826 8782 L
2826  750 mt 2826  869 L
%%IncludeResource: font Helvetica
/Helvetica /ISOLatin1Encoding 324 FMSR

2223 9237 mt 
(6:30 AM) s
4753 8902 mt 4753 8782 L
4753  750 mt 4753  869 L
4150 9237 mt 
(1:30 PM) s
6680 8902 mt 6680 8782 L
6680  750 mt 6680  869 L
5987 9237 mt 
(20:30 PM) s
8608 8902 mt 8608 8782 L
8608  750 mt 8608  869 L
8005 9237 mt 
(3:30 AM) s
10535 8902 mt 10535 8782 L
10535  750 mt 10535  869 L
9842 9237 mt 
(11:00 AM) s
12462 8902 mt 12462 8782 L
12462  750 mt 12462  869 L
11859 9237 mt 
(6:00 PM) s
1997 8871 mt 2116 8871 L
13900 8871 mt 13780 8871 L
1593 8991 mt 
(-3) s
1997 7229 mt 2116 7229 L
13900 7229 mt 13780 7229 L
1593 7349 mt 
(-1) s
1997 5587 mt 2116 5587 L
13900 5587 mt 13780 5587 L
1782 5707 mt 
(1) s
1997 3946 mt 2116 3946 L
13900 3946 mt 13780 3946 L
1782 4066 mt 
(3) s
1997 2304 mt 2116 2304 L
13900 2304 mt 13780 2304 L
1782 2424 mt 
(5) s
1997 8902 mt 13900 8902 L
1997  749 mt 13900  749 L
1997 8902 mt 1997  749 L
13900 8902 mt 13900  749 L
gs 1997 750 11904 8153 rc
27 w
3 4 9 8 10 8 10 -49 9 0 10 -74 9 0 10 41 
10 49 9 -16 10 0 10 33 9 0 10 0 10 33 9 16 
10 33 9 -16 10 16 10 8 9 -8 10 49 10 -49 9 -66 
10 -49 10 0 9 -33 10 17 9 -41 10 41 10 0 9 0 
10 8 10 41 9 33 10 65 10 82 9 0 10 83 9 32 
10 -32 10 -50 9 66 10 49 10 0 9 66 10 49 10 90 
9 83 10 24 9 49 10 66 10 -66 9 66 10 -33 10 25 
9 8 10 -16 10 -17 9 17 10 -33 9 16 10 -16 10 -17 
9 33 10 17 10 -25 9 25 10 -17 10 33 9 0 10 -25 
9 58 10 -33 10 33 9 8 10 -8 10 57 9 -32 10 -17 
10 25 9 -25 10 -49 9 -82 10 0 10 -8 9 8 10 -25 
10 -16 9 49 10 -49 10 -17 9 -16 10 -33 10 16 9 -32 
10 -17 9 -16 10 41 10 -41 9 -74 10 -8 10 16 9 0 
10 17 10 -17 9 0 10 -66 9 -16 10 -66 10 -16 9 -33 
10 -25 10 50 9 -8 10 32 10 -16 9 0 10 0 9 0 
10 66 10 -66 9 33 10 24 10 33 9 0 10 41 10 41 
9 -41 10 33 9 -82 10 -41 10 33 9 24 10 50 10 -33 
9 16 10 33 10 0 9 49 10 0 9 66 10 0 10 -8 
9 8 10 16 10 33 9 82 10 -82 10 9 9 16 10 33 
9 24 10 -8 10 25 9 0 10 -17 10 -16 9 -16 10 16 
10 16 9 17 10 8 9 25 10 8 10 -8 9 24 10 41 
10 -16 9 66 10 -50 10 66 9 -49 10 0 9 16 10 33 
10 0 9 16 10 9 10 -25 9 -8 10 24 10 25 9 -8 
10 -8 9 8 10 16 10 -49 9 -16 10 16 10 -16 9 0 
10 -9 10 41 9 -16 10 -16 9 0 10 32 10 0 9 33 
10 -8 10 -25 9 -8 10 0 10 -24 9 -17 10 33 9 -16 
10 16 10 -66 9 0 10 41 10 -49 9 0 10 -25 10 50 
9 -17 10 -33 9 17 10 33 10 -50 9 0 10 17 10 -99 
9 -16 10 0 10 16 9 -32 10 16 9 25 10 -33 10 -8 
9 98 10 -98 10 8 9 -58 10 -41 10 17 9 8 10 49 
9 -49 10 0 10 -58 9 -41 10 66 10 -8 9 -25 10 41 
10 -33 9 -32 10 -9 9 41 10 -73 10 -50 9 74 10 -24 
10 -74 9 -9 10 132 10 -115 9 8 10 17 9 8 10 -99 
10 -49 9 66 10 -33 10 33 9 -107 10 66 10 -25 9 -107 
10 17 9 0 10 16 10 -41 9 -74 10 74 10 -98 9 82 
10 0 10 -50 9 17 10 -74 9 33 10 -8 10 -33 9 0 
10 -17 10 -49 9 -16 10 -50 10 -24 9 8 10 0 9 -16 
10 -42 10 -24 9 -8 11027 4052 300 MP stroke
10 8 10 -8 9 -25 10 -8 10 16 9 -16 10 -41 9 0 
10 -17 10 -33 9 -16 10 -16 10 0 9 -50 10 58 10 -17 
9 -49 10 33 9 57 10 33 10 -49 9 8 10 -8 10 -49 
9 -66 10 0 10 -82 9 -16 10 -33 9 -33 10 -33 10 -24 
9 32 10 -57 10 -33 9 0 10 0 10 33 9 -66 10 -24 
9 24 10 -16 10 8 9 -57 10 -50 10 -65 9 -33 10 49 
10 -49 9 -33 10 -8 9 16 10 -33 10 -49 9 -74 10 -33 
10 0 9 17 10 16 10 17 9 49 10 0 10 -66 9 -49 
10 -16 9 -50 10 0 10 -8 9 0 10 25 10 -123 9 -58 
10 0 10 0 9 0 10 0 9 0 10 0 10 0 9 0 
10 0 10 0 9 0 10 0 10 -131 9 -91 10 0 9 -24 
10 33 10 -99 9 -49 10 -82 10 16 9 -90 10 33 10 8 
9 -41 10 57 9 74 10 74 10 17 9 0 10 -148 10 -49 
9 32 10 -65 10 -8 9 16 10 -8 9 -50 10 -32 10 0 
9 0 10 -50 10 -32 9 65 10 0 10 0 9 33 10 -16 
9 32 10 17 10 -33 9 0 10 49 10 0 9 17 10 0 
10 0 9 -74 10 -74 9 -41 10 -25 10 -65 9 0 10 8 
10 8 9 -82 10 16 10 -8 9 -41 10 -57 9 -58 10 -16 
10 0 9 131 10 49 10 -115 9 -49 10 -82 10 -16 9 -66 
10 -74 9 -8 10 -33 10 -16 9 -17 10 33 10 -33 9 33 
10 8 10 9 9 32 10 17 9 0 10 0 10 -17 9 -32 
10 -17 10 -25 9 -24 10 0 10 -33 9 -16 10 0 9 24 
10 8 10 0 9 -41 10 9 10 -33 9 -50 10 0 10 -49 
9 -24 10 -41 9 -17 10 -24 10 -9 9 17 10 0 10 49 
9 25 10 8 10 16 9 0 10 -16 9 8 10 -8 10 16 
9 -65 10 -41 10 -25 9 41 10 -8 10 33 9 -41 10 -74 
9 -17 10 0 10 0 9 -49 10 -57 10 0 9 -9 10 17 
10 -82 9 16 10 -16 9 16 10 16 10 -16 9 -25 10 -24 
10 -17 9 25 10 25 10 0 9 0 10 -17 9 0 10 -8 
10 -8 9 -33 10 -16 10 0 9 -58 10 8 10 0 9 -8 
10 -25 9 50 10 -66 10 -25 9 -41 10 -32 10 -17 9 33 
10 -25 10 25 9 -16 10 16 9 -16 10 8 10 -25 9 -16 
10 -9 10 -32 9 -9 10 0 10 -49 9 0 10 33 9 -16 
10 -33 10 -17 9 -8 10 -24 10 32 9 17 10 90 10 -8 
9 -33 10 -8 9 24 10 17 10 -8 9 8 10 0 10 16 
9 -16 10 -33 10 0 9 -66 10 -16 9 0 10 -33 10 0 
9 -33 10 -16 10 -33 9 -33 10 -82 10 -16 9 -33 10 -17 
9 33 10 0 10 -131 8145 8050 300 MP stroke
9 66 10 0 10 0 9 16 10 49 10 -65 9 0 10 -33 
9 33 10 -17 10 -24 9 -42 10 50 10 33 9 -17 10 -16 
10 0 9 -58 10 25 9 -33 10 16 10 0 9 -8 10 -24 
10 8 9 -17 10 25 10 0 9 0 10 8 10 17 9 0 
10 -25 9 -49 10 -17 10 66 9 -16 10 49 10 -33 9 33 
10 0 10 16 9 -16 10 49 9 -33 10 -49 10 66 9 0 
10 -8 10 57 9 25 10 41 10 0 9 33 10 -9 9 9 
10 0 10 24 9 41 10 -8 10 0 9 33 10 -25 10 -74 
9 25 10 -33 9 -57 10 8 10 49 9 41 10 25 10 -33 
9 8 10 25 10 0 9 49 10 -49 9 49 10 -8 10 -25 
9 -16 10 16 10 17 9 -9 10 25 10 -8 9 24 10 -8 
9 33 10 25 10 -66 9 0 10 33 10 -25 9 25 10 -17 
10 17 9 8 10 -8 9 -17 10 33 10 -41 9 -16 10 33 
10 24 9 25 10 -25 10 41 9 -33 10 33 9 17 10 8 
10 33 9 0 10 16 10 8 9 -41 10 17 10 49 9 -8 
10 8 9 16 10 -16 10 16 9 -49 10 33 10 8 9 41 
10 -33 10 -65 9 49 10 66 9 0 10 24 10 17 9 8 
10 16 10 25 9 -41 10 -16 10 -17 9 33 10 49 9 0 
10 8 10 0 9 -24 10 33 10 16 9 16 10 17 10 0 
9 0 10 0 9 -41 10 8 10 -16 9 16 10 0 10 -33 
9 17 10 -25 10 8 9 -24 10 24 9 33 10 0 10 0 
9 16 10 33 10 -8 9 58 10 -33 10 16 9 49 10 9 
9 -9 10 25 10 -8 9 8 10 33 10 8 9 16 10 17 
10 0 9 -33 10 82 9 -16 10 0 10 41 9 41 10 33 
10 41 9 0 10 -9 10 0 9 17 10 -17 9 0 10 0 
10 -49 9 66 10 -25 10 8 9 42 10 -9 10 50 9 24 
10 8 9 82 10 42 10 24 9 -8 10 41 10 49 9 8 
10 58 10 -41 9 66 10 8 9 57 10 -24 10 32 9 -16 
10 74 10 25 9 -33 10 -33 10 33 9 -17 10 50 9 -50 
10 17 10 33 9 0 10 16 10 -8 9 -17 10 25 10 0 
9 0 10 33 9 0 10 49 10 16 9 50 10 24 10 41 
9 66 10 82 10 115 9 49 10 66 9 66 10 82 10 41 
9 82 10 74 10 98 9 33 10 0 10 0 9 90 10 132 
9 24 10 156 10 91 9 90 10 -49 10 -25 9 -8 10 16 
10 25 9 -66 10 66 9 -17 10 33 10 0 9 50 10 131 
10 49 9 17 10 -17 10 33 9 0 10 16 10 33 9 0 
10 49 9 83 10 114 10 362 9 -41 10 139 10 33 9 57 
10 -123 10 99 9 98 5264 3552 300 MP stroke
10 9 9 115 10 41 10 0 9 49 10 0 10 304 9 385 
10 58 10 304 9 -181 10 197 9 246 10 17 10 -329 9 -295 
10 33 10 -189 9 172 10 583 10 -115 9 -33 10 -90 9 -33 
10 -361 10 115 9 525 10 -262 10 -66 9 131 10 -509 10 575 
9 287 10 -632 9 -25 10 91 10 230 9 558 10 -329 10 50 
9 -33 10 -296 10 378 9 -279 10 -263 9 -271 10 66 10 222 
9 -17 10 -131 10 665 9 -329 10 -320 10 1330 9 -205 10 148 
9 -107 10 -33 10 -509 9 -377 10 -115 10 648 9 -747 10 1158 
10 -526 9 353 10 -328 9 24 10 288 10 -534 9 74 10 213 
10 -164 9 -106 10 -616 10 435 9 222 10 -337 9 -928 10 -328 
10 731 9 33 10 -222 10 139 9 25 10 -33 10 690 9 -443 
10 -198 9 518 10 -156 10 -140 9 690 10 394 10 -41 9 -501 
10 131 10 -665 9 1051 10 197 9 -476 10 -607 10 -50 9 -402 
10 649 10 845 9 -337 10 -49 10 -295 9 -706 10 542 9 -165 
10 -1001 10 304 9 -41 10 295 10 558 9 148 10 33 10 -49 
9 673 10 148 9 -321 10 222 10 -82 9 90 10 -468 10 -541 
9 837 10 377 10 -303 9 -107 10 -164 9 -706 10 312 10 -468 
9 -74 10 1051 10 -706 9 550 10 336 10 -164 9 25 10 0 
9 -435 10 -575 10 -550 9 -107 10 -459 10 16 9 246 10 -640 
10 197 9 238 10 -525 9 763 10 271 10 -238 9 238 10 -468 
10 -279 9 -181 10 124 10 -575 9 -493 10 -238 9 477 10 -411 
10 -279 9 -99 10 -229 10 -296 9 -238 10 -90 10 -91 9 -41 
10 0 9 -49 10 -16 10 213 9 99 10 -148 10 139 9 -57 
10 -328 10 -58 9 -16 10 -123 9 -222 10 -82 10 -172 9 32 
10 -147 10 -99 9 -115 10 -131 10 16 9 -98 10 -82 9 -181 
10 -98 10 -17 9 -66 10 0 10 -65 9 41 10 8 10 58 
9 -9 10 -33 9 -24 10 16 10 -24 9 32 10 17 10 16 
9 33 10 -74 10 25 9 -17 10 0 9 66 10 49 10 33 
9 17 10 49 10 41 9 -25 10 66 10 -99 9 83 10 -83 
9 83 10 32 10 41 9 9 10 8 10 49 9 -57 10 32 
10 -16 9 16 10 25 9 41 10 17 10 32 9 17 10 16 
10 33 9 17 10 32 10 -8 9 -24 10 8 10 -25 9 0 
10 0 9 0 10 0 10 8 9 0 10 41 10 17 9 0 
10 74 10 -9 9 -16 10 16 9 50 10 49 10 49 9 33 
10 16 10 0 9 -41 10 -24 10 -49 9 16 10 -16 9 -33 
10 -17 10 33 9 -16 10 -17 10 -16 9 0 10 -8 10 32 
9 -8 10 0 9 -33 10 -16 10 115 9 66 10 -17 10 33 
9 16 10 -32 10 49 2382 7541 300 MP stroke
9 0 10 16 9 -49 10 0 10 33 9 16 10 -16 10 57 
9 -24 10 -33 10 49 9 33 10 -16 9 49 10 -8 10 8 
9 16 10 -8 10 66 9 8 10 -17 10 -49 9 17 10 -66 
9 0 10 0 10 -16 9 -58 10 -57 10 65 9 25 10 74 
10 49 9 57 10 42 9 -17 10 17 10 -17 9 41 10 8 
1997 7246 41 MP stroke
gr

27 w
%%IncludeResource: font Helvetica-Bold
/Helvetica-Bold /ISOLatin1Encoding 456 FMSR

7133 9903 mt 
(Time \(hrs.\)) s
1332 7055 mt  -90 rotate
(Temperature \(deg. C\)) s
90 rotate
9 w
DA
12 w
0 j
1113 1627 4415 2500 FO
1 j
0 j
 573  759 11445 3541 FO
1 j
SO
27 w
-296 158 5903 1583 2 MP stroke
69 -37 -127 17 5665 1761 3 MP
PP
58 20 69 -37 -127 17 5665 1761 4 MP stroke
-16 59 85 -96 5538 1778 3 MP
PP
-69 37 -16 59 85 -96 5538 1778 4 MP stroke
%%IncludeResource: font Helvetica-Bold
/Helvetica-Bold /ISOLatin1Encoding 324 FMSR

5904 1702 mt 
(  Region A -- 3 deg. C) s
222 133 10568 2946 2 MP stroke
-66 -40 79 100 10777 3019 3 MP
PP
-13 -60 -66 -40 79 100 10777 3019 4 MP stroke
60 -17 -126 -23 10856 3119 3 MP
PP
66 40 60 -17 -126 -23 10856 3119 4 MP stroke
6889 2873 mt 
(  Region B -- 0.2 deg. C) s
9 w

end %%Color Dict

eplot
%%EndObject

epage
end

showpage

%%Trailer
%%EOF
