%!PS-Adobe-3.0 EPSF-3.0
%%Creator: MATLAB, The Mathworks, Inc. Version 7.9.0.529 (R2009b). Operating System: Linux 2.6.26.6-49.fc8 #1 SMP Fri Oct 17 15:59:36 EDT 2008 i686.
%%Title: /home/saket/data/docs/curr-work/saket/sigmod10/fig/example_wind_velocity.eps
%%CreationDate: 10/19/2009  18:19:27
%%DocumentNeededFonts: Helvetica
%%+ Helvetica-Bold
%%DocumentProcessColors: Cyan Magenta Yellow Black
%%LanguageLevel: 2
%%Pages: 1
%%BoundingBox:  -333   -21   946   812
%%EndComments

%%BeginProlog
% MathWorks dictionary
/MathWorks 160 dict begin
% definition operators
/bdef {bind def} bind def
/ldef {load def} bind def
/xdef {exch def} bdef
/xstore {exch store} bdef
% operator abbreviations
/c  /clip ldef
/cc /concat ldef
/cp /closepath ldef
/gr /grestore ldef
/gs /gsave ldef
/mt /moveto ldef
/np /newpath ldef
/cm /currentmatrix ldef
/sm /setmatrix ldef
/rm /rmoveto ldef
/rl /rlineto ldef
/s {show newpath} bdef
/sc {setcmykcolor} bdef
/sr /setrgbcolor ldef
/sg /setgray ldef
/w /setlinewidth ldef
/j /setlinejoin ldef
/cap /setlinecap ldef
/rc {rectclip} bdef
/rf {rectfill} bdef
% page state control
/pgsv () def
/bpage {/pgsv save def} bdef
/epage {pgsv restore} bdef
/bplot /gsave ldef
/eplot {stroke grestore} bdef
% orientation switch
/portraitMode 0 def /landscapeMode 1 def /rotateMode 2 def
% coordinate system mappings
/dpi2point 0 def
% font control
/FontSize 0 def
/FMS {/FontSize xstore findfont [FontSize 0 0 FontSize neg 0 0]
  makefont setfont} bdef
/reencode {exch dup where {pop load} {pop StandardEncoding} ifelse
  exch dup 3 1 roll findfont dup length dict begin
  { 1 index /FID ne {def}{pop pop} ifelse } forall
  /Encoding exch def currentdict end definefont pop} bdef
/isroman {findfont /CharStrings get /Agrave known} bdef
/FMSR {3 1 roll 1 index dup isroman {reencode} {pop pop} ifelse
  exch FMS} bdef
/csm {1 dpi2point div -1 dpi2point div scale neg translate
 dup landscapeMode eq {pop -90 rotate}
  {rotateMode eq {90 rotate} if} ifelse} bdef
% line types: solid, dotted, dashed, dotdash
/SO { [] 0 setdash } bdef
/DO { [.5 dpi2point mul 4 dpi2point mul] 0 setdash } bdef
/DA { [6 dpi2point mul] 0 setdash } bdef
/DD { [.5 dpi2point mul 4 dpi2point mul 6 dpi2point mul 4
  dpi2point mul] 0 setdash } bdef
% macros for lines and objects
/L {lineto stroke} bdef
/MP {3 1 roll moveto 1 sub {rlineto} repeat} bdef
/AP {{rlineto} repeat} bdef
/PDlw -1 def
/W {/PDlw currentlinewidth def setlinewidth} def
/PP {closepath eofill} bdef
/DP {closepath stroke} bdef
/MR {4 -2 roll moveto dup  0 exch rlineto exch 0 rlineto
  neg 0 exch rlineto closepath} bdef
/FR {MR stroke} bdef
/PR {MR fill} bdef
/L1i {{currentfile picstr readhexstring pop} image} bdef
/tMatrix matrix def
/MakeOval {newpath tMatrix currentmatrix pop translate scale
0 0 1 0 360 arc tMatrix setmatrix} bdef
/FO {MakeOval stroke} bdef
/PO {MakeOval fill} bdef
/PD {currentlinewidth 2 div 0 360 arc fill
   PDlw -1 eq not {PDlw w /PDlw -1 def} if} def
/FA {newpath tMatrix currentmatrix pop translate scale
  0 0 1 5 -2 roll arc tMatrix setmatrix stroke} bdef
/PA {newpath tMatrix currentmatrix pop	translate 0 0 moveto scale
  0 0 1 5 -2 roll arc closepath tMatrix setmatrix fill} bdef
/FAn {newpath tMatrix currentmatrix pop translate scale
  0 0 1 5 -2 roll arcn tMatrix setmatrix stroke} bdef
/PAn {newpath tMatrix currentmatrix pop translate 0 0 moveto scale
  0 0 1 5 -2 roll arcn closepath tMatrix setmatrix fill} bdef
/vradius 0 def /hradius 0 def /lry 0 def
/lrx 0 def /uly 0 def /ulx 0 def /rad 0 def
/MRR {/vradius xdef /hradius xdef /lry xdef /lrx xdef /uly xdef
  /ulx xdef newpath tMatrix currentmatrix pop ulx hradius add uly
  vradius add translate hradius vradius scale 0 0 1 180 270 arc 
  tMatrix setmatrix lrx hradius sub uly vradius add translate
  hradius vradius scale 0 0 1 270 360 arc tMatrix setmatrix
  lrx hradius sub lry vradius sub translate hradius vradius scale
  0 0 1 0 90 arc tMatrix setmatrix ulx hradius add lry vradius sub
  translate hradius vradius scale 0 0 1 90 180 arc tMatrix setmatrix
  closepath} bdef
/FRR {MRR stroke } bdef
/PRR {MRR fill } bdef
/MlrRR {/lry xdef /lrx xdef /uly xdef /ulx xdef /rad lry uly sub 2 div def
  newpath tMatrix currentmatrix pop ulx rad add uly rad add translate
  rad rad scale 0 0 1 90 270 arc tMatrix setmatrix lrx rad sub lry rad
  sub translate rad rad scale 0 0 1 270 90 arc tMatrix setmatrix
  closepath} bdef
/FlrRR {MlrRR stroke } bdef
/PlrRR {MlrRR fill } bdef
/MtbRR {/lry xdef /lrx xdef /uly xdef /ulx xdef /rad lrx ulx sub 2 div def
  newpath tMatrix currentmatrix pop ulx rad add uly rad add translate
  rad rad scale 0 0 1 180 360 arc tMatrix setmatrix lrx rad sub lry rad
  sub translate rad rad scale 0 0 1 0 180 arc tMatrix setmatrix
  closepath} bdef
/FtbRR {MtbRR stroke } bdef
/PtbRR {MtbRR fill } bdef
/stri 6 array def /dtri 6 array def
/smat 6 array def /dmat 6 array def
/tmat1 6 array def /tmat2 6 array def /dif 3 array def
/asub {/ind2 exch def /ind1 exch def dup dup
  ind1 get exch ind2 get sub exch } bdef
/tri_to_matrix {
  2 0 asub 3 1 asub 4 0 asub 5 1 asub
  dup 0 get exch 1 get 7 -1 roll astore } bdef
/compute_transform {
  dmat dtri tri_to_matrix tmat1 invertmatrix 
  smat stri tri_to_matrix tmat2 concatmatrix } bdef
/ds {stri astore pop} bdef
/dt {dtri astore pop} bdef
/db {2 copy /cols xdef /rows xdef mul dup 3 mul string
  currentfile 
  3 index 0 eq {/ASCIIHexDecode filter}
  {/ASCII85Decode filter 3 index 2 eq {/RunLengthDecode filter} if }
  ifelse exch readstring pop
  dup 0 3 index getinterval /rbmap xdef
  dup 2 index dup getinterval /gbmap xdef
  1 index dup 2 mul exch getinterval /bbmap xdef pop pop}bdef
/it {gs np dtri aload pop moveto lineto lineto cp c
  cols rows 8 compute_transform 
  rbmap gbmap bbmap true 3 colorimage gr}bdef
/il {newpath moveto lineto stroke}bdef
currentdict end def
%%EndProlog

%%BeginSetup
MathWorks begin

0 cap

end
%%EndSetup

%%Page: 1 1
%%BeginPageSetup
%%PageBoundingBox:  -333   -21   946   812
MathWorks begin
bpage
%%EndPageSetup

%%BeginObject: obj1
bplot

/dpi2point 12 def
portraitMode -3996 9744 csm

    0     0 15359 10002 rc
85 dict begin %Colortable dictionary
/c0 { 0.000000 0.000000 0.000000 sr} bdef
/c1 { 1.000000 1.000000 1.000000 sr} bdef
/c2 { 0.900000 0.000000 0.000000 sr} bdef
/c3 { 0.000000 0.820000 0.000000 sr} bdef
/c4 { 0.000000 0.000000 0.800000 sr} bdef
/c5 { 0.910000 0.820000 0.320000 sr} bdef
/c6 { 1.000000 0.260000 0.820000 sr} bdef
/c7 { 0.000000 0.820000 0.820000 sr} bdef
c0
1 j
1 sg
   0    0 15360 10003 rf
24 w
0 8152 11903 0 0 -8152 1997 8902 4 MP
PP
-11903 0 0 8152 11903 0 0 -8152 1997 8902 5 MP stroke
16 w
DO
SO
24 w
0 sg
1997 8902 mt 13900 8902 L
1997  750 mt 13900  750 L
1997 8902 mt 1997  750 L
13900 8902 mt 13900  750 L
1997 8902 mt 13900 8902 L
1997 8902 mt 1997  750 L
4345 8902 mt 4345 8782 L
4345  749 mt 4345  869 L
%%IncludeResource: font Helvetica
/Helvetica /ISOLatin1Encoding 384 FMSR

4025 9293 mt 
(100) s
6721 8902 mt 6721 8782 L
6721  749 mt 6721  869 L
6401 9293 mt 
(200) s
9098 8902 mt 9098 8782 L
9098  749 mt 9098  869 L
8778 9293 mt 
(300) s
11475 8902 mt 11475 8782 L
11475  749 mt 11475  869 L
11155 9293 mt 
(400) s
13852 8902 mt 13852 8782 L
13852  749 mt 13852  869 L
13532 9293 mt 
(500) s
1997 8730 mt 2116 8730 L
13900 8730 mt 13780 8730 L
1749 8872 mt 
(0) s
1997 7128 mt 2116 7128 L
13900 7128 mt 13780 7128 L
1749 7270 mt 
(5) s
1997 5525 mt 2116 5525 L
13900 5525 mt 13780 5525 L
1535 5667 mt 
(10) s
1997 3922 mt 2116 3922 L
13900 3922 mt 13780 3922 L
1535 4064 mt 
(15) s
1997 2320 mt 2116 2320 L
13900 2320 mt 13780 2320 L
1535 2462 mt 
(20) s
1997 8902 mt 13900 8902 L
1997  750 mt 13900  750 L
1997 8902 mt 1997  750 L
13900 8902 mt 13900  750 L
gs 1997 750 11904 8153 rc
23 -128 24 32 24 32 24 96 23 -96 24 -96 24 96 24 128 
24 -96 23 0 24 64 24 0 24 64 23 -128 24 32 24 128 
24 417 23 -225 24 0 24 -160 24 385 24 -417 23 -64 24 -32 
24 -64 24 0 23 -64 24 192 24 -96 24 -96 23 96 24 -64 
24 128 24 32 24 -160 23 -64 24 0 24 224 24 -96 23 0 
24 32 24 -64 24 128 23 64 24 -256 24 865 24 -32 23 -160 
24 769 24 705 24 2244 24 -2180 23 -32 24 673 24 -737 24 -1154 
23 -352 24 1122 24 -1443 24 -192 23 385 24 -321 24 321 24 705 
24 -289 23 866 24 384 24 -128 24 160 23 -1474 24 64 24 -320 
24 384 23 -64 24 1507 24 -1186 24 897 24 -513 23 -128 24 449 
24 -417 24 64 23 1443 24 1987 24 -417 24 1314 23 1443 24 -609 
24 160 24 320 24 0 23 -1218 24 -96 24 -865 24 -449 23 -1026 
24 -801 24 -1250 24 -1058 23 -96 24 769 24 0 24 0 23 3366 
24 1571 24 -802 24 32 24 161 23 -225 24 577 24 -288 24 -1282 
23 -2789 24 865 24 1795 24 898 23 -417 24 1699 24 -865 24 0 
24 288 23 481 24 -321 24 -769 24 673 23 833 24 -1121 24 64 
24 320 23 -1378 24 -673 24 -321 24 1314 24 -288 23 -160 24 -225 
24 -448 24 -257 23 -128 24 -705 24 96 24 -417 23 -384 24 320 
24 321 24 -994 23 353 24 -930 24 -673 24 1122 24 -289 23 -192 
24 160 24 -705 24 0 23 -96 24 673 24 -417 24 129 23 -129 
24 -224 24 257 24 -385 24 160 23 321 24 -321 24 128 24 97 
23 -257 24 64 24 -128 24 -32 23 192 24 193 24 96 24 -353 
24 -224 23 224 24 -192 24 64 24 449 23 288 24 -737 24 32 
24 224 23 -160 24 160 24 -32 24 0 24 0 23 -320 24 513 
24 224 24 -385 23 97 24 160 24 -128 24 -257 23 962 24 -481 
24 -449 24 -64 23 -224 24 352 24 0 24 0 24 321 23 288 
24 -64 24 -577 24 225 23 -289 24 -160 24 0 24 96 23 449 
24 -96 24 993 24 -128 24 -737 23 1506 24 257 24 -577 24 -160 
23 224 24 -321 24 -961 24 96 23 -256 24 -33 24 225 24 -449 
24 -96 23 -32 24 -32 24 -64 24 96 23 -32 24 32 24 -128 
24 64 23 32 24 673 24 -32 24 192 23 -96 24 -833 24 64 
24 128 24 -64 23 96 24 -160 24 -32 24 160 23 0 24 0 
24 64 24 160 23 -224 24 -96 24 160 24 224 24 -128 23 -256 
24 -64 24 -32 24 32 23 160 24 96 24 225 24 128 23 -193 
24 -160 24 -96 24 -192 24 192 23 -96 24 352 24 161 24 0 
23 -64 24 -129 24 97 24 -257 23 -256 24 64 24 192 24 0 
24 -224 23 256 24 -96 24 -192 24 352 23 289 24 -289 24 32 
24 -192 23 321 24 -449 6769 8666 300 MP stroke
24 -32 24 64 23 -32 24 96 24 0 24 32 24 -64 23 64 
24 -64 24 385 24 -321 23 -32 24 96 24 -32 24 96 23 -64 
24 64 24 -160 24 160 24 64 23 -160 24 -192 24 64 24 -96 
23 32 24 64 24 64 24 481 23 -257 24 -96 24 32 24 128 
24 -288 23 -96 24 128 24 -32 24 -64 23 128 24 64 24 -192 
24 32 23 160 24 -192 24 0 24 320 23 -128 24 -128 24 224 
24 -64 24 160 23 -192 24 -64 24 -96 24 128 23 32 24 -256 
24 32 24 64 23 128 24 -32 24 64 24 32 24 64 23 -128 
24 -128 24 288 24 -224 23 96 24 0 24 -64 24 256 23 -192 
24 -96 24 128 24 -64 24 -192 23 0 24 0 24 384 24 -96 
23 0 24 -256 24 0 24 128 23 -64 24 32 24 64 24 -128 
24 192 23 -128 24 321 24 -161 24 161 23 -417 24 -32 24 160 
24 64 23 257 24 -129 24 64 24 33 23 -193 24 96 24 193 
24 -64 24 -257 23 160 24 161 24 -64 24 -129 23 97 24 128 
24 -96 24 -32 23 64 24 -97 24 97 24 -64 24 -97 23 32 
24 97 24 96 24 -32 23 128 24 -128 24 -257 24 128 23 225 
24 -128 24 -97 24 -256 24 -32 23 -32 24 -96 24 32 24 0 
23 160 24 -160 24 32 24 0 23 -64 24 481 24 -32 24 -289 
23 -96 24 -32 24 -32 24 32 24 0 23 -96 24 96 24 0 
24 0 23 96 24 -96 24 -64 24 256 23 32 24 -288 24 160 
24 64 24 -192 23 352 24 64 24 -352 24 128 23 -96 24 -128 
24 32 24 0 23 32 24 0 24 0 24 352 24 449 23 -128 
24 833 24 -320 24 0 23 128 24 577 24 994 24 -1699 23 -193 
24 -224 24 128 24 321 24 -257 23 -288 24 288 24 -224 24 -256 
23 -289 24 64 24 -224 24 128 23 513 24 224 24 -128 24 -385 
18 -177 1997 8427 202 MP stroke
gr

%%IncludeResource: font Helvetica-Bold
/Helvetica-Bold /ISOLatin1Encoding 456 FMSR

6682 9908 mt 
(Time \(mins.\)) s
1375 6922 mt  -90 rotate
(Wind Velocity \(m/s\)) s
90 rotate

end %%Color Dict

eplot
%%EndObject

epage
end

showpage

%%Trailer
%%EOF
